sim/out.vcd
$date
  Tue Jan 21 02:31:05 2020
$end
$version
  GHDL v0
$end
$timescale
  1 fs
$end
$comment state is not handled $end
$var reg 1 ! clk_tb $end
$var reg 1 " rst_tb $end
$var reg 8 # m1_axis_tdata[7:0] $end
$var reg 1 $ m1_axis_tvalid $end
$var reg 1 % m1_axis_tlast $end
$var reg 1 & m1_axis_tready $end
$var reg 8 ' s1_axis_tdata[7:0] $end
$var reg 1 ( s1_axis_tvalid $end
$var reg 1 ) s1_axis_tlast $end
$var reg 1 * s1_axis_tready $end
$var reg 8 + axis2_tdata[7:0] $end
$var reg 1 , axis2_tvalid $end
$var reg 1 - axis2_tlast $end
$var reg 1 . axis2_tready $end
$var reg 8 / axis3_tdata[7:0] $end
$var reg 1 0 axis3_tvalid $end
$var reg 1 1 axis3_tlast $end
$var reg 1 2 axis3_tready $end
$var reg 8 3 axis4_tdata[7:0] $end
$var reg 1 4 axis4_tvalid $end
$var reg 1 5 axis4_tlast $end
$var reg 1 6 axis4_tready $end
$var reg 8 7 axiso_tdata[7:0] $end
$var reg 1 8 axiso_tvalid $end
$var reg 1 9 axiso_tlast $end
$var reg 1 : axiso_tready $end
$var reg 16 ; axis10_tdata[15:0] $end
$var reg 1 < axis10_tvalid $end
$var reg 1 = axis10_tlast $end
$var reg 1 > axis10_tready $end
$var reg 16 ? axis11_tdata[15:0] $end
$var reg 1 @ axis11_tvalid $end
$var reg 1 A axis11_tlast $end
$var reg 1 B axis11_tready $end
$var reg 48 C axis20_tdata[47:0] $end
$var reg 1 D axis20_tvalid $end
$var reg 1 E axis20_tlast $end
$var reg 1 F axis20_tready $end
$scope module join_16from8_inst $end
$var reg 16 G m_axis_tdata[15:0] $end
$var reg 1 H m_axis_tvalid $end
$var reg 1 I m_axis_tlast $end
$var reg 1 J m_axis_tready $end
$var reg 8 K s_axis_tdata[7:0] $end
$var reg 1 L s_axis_tvalid $end
$var reg 1 M s_axis_tlast $end
$var reg 1 N s_axis_tready $end
$var reg 8 O m_axis_config_tdata[7:0] $end
$var reg 1 P m_axis_config_tvalid $end
$var reg 1 Q m_axis_config_tready $end
$var reg 1 R clk $end
$var reg 1 S rst $end
$comment state is not handled $end
$upscope $end
$scope module join_48from16_inst $end
$var reg 48 T m_axis_tdata[47:0] $end
$var reg 1 U m_axis_tvalid $end
$var reg 1 V m_axis_tlast $end
$var reg 1 W m_axis_tready $end
$var reg 16 X s_axis_tdata[15:0] $end
$var reg 1 Y s_axis_tvalid $end
$var reg 1 Z s_axis_tlast $end
$var reg 1 [ s_axis_tready $end
$var reg 1 \ clk $end
$var reg 1 ] rst $end
$comment state is not handled $end
$upscope $end
$scope module slice_8from48_inst $end
$var reg 8 ^ m_axis_tdata[7:0] $end
$var reg 1 _ m_axis_tvalid $end
$var reg 1 ` m_axis_tlast $end
$var reg 1 a m_axis_tready $end
$var reg 48 b s_axis_tdata[47:0] $end
$var reg 1 c s_axis_tvalid $end
$var reg 1 d s_axis_tlast $end
$var reg 1 e s_axis_tready $end
$var reg 8 f m_axis_config_tdata[7:0] $end
$var reg 1 g m_axis_config_tvalid $end
$var reg 1 h m_axis_config_tready $end
$var reg 1 i clk $end
$var reg 1 j rst $end
$comment state is not handled $end
$upscope $end
$enddefinitions $end
#0
0!
0"
b00000000 #
0$
0%
U&
b00000000 '
1(
0)
0*
b00000000 +
0,
0-
0.
b00000000 /
10
01
02
b00000001 3
14
05
06
bUUUUUUUU 7
U8
U9
1:
bUUUUUUUUUUUUUUUU ;
U<
U=
U>
b0000000000000000 ?
0@
0A
0B
bUUUUUUUUUUUUUUUUUUUUUUUUUUUUUUUUUUUUUUUUUUUUUUUU C
UD
UE
UF
bUUUUUUUUUUUUUUUU G
UH
UI
UJ
b00000000 K
0L
0M
UN
b00000001 O
1P
0Q
0R
0S
bUUUUUUUUUUUUUUUUUUUUUUUUUUUUUUUUUUUUUUUUUUUUUUUU T
UU
UV
UW
bUUUUUUUUUUUUUUUU X
UY
UZ
U[
0\
0]
bUUUUUUUU ^
U_
U`
1a
bUUUUUUUUUUUUUUUUUUUUUUUUUUUUUUUUUUUUUUUUUUUUUUUU b
Uc
Ud
Ue
b00000000 f
1g
0h
0i
0j
#100000000
1!
1&
1*
b00000000 7
08
b0000000000000000 ;
0<
1>
b000000000000000000000000000000000000000000000000 C
0D
1F
b0000000000000000 G
0H
1J
1N
1R
b000000000000000000000000000000000000000000000000 T
0U
1W
b0000000000000000 X
0Y
1[
1\
b00000000 ^
0_
b000000000000000000000000000000000000000000000000 b
0c
1e
1i
#180000000
1"
1S
1]
1j
#200000000
0!
0R
0\
0i
#300000000
1!
b00000001 #
1$
0*
b00000001 K
1L
1R
1\
1i
#400000000
0!
0R
0\
0i
#500000000
1!
b0000000000000001 ;
b0000000000000001 G
1R
b0000000000000001 X
1\
1i
#600000000
0!
0R
0\
0i
#700000000
1!
0$
0&
1*
b0000000100000001 ;
1<
b0000000100000001 G
1H
0L
0N
1R
b0000000100000001 X
1Y
1\
1i
#800000000
0!
0R
0\
0i
#900000000
1!
b00000010 #
1$
1&
0*
0<
b000000000000000000000000000000000000000100000001 C
0H
b00000010 K
1L
1N
1R
b000000000000000000000000000000000000000100000001 T
0Y
1\
b000000000000000000000000000000000000000100000001 b
1i
#1000000000
0!
0R
0\
0i
#1100000000
1!
b0000000100000010 ;
b0000000100000010 G
1R
b0000000100000010 X
1\
1i
#1200000000
0!
0R
0\
0i
#1300000000
1!
0$
0&
1*
b0000001000000010 ;
1<
b0000001000000010 G
1H
0L
0N
1R
b0000001000000010 X
1Y
1\
1i
#1400000000
0!
0R
0\
0i
#1500000000
1!
b00000011 #
1$
1&
0*
0<
b000000000000000000000010000000100000000100000001 C
0H
b00000011 K
1L
1N
1R
b000000000000000000000010000000100000000100000001 T
0Y
1\
b000000000000000000000010000000100000000100000001 b
1i
#1600000000
0!
0R
0\
0i
#1700000000
1!
b0000001000000011 ;
b0000001000000011 G
1R
b0000001000000011 X
1\
1i
#1800000000
0!
0R
0\
0i
#1900000000
1!
0$
0&
1*
b0000001100000011 ;
1<
b0000001100000011 G
1H
0L
0N
1R
b0000001100000011 X
1Y
1\
1i
#2000000000
0!
0R
0\
0i
#2100000000
1!
b00000100 #
1$
1&
0*
0<
0>
b000000110000001100000010000000100000000100000001 C
1D
0H
0J
b00000100 K
1L
1N
1R
b000000110000001100000010000000100000000100000001 T
1U
0Y
0[
1\
b000000110000001100000010000000100000000100000001 b
1c
1i
#2200000000
0!
0R
0\
0i
#2300000000
1!
b00001100 7
18
b0000001100000100 ;
1>
0D
0F
b0000001100000100 G
1J
1R
0U
0W
b0000001100000100 X
1[
1\
b00001100 ^
1_
0c
0e
1i
#2400000000
0!
0R
0\
0i
#2500000000
1!
0$
0&
1*
b00000001 7
b0000010000000100 ;
1<
b0000010000000100 G
1H
0L
0N
1R
b0000010000000100 X
1Y
1\
b00000001 ^
1i
#2600000000
0!
0R
0\
0i
#2700000000
1!
b00000101 #
1$
1&
0*
08
0<
b000000110000001100000010000000100000010000000100 C
1F
0H
b00000101 K
1L
1N
1R
b000000110000001100000010000000100000010000000100 T
1W
0Y
1\
0_
b000000110000001100000010000000100000010000000100 b
1e
1i
#2800000000
0!
0R
0\
0i
#2900000000
1!
b0000010000000101 ;
b0000010000000101 G
1R
b0000010000000101 X
1\
1i
#3000000000
0!
0R
0\
0i
#3100000000
1!
0$
0&
1*
b0000010100000101 ;
1<
b0000010100000101 G
1H
0L
0N
1R
b0000010100000101 X
1Y
1\
1i
#3200000000
0!
0R
0\
0i
#3300000000
1!
b00000110 #
1$
1&
0*
0<
b000000110000001100000101000001010000010000000100 C
0H
b00000110 K
1L
1N
1R
b000000110000001100000101000001010000010000000100 T
0Y
1\
b000000110000001100000101000001010000010000000100 b
1i
#3400000000
0!
0R
0\
0i
#3500000000
1!
b0000010100000110 ;
b0000010100000110 G
1R
b0000010100000110 X
1\
1i
#3600000000
0!
0R
0\
0i
#3700000000
1!
0$
0&
1*
b0000011000000110 ;
1<
b0000011000000110 G
1H
0L
0N
1R
b0000011000000110 X
1Y
1\
1i
#3800000000
0!
0R
0\
0i
#3900000000
1!
b00000111 #
1$
1&
0*
0<
0>
b000001100000011000000101000001010000010000000100 C
1D
0H
0J
b00000111 K
1L
1N
1R
b000001100000011000000101000001010000010000000100 T
1U
0Y
0[
1\
b000001100000011000000101000001010000010000000100 b
1c
1i
#4000000000
0!
0R
0\
0i
#4100000000
1!
b00011000 7
18
b0000011000000111 ;
1>
0D
0F
b0000011000000111 G
1J
1R
0U
0W
b0000011000000111 X
1[
1\
b00011000 ^
1_
0c
0e
1i
#4200000000
0!
0R
0\
0i
#4300000000
1!
0$
0&
1*
b00000100 7
b0000011100000111 ;
1<
b0000011100000111 G
1H
0L
0N
1R
b0000011100000111 X
1Y
1\
b00000100 ^
1i
#4400000000
0!
0R
0\
0i
#4500000000
1!
b00001000 #
1$
1&
0*
08
0<
b000001100000011000000101000001010000011100000111 C
1F
0H
b00001000 K
1L
1N
1R
b000001100000011000000101000001010000011100000111 T
1W
0Y
1\
0_
b000001100000011000000101000001010000011100000111 b
1e
1i
#4600000000
0!
0R
0\
0i
#4700000000
1!
b0000011100001000 ;
b0000011100001000 G
1R
b0000011100001000 X
1\
1i
#4800000000
0!
0R
0\
0i
#4900000000
1!
0$
0&
1*
b0000100000001000 ;
1<
b0000100000001000 G
1H
0L
0N
1R
b0000100000001000 X
1Y
1\
1i
#5000000000
0!
0R
0\
0i
#5100000000
1!
b00001001 #
1$
1&
0*
0<
b000001100000011000001000000010000000011100000111 C
0H
b00001001 K
1L
1N
1R
b000001100000011000001000000010000000011100000111 T
0Y
1\
b000001100000011000001000000010000000011100000111 b
1i
#5200000000
0!
0R
0\
0i
#5300000000
1!
b0000100000001001 ;
b0000100000001001 G
1R
b0000100000001001 X
1\
1i
#5400000000
0!
0R
0\
0i
#5500000000
1!
0$
0&
1*
b0000100100001001 ;
1<
b0000100100001001 G
1H
0L
0N
1R
b0000100100001001 X
1Y
1\
1i
#5600000000
0!
0R
0\
0i
#5700000000
1!
b00001010 #
1$
1&
0*
0<
0>
b000010010000100100001000000010000000011100000111 C
1D
0H
0J
b00001010 K
1L
1N
1R
b000010010000100100001000000010000000011100000111 T
1U
0Y
0[
1\
b000010010000100100001000000010000000011100000111 b
1c
1i
#5800000000
0!
0R
0\
0i
#5900000000
1!
b00100100 7
18
b0000100100001010 ;
1>
0D
0F
b0000100100001010 G
1J
1R
0U
0W
b0000100100001010 X
1[
1\
b00100100 ^
1_
0c
0e
1i
#6000000000
0!
0R
0\
0i
#6100000000
1!
0$
0&
1*
b00000111 7
b0000101000001010 ;
1<
b0000101000001010 G
1H
0L
0N
1R
b0000101000001010 X
1Y
1\
b00000111 ^
1i
#6200000000
0!
0R
0\
0i
#6300000000
1!
b00001011 #
1$
1&
0*
08
0<
b000010010000100100001000000010000000101000001010 C
1F
0H
b00001011 K
1L
1N
1R
b000010010000100100001000000010000000101000001010 T
1W
0Y
1\
0_
b000010010000100100001000000010000000101000001010 b
1e
1i
#6400000000
0!
0R
0\
0i
#6500000000
1!
b0000101000001011 ;
b0000101000001011 G
1R
b0000101000001011 X
1\
1i
#6600000000
0!
0R
0\
0i
#6700000000
1!
0$
0&
1*
b0000101100001011 ;
1<
b0000101100001011 G
1H
0L
0N
1R
b0000101100001011 X
1Y
1\
1i
#6800000000
0!
0R
0\
0i
#6900000000
1!
b00001100 #
1$
1&
0*
0<
b000010010000100100001011000010110000101000001010 C
0H
b00001100 K
1L
1N
1R
b000010010000100100001011000010110000101000001010 T
0Y
1\
b000010010000100100001011000010110000101000001010 b
1i
#7000000000
0!
0R
0\
0i
#7100000000
1!
b0000101100001100 ;
b0000101100001100 G
1R
b0000101100001100 X
1\
1i
#7200000000
0!
0R
0\
0i
#7300000000
1!
0$
0&
1*
b0000110000001100 ;
1<
b0000110000001100 G
1H
0L
0N
1R
b0000110000001100 X
1Y
1\
1i
#7400000000
0!
0R
0\
0i
#7500000000
1!
b00001101 #
1$
1&
0*
0<
0>
b000011000000110000001011000010110000101000001010 C
1D
0H
0J
b00001101 K
1L
1N
1R
b000011000000110000001011000010110000101000001010 T
1U
0Y
0[
1\
b000011000000110000001011000010110000101000001010 b
1c
1i
#7600000000
0!
0R
0\
0i
#7700000000
1!
b00110000 7
18
b0000110000001101 ;
1>
0D
0F
b0000110000001101 G
1J
1R
0U
0W
b0000110000001101 X
1[
1\
b00110000 ^
1_
0c
0e
1i
#7800000000
0!
0R
0\
0i
#7900000000
1!
0$
0&
1*
b00001010 7
b0000110100001101 ;
1<
b0000110100001101 G
1H
0L
0N
1R
b0000110100001101 X
1Y
1\
b00001010 ^
1i
#8000000000
0!
0R
0\
0i
#8100000000
1!
b00001110 #
1$
1&
0*
08
0<
b000011000000110000001011000010110000110100001101 C
1F
0H
b00001110 K
1L
1N
1R
b000011000000110000001011000010110000110100001101 T
1W
0Y
1\
0_
b000011000000110000001011000010110000110100001101 b
1e
1i
#8200000000
0!
0R
0\
0i
#8300000000
1!
b0000110100001110 ;
b0000110100001110 G
1R
b0000110100001110 X
1\
1i
#8400000000
0!
0R
0\
0i
#8500000000
1!
0$
0&
1*
b0000111000001110 ;
1<
b0000111000001110 G
1H
0L
0N
1R
b0000111000001110 X
1Y
1\
1i
#8600000000
0!
0R
0\
0i
#8700000000
1!
b00001111 #
1$
1&
0*
0<
b000011000000110000001110000011100000110100001101 C
0H
b00001111 K
1L
1N
1R
b000011000000110000001110000011100000110100001101 T
0Y
1\
b000011000000110000001110000011100000110100001101 b
1i
#8800000000
0!
0R
0\
0i
#8900000000
1!
b0000111000001111 ;
b0000111000001111 G
1R
b0000111000001111 X
1\
1i
#9000000000
0!
0R
0\
0i
#9100000000
1!
0$
0&
1*
b0000111100001111 ;
1<
b0000111100001111 G
1H
0L
0N
1R
b0000111100001111 X
1Y
1\
1i
#9200000000
0!
0R
0\
0i
#9300000000
1!
b00010000 #
1$
1&
0*
0<
0>
b000011110000111100001110000011100000110100001101 C
1D
0H
0J
b00010000 K
1L
1N
1R
b000011110000111100001110000011100000110100001101 T
1U
0Y
0[
1\
b000011110000111100001110000011100000110100001101 b
1c
1i
#9400000000
0!
0R
0\
0i
#9500000000
1!
b00111100 7
18
b0000111100010000 ;
1>
0D
0F
b0000111100010000 G
1J
1R
0U
0W
b0000111100010000 X
1[
1\
b00111100 ^
1_
0c
0e
1i
#9600000000
0!
0R
0\
0i
#9700000000
1!
0$
0&
1*
b00001101 7
b0001000000010000 ;
1<
b0001000000010000 G
1H
0L
0N
1R
b0001000000010000 X
1Y
1\
b00001101 ^
1i
#9800000000
0!
0R
0\
0i
#9900000000
1!
b00010001 #
1$
1&
0*
08
0<
b000011110000111100001110000011100001000000010000 C
1F
0H
b00010001 K
1L
1N
1R
b000011110000111100001110000011100001000000010000 T
1W
0Y
1\
0_
b000011110000111100001110000011100001000000010000 b
1e
1i
#10000000000
0!
0R
0\
0i
#10100000000
1!
b0001000000010001 ;
b0001000000010001 G
1R
b0001000000010001 X
1\
1i
#10200000000
0!
0R
0\
0i
#10300000000
1!
0$
0&
1*
b0001000100010001 ;
1<
b0001000100010001 G
1H
0L
0N
1R
b0001000100010001 X
1Y
1\
1i
#10400000000
0!
0R
0\
0i
#10500000000
1!
b00010010 #
1$
1&
0*
0<
b000011110000111100010001000100010001000000010000 C
0H
b00010010 K
1L
1N
1R
b000011110000111100010001000100010001000000010000 T
0Y
1\
b000011110000111100010001000100010001000000010000 b
1i
#10600000000
0!
0R
0\
0i
#10700000000
1!
b0001000100010010 ;
b0001000100010010 G
1R
b0001000100010010 X
1\
1i
#10800000000
0!
0R
0\
0i
#10900000000
1!
0$
0&
1*
b0001001000010010 ;
1<
b0001001000010010 G
1H
0L
0N
1R
b0001001000010010 X
1Y
1\
1i
#11000000000
0!
0R
0\
0i
#11100000000
1!
b00010011 #
1$
1&
0*
0<
0>
b000100100001001000010001000100010001000000010000 C
1D
0H
0J
b00010011 K
1L
1N
1R
b000100100001001000010001000100010001000000010000 T
1U
0Y
0[
1\
b000100100001001000010001000100010001000000010000 b
1c
1i
#11200000000
0!
0R
0\
0i
#11300000000
1!
b01001000 7
18
b0001001000010011 ;
1>
0D
0F
b0001001000010011 G
1J
1R
0U
0W
b0001001000010011 X
1[
1\
b01001000 ^
1_
0c
0e
1i
#11400000000
0!
0R
0\
0i
#11500000000
1!
0$
0&
1*
b00010000 7
b0001001100010011 ;
1<
b0001001100010011 G
1H
0L
0N
1R
b0001001100010011 X
1Y
1\
b00010000 ^
1i
#11600000000
0!
0R
0\
0i
#11700000000
1!
b00010100 #
1$
1&
0*
08
0<
b000100100001001000010001000100010001001100010011 C
1F
0H
b00010100 K
1L
1N
1R
b000100100001001000010001000100010001001100010011 T
1W
0Y
1\
0_
b000100100001001000010001000100010001001100010011 b
1e
1i
#11800000000
0!
0R
0\
0i
#11900000000
1!
b0001001100010100 ;
b0001001100010100 G
1R
b0001001100010100 X
1\
1i
#12000000000
0!
0R
0\
0i
#12100000000
1!
0$
0&
1*
b0001010000010100 ;
1<
b0001010000010100 G
1H
0L
0N
1R
b0001010000010100 X
1Y
1\
1i
#12200000000
0!
0R
0\
0i
#12300000000
1!
b00010101 #
1$
1&
0*
0<
b000100100001001000010100000101000001001100010011 C
0H
b00010101 K
1L
1N
1R
b000100100001001000010100000101000001001100010011 T
0Y
1\
b000100100001001000010100000101000001001100010011 b
1i
#12400000000
0!
0R
0\
0i
#12500000000
1!
b0001010000010101 ;
b0001010000010101 G
1R
b0001010000010101 X
1\
1i
#12600000000
0!
0R
0\
0i
#12700000000
1!
0$
0&
1*
b0001010100010101 ;
1<
b0001010100010101 G
1H
0L
0N
1R
b0001010100010101 X
1Y
1\
1i
#12800000000
0!
0R
0\
0i
#12900000000
1!
b00010110 #
1$
1&
0*
0<
0>
b000101010001010100010100000101000001001100010011 C
1D
0H
0J
b00010110 K
1L
1N
1R
b000101010001010100010100000101000001001100010011 T
1U
0Y
0[
1\
b000101010001010100010100000101000001001100010011 b
1c
1i
#13000000000
0!
0R
0\
0i
#13100000000
1!
b01010100 7
18
b0001010100010110 ;
1>
0D
0F
b0001010100010110 G
1J
1R
0U
0W
b0001010100010110 X
1[
1\
b01010100 ^
1_
0c
0e
1i
#13200000000
0!
0R
0\
0i
#13300000000
1!
0$
0&
1*
b00010011 7
b0001011000010110 ;
1<
b0001011000010110 G
1H
0L
0N
1R
b0001011000010110 X
1Y
1\
b00010011 ^
1i
#13400000000
0!
0R
0\
0i
#13500000000
1!
b00010111 #
1$
1&
0*
08
0<
b000101010001010100010100000101000001011000010110 C
1F
0H
b00010111 K
1L
1N
1R
b000101010001010100010100000101000001011000010110 T
1W
0Y
1\
0_
b000101010001010100010100000101000001011000010110 b
1e
1i
#13600000000
0!
0R
0\
0i
#13700000000
1!
b0001011000010111 ;
b0001011000010111 G
1R
b0001011000010111 X
1\
1i
#13800000000
0!
0R
0\
0i
#13900000000
1!
0$
0&
1*
b0001011100010111 ;
1<
b0001011100010111 G
1H
0L
0N
1R
b0001011100010111 X
1Y
1\
1i
#14000000000
0!
0R
0\
0i
#14100000000
1!
b00011000 #
1$
1&
0*
0<
b000101010001010100010111000101110001011000010110 C
0H
b00011000 K
1L
1N
1R
b000101010001010100010111000101110001011000010110 T
0Y
1\
b000101010001010100010111000101110001011000010110 b
1i
#14200000000
0!
0R
0\
0i
#14300000000
1!
b0001011100011000 ;
b0001011100011000 G
1R
b0001011100011000 X
1\
1i
#14400000000
0!
0R
0\
0i
#14500000000
1!
0$
0&
1*
b0001100000011000 ;
1<
b0001100000011000 G
1H
0L
0N
1R
b0001100000011000 X
1Y
1\
1i
#14600000000
0!
0R
0\
0i
#14700000000
1!
b00011001 #
1$
1&
0*
0<
0>
b000110000001100000010111000101110001011000010110 C
1D
0H
0J
b00011001 K
1L
1N
1R
b000110000001100000010111000101110001011000010110 T
1U
0Y
0[
1\
b000110000001100000010111000101110001011000010110 b
1c
1i
#14800000000
0!
0R
0\
0i
#14900000000
1!
b01100000 7
18
b0001100000011001 ;
1>
0D
0F
b0001100000011001 G
1J
1R
0U
0W
b0001100000011001 X
1[
1\
b01100000 ^
1_
0c
0e
1i
#15000000000
0!
0R
0\
0i
#15100000000
1!
0$
0&
1*
b00010110 7
b0001100100011001 ;
1<
b0001100100011001 G
1H
0L
0N
1R
b0001100100011001 X
1Y
1\
b00010110 ^
1i
#15200000000
0!
0R
0\
0i
#15300000000
1!
b00011010 #
1$
1&
0*
08
0<
b000110000001100000010111000101110001100100011001 C
1F
0H
b00011010 K
1L
1N
1R
b000110000001100000010111000101110001100100011001 T
1W
0Y
1\
0_
b000110000001100000010111000101110001100100011001 b
1e
1i
#15400000000
0!
0R
0\
0i
#15500000000
1!
b0001100100011010 ;
b0001100100011010 G
1R
b0001100100011010 X
1\
1i
#15600000000
0!
0R
0\
0i
#15700000000
1!
0$
0&
1*
b0001101000011010 ;
1<
b0001101000011010 G
1H
0L
0N
1R
b0001101000011010 X
1Y
1\
1i
#15800000000
0!
0R
0\
0i
#15900000000
1!
b00011011 #
1$
1&
0*
0<
b000110000001100000011010000110100001100100011001 C
0H
b00011011 K
1L
1N
1R
b000110000001100000011010000110100001100100011001 T
0Y
1\
b000110000001100000011010000110100001100100011001 b
1i
#16000000000
0!
0R
0\
0i
#16100000000
1!
b0001101000011011 ;
b0001101000011011 G
1R
b0001101000011011 X
1\
1i
#16200000000
0!
0R
0\
0i
#16300000000
1!
0$
0&
1*
b0001101100011011 ;
1<
b0001101100011011 G
1H
0L
0N
1R
b0001101100011011 X
1Y
1\
1i
#16400000000
0!
0R
0\
0i
#16500000000
1!
b00011100 #
1$
1&
0*
0<
0>
b000110110001101100011010000110100001100100011001 C
1D
0H
0J
b00011100 K
1L
1N
1R
b000110110001101100011010000110100001100100011001 T
1U
0Y
0[
1\
b000110110001101100011010000110100001100100011001 b
1c
1i
#16600000000
0!
0R
0\
0i
#16700000000
1!
b01101100 7
18
b0001101100011100 ;
1>
0D
0F
b0001101100011100 G
1J
1R
0U
0W
b0001101100011100 X
1[
1\
b01101100 ^
1_
0c
0e
1i
#16800000000
0!
0R
0\
0i
#16900000000
1!
0$
0&
1*
b00011001 7
b0001110000011100 ;
1<
b0001110000011100 G
1H
0L
0N
1R
b0001110000011100 X
1Y
1\
b00011001 ^
1i
#17000000000
0!
0R
0\
0i
#17100000000
1!
b00011101 #
1$
1&
0*
08
0<
b000110110001101100011010000110100001110000011100 C
1F
0H
b00011101 K
1L
1N
1R
b000110110001101100011010000110100001110000011100 T
1W
0Y
1\
0_
b000110110001101100011010000110100001110000011100 b
1e
1i
#17200000000
0!
0R
0\
0i
#17300000000
1!
b0001110000011101 ;
b0001110000011101 G
1R
b0001110000011101 X
1\
1i
#17400000000
0!
0R
0\
0i
#17500000000
1!
0$
0&
1*
b0001110100011101 ;
1<
b0001110100011101 G
1H
0L
0N
1R
b0001110100011101 X
1Y
1\
1i
#17600000000
0!
0R
0\
0i
#17700000000
1!
b00011110 #
1$
1&
0*
0<
b000110110001101100011101000111010001110000011100 C
0H
b00011110 K
1L
1N
1R
b000110110001101100011101000111010001110000011100 T
0Y
1\
b000110110001101100011101000111010001110000011100 b
1i
#17800000000
0!
0R
0\
0i
#17900000000
1!
b0001110100011110 ;
b0001110100011110 G
1R
b0001110100011110 X
1\
1i
#18000000000
0!
0R
0\
0i
#18100000000
1!
0$
0&
1*
b0001111000011110 ;
1<
b0001111000011110 G
1H
0L
0N
1R
b0001111000011110 X
1Y
1\
1i
#18200000000
0!
0R
0\
0i
#18300000000
1!
b00011111 #
1$
1&
0*
0<
0>
b000111100001111000011101000111010001110000011100 C
1D
0H
0J
b00011111 K
1L
1N
1R
b000111100001111000011101000111010001110000011100 T
1U
0Y
0[
1\
b000111100001111000011101000111010001110000011100 b
1c
1i
#18400000000
0!
0R
0\
0i
#18500000000
1!
b01111000 7
18
b0001111000011111 ;
1>
0D
0F
b0001111000011111 G
1J
1R
0U
0W
b0001111000011111 X
1[
1\
b01111000 ^
1_
0c
0e
1i
#18600000000
0!
0R
0\
0i
#18700000000
1!
0$
0&
1*
b00011100 7
b0001111100011111 ;
1<
b0001111100011111 G
1H
0L
0N
1R
b0001111100011111 X
1Y
1\
b00011100 ^
1i
#18800000000
0!
0R
0\
0i
#18900000000
1!
b00100000 #
1$
1&
0*
08
0<
b000111100001111000011101000111010001111100011111 C
1F
0H
b00100000 K
1L
1N
1R
b000111100001111000011101000111010001111100011111 T
1W
0Y
1\
0_
b000111100001111000011101000111010001111100011111 b
1e
1i
#19000000000
0!
0R
0\
0i
#19100000000
1!
b0001111100100000 ;
b0001111100100000 G
1R
b0001111100100000 X
1\
1i
#19200000000
0!
0R
0\
0i
#19300000000
1!
0$
0&
1*
b0010000000100000 ;
1<
b0010000000100000 G
1H
0L
0N
1R
b0010000000100000 X
1Y
1\
1i
#19400000000
0!
0R
0\
0i
#19500000000
1!
b00100001 #
1$
1&
0*
0<
b000111100001111000100000001000000001111100011111 C
0H
b00100001 K
1L
1N
1R
b000111100001111000100000001000000001111100011111 T
0Y
1\
b000111100001111000100000001000000001111100011111 b
1i
#19600000000
0!
0R
0\
0i
#19700000000
1!
b0010000000100001 ;
b0010000000100001 G
1R
b0010000000100001 X
1\
1i
#19800000000
0!
0R
0\
0i
#19900000000
1!
0$
0&
1*
b0010000100100001 ;
1<
b0010000100100001 G
1H
0L
0N
1R
b0010000100100001 X
1Y
1\
1i
#20000000000
0!
0R
0\
0i
#20100000000
1!
b00100010 #
1$
1&
0*
0<
0>
b001000010010000100100000001000000001111100011111 C
1D
0H
0J
b00100010 K
1L
1N
1R
b001000010010000100100000001000000001111100011111 T
1U
0Y
0[
1\
b001000010010000100100000001000000001111100011111 b
1c
1i
#20200000000
0!
0R
0\
0i
#20300000000
1!
b10000100 7
18
b0010000100100010 ;
1>
0D
0F
b0010000100100010 G
1J
1R
0U
0W
b0010000100100010 X
1[
1\
b10000100 ^
1_
0c
0e
1i
#20400000000
0!
0R
0\
0i
#20500000000
1!
0$
0&
1*
b00011111 7
b0010001000100010 ;
1<
b0010001000100010 G
1H
0L
0N
1R
b0010001000100010 X
1Y
1\
b00011111 ^
1i
#20600000000
0!
0R
0\
0i
#20700000000
1!
b00100011 #
1$
1&
0*
08
0<
b001000010010000100100000001000000010001000100010 C
1F
0H
b00100011 K
1L
1N
1R
b001000010010000100100000001000000010001000100010 T
1W
0Y
1\
0_
b001000010010000100100000001000000010001000100010 b
1e
1i
#20800000000
0!
0R
0\
0i
#20900000000
1!
b0010001000100011 ;
b0010001000100011 G
1R
b0010001000100011 X
1\
1i
#21000000000
0!
0R
0\
0i
#21100000000
1!
0$
0&
1*
b0010001100100011 ;
1<
b0010001100100011 G
1H
0L
0N
1R
b0010001100100011 X
1Y
1\
1i
#21200000000
0!
0R
0\
0i
#21300000000
1!
b00100100 #
1$
1&
0*
0<
b001000010010000100100011001000110010001000100010 C
0H
b00100100 K
1L
1N
1R
b001000010010000100100011001000110010001000100010 T
0Y
1\
b001000010010000100100011001000110010001000100010 b
1i
#21400000000
0!
0R
0\
0i
#21500000000
1!
b0010001100100100 ;
b0010001100100100 G
1R
b0010001100100100 X
1\
1i
#21600000000
0!
0R
0\
0i
#21700000000
1!
0$
0&
1*
b0010010000100100 ;
1<
b0010010000100100 G
1H
0L
0N
1R
b0010010000100100 X
1Y
1\
1i
#21800000000
0!
0R
0\
0i
#21900000000
1!
b00100101 #
1$
1&
0*
0<
0>
b001001000010010000100011001000110010001000100010 C
1D
0H
0J
b00100101 K
1L
1N
1R
b001001000010010000100011001000110010001000100010 T
1U
0Y
0[
1\
b001001000010010000100011001000110010001000100010 b
1c
1i
#22000000000
0!
0R
0\
0i
#22100000000
1!
b10010000 7
18
b0010010000100101 ;
1>
0D
0F
b0010010000100101 G
1J
1R
0U
0W
b0010010000100101 X
1[
1\
b10010000 ^
1_
0c
0e
1i
#22200000000
0!
0R
0\
0i
#22300000000
1!
0$
0&
1*
b00100010 7
b0010010100100101 ;
1<
b0010010100100101 G
1H
0L
0N
1R
b0010010100100101 X
1Y
1\
b00100010 ^
1i
#22400000000
0!
0R
0\
0i
#22500000000
1!
b00100110 #
1$
1&
0*
08
0<
b001001000010010000100011001000110010010100100101 C
1F
0H
b00100110 K
1L
1N
1R
b001001000010010000100011001000110010010100100101 T
1W
0Y
1\
0_
b001001000010010000100011001000110010010100100101 b
1e
1i
#22600000000
0!
0R
0\
0i
#22700000000
1!
b0010010100100110 ;
b0010010100100110 G
1R
b0010010100100110 X
1\
1i
#22800000000
0!
0R
0\
0i
#22900000000
1!
0$
0&
1*
b0010011000100110 ;
1<
b0010011000100110 G
1H
0L
0N
1R
b0010011000100110 X
1Y
1\
1i
#23000000000
0!
0R
0\
0i
#23100000000
1!
b00100111 #
1$
1&
0*
0<
b001001000010010000100110001001100010010100100101 C
0H
b00100111 K
1L
1N
1R
b001001000010010000100110001001100010010100100101 T
0Y
1\
b001001000010010000100110001001100010010100100101 b
1i
#23200000000
0!
0R
0\
0i
#23300000000
1!
b0010011000100111 ;
b0010011000100111 G
1R
b0010011000100111 X
1\
1i
#23400000000
0!
0R
0\
0i
#23500000000
1!
0$
0&
1*
b0010011100100111 ;
1<
b0010011100100111 G
1H
0L
0N
1R
b0010011100100111 X
1Y
1\
1i
#23600000000
0!
0R
0\
0i
#23700000000
1!
b00101000 #
1$
1&
0*
0<
0>
b001001110010011100100110001001100010010100100101 C
1D
0H
0J
b00101000 K
1L
1N
1R
b001001110010011100100110001001100010010100100101 T
1U
0Y
0[
1\
b001001110010011100100110001001100010010100100101 b
1c
1i
#23800000000
0!
0R
0\
0i
