sim/out.vcd
$date
  Tue Jan  7 13:43:42 2020
$end
$version
  GHDL v0
$end
$timescale
  1 fs
$end
$comment state is not handled $end
$var reg 1 ! clk_tb $end
$var reg 1 " rst_tb $end
$var reg 8 # m1_axis_tdata[7:0] $end
$var reg 1 $ m1_axis_tvalid $end
$var reg 1 % m1_axis_tlast $end
$var reg 1 & m1_axis_tready $end
$var reg 8 ' s1_axis_tdata[7:0] $end
$var reg 1 ( s1_axis_tvalid $end
$var reg 1 ) s1_axis_tlast $end
$var reg 1 * s1_axis_tready $end
$var reg 8 + axis2_tdata[7:0] $end
$var reg 1 , axis2_tvalid $end
$var reg 1 - axis2_tlast $end
$var reg 1 . axis2_tready $end
$var reg 8 / axis3_tdata[7:0] $end
$var reg 1 0 axis3_tvalid $end
$var reg 1 1 axis3_tlast $end
$var reg 1 2 axis3_tready $end
$var reg 8 3 axis4_tdata[7:0] $end
$var reg 1 4 axis4_tvalid $end
$var reg 1 5 axis4_tlast $end
$var reg 1 6 axis4_tready $end
$var reg 8 7 axiso_tdata[7:0] $end
$var reg 1 8 axiso_tvalid $end
$var reg 1 9 axiso_tlast $end
$var reg 1 : axiso_tready $end
$scope module mapper_inst $end
$var reg 8 ; m_axis_tdata[7:0] $end
$var reg 1 < m_axis_tvalid $end
$var reg 1 = m_axis_tlast $end
$var reg 1 > m_axis_tready $end
$var reg 8 ? s_axis_tdata[7:0] $end
$var reg 1 @ s_axis_tvalid $end
$var reg 1 A s_axis_tlast $end
$var reg 1 B s_axis_tready $end
$var reg 1 C clk $end
$var reg 1 D rst $end
$comment state is not handled $end
$var reg 8 E data2map[7:0] $end
$upscope $end
$scope module cordic_inst $end
$var reg 8 F m_axis_tdata[7:0] $end
$var reg 1 G m_axis_tvalid $end
$var reg 1 H m_axis_tlast $end
$var reg 1 I m_axis_tready $end
$var reg 8 J s_axis_tdata[7:0] $end
$var reg 1 K s_axis_tvalid $end
$var reg 1 L s_axis_tlast $end
$var reg 1 M s_axis_tready $end
$var reg 1 N clk $end
$var reg 1 O rst $end
$comment state is not handled $end
$comment xydata is not handled $end
$var reg 1 P clockwise $end
$var reg 16 Q angle[15:0] $end
$var reg 6 R en[5:0] $end
$var reg 6 S dv[5:0] $end
$comment wirex is not handled $end
$comment wirey is not handled $end
$comment wirez is not handled $end
$comment wirelut is not handled $end
$comment atanlut is not handled $end
$scope module connection_instance(0) $end
$scope module iteration $end
$var reg 1 T clk $end
$var reg 1 U rst $end
$var reg 1 V en_i $end
$var reg 16 W xi[15:0] $end
$var reg 16 X yi[15:0] $end
$var reg 16 Y zi[15:0] $end
$var reg 16 Z ci[15:0] $end
$var reg 1 [ dv_o $end
$var reg 16 \ xip1[15:0] $end
$var reg 16 ] yip1[15:0] $end
$var reg 16 ^ zip1[15:0] $end
$comment state is not handled $end
$upscope $end
$upscope $end
$scope module connection_instance(1) $end
$scope module iteration $end
$var reg 1 _ clk $end
$var reg 1 ` rst $end
$var reg 1 a en_i $end
$var reg 16 b xi[15:0] $end
$var reg 16 c yi[15:0] $end
$var reg 16 d zi[15:0] $end
$var reg 16 e ci[15:0] $end
$var reg 1 f dv_o $end
$var reg 16 g xip1[15:0] $end
$var reg 16 h yip1[15:0] $end
$var reg 16 i zip1[15:0] $end
$comment state is not handled $end
$upscope $end
$upscope $end
$scope module connection_instance(2) $end
$scope module iteration $end
$var reg 1 j clk $end
$var reg 1 k rst $end
$var reg 1 l en_i $end
$var reg 16 m xi[15:0] $end
$var reg 16 n yi[15:0] $end
$var reg 16 o zi[15:0] $end
$var reg 16 p ci[15:0] $end
$var reg 1 q dv_o $end
$var reg 16 r xip1[15:0] $end
$var reg 16 s yip1[15:0] $end
$var reg 16 t zip1[15:0] $end
$comment state is not handled $end
$upscope $end
$upscope $end
$scope module connection_instance(3) $end
$scope module iteration $end
$var reg 1 u clk $end
$var reg 1 v rst $end
$var reg 1 w en_i $end
$var reg 16 x xi[15:0] $end
$var reg 16 y yi[15:0] $end
$var reg 16 z zi[15:0] $end
$var reg 16 { ci[15:0] $end
$var reg 1 | dv_o $end
$var reg 16 } xip1[15:0] $end
$var reg 16 !" yip1[15:0] $end
$var reg 16 "" zip1[15:0] $end
$comment state is not handled $end
$upscope $end
$upscope $end
$scope module connection_instance(4) $end
$scope module iteration $end
$var reg 1 #" clk $end
$var reg 1 $" rst $end
$var reg 1 %" en_i $end
$var reg 16 &" xi[15:0] $end
$var reg 16 '" yi[15:0] $end
$var reg 16 (" zi[15:0] $end
$var reg 16 )" ci[15:0] $end
$var reg 1 *" dv_o $end
$var reg 16 +" xip1[15:0] $end
$var reg 16 ," yip1[15:0] $end
$var reg 16 -" zip1[15:0] $end
$comment state is not handled $end
$upscope $end
$upscope $end
$upscope $end
$enddefinitions $end
#0
0!
0"
b00000000 #
0$
0%
U&
b00000000 '
1(
0)
0*
bUUUUUUUU +
U,
U-
U.
b00000000 /
00
01
02
b00000000 3
04
05
06
bUUUUUUUU 7
U8
U9
1:
bUUUUUUUU ;
U<
U=
U>
b00000000 ?
0@
0A
UB
0C
0D
bUUUUUUUU E
bUUUUUUUU F
UG
UH
1I
bUUUUUUUU J
UK
UL
UM
0N
0O
0P
b0000000000000000 Q
bUUUUU0 R
b0UUUUU S
0T
0U
0V
bUUUUUUUUUUUUUUUU W
bUUUUUUUUUUUUUUUU X
bUUUUUUUUUUUUUUUU Y
b0000000000001011 Z
U[
bUUUUUUUUUUUUUUUU \
bUUUUUUUUUUUUUUUU ]
bUUUUUUUUUUUUUUUU ^
0_
0`
Ua
bUUUUUUUUUUUUUUUU b
bUUUUUUUUUUUUUUUU c
bUUUUUUUUUUUUUUUU d
b0000000000010110 e
Uf
bUUUUUUUUUUUUUUUU g
bUUUUUUUUUUUUUUUU h
bUUUUUUUUUUUUUUUU i
0j
0k
Ul
bUUUUUUUUUUUUUUUU m
bUUUUUUUUUUUUUUUU n
bUUUUUUUUUUUUUUUU o
b0000000000101101 p
Uq
bUUUUUUUUUUUUUUUU r
bUUUUUUUUUUUUUUUU s
bUUUUUUUUUUUUUUUU t
0u
0v
Uw
bUUUUUUUUUUUUUUUU x
bUUUUUUUUUUUUUUUU y
bUUUUUUUUUUUUUUUU z
b0000000001011010 {
U|
bUUUUUUUUUUUUUUUU }
bUUUUUUUUUUUUUUUU !"
bUUUUUUUUUUUUUUUU ""
0#"
0$"
U%"
bUUUUUUUUUUUUUUUU &"
bUUUUUUUUUUUUUUUU '"
bUUUUUUUUUUUUUUUU ("
b0000000010110011 )"
U*"
bUUUUUUUUUUUUUUUU +"
bUUUUUUUUUUUUUUUU ,"
bUUUUUUUUUUUUUUUU -"
#100000000
1!
1&
1*
b00000000 +
0,
1.
b00000000 7
08
b00000000 ;
0<
1>
1B
1C
b00000000 E
b00000000 F
0G
b00000000 J
0K
1M
1N
b000000 R
b000000 S
1T
0[
b0000000000000000 \
b0000000000000000 ]
b0000000000000000 ^
1_
0a
b0000000000000000 b
b0000000000000000 c
b0000000000000000 d
0f
b0000000000000000 g
b0000000000000000 h
b0000000000000000 i
1j
0l
b0000000000000000 m
b0000000000000000 n
b0000000000000000 o
0q
b0000000000000000 r
b0000000000000000 s
b0000000000000000 t
1u
0w
b0000000000000000 x
b0000000000000000 y
b0000000000000000 z
0|
b0000000000000000 }
b0000000000000000 !"
b0000000000000000 ""
1#"
0%"
b0000000000000000 &"
b0000000000000000 '"
b0000000000000000 ("
0*"
b0000000000000000 +"
b0000000000000000 ,"
b0000000000000000 -"
#180000000
1"
1D
1O
1U
1`
1k
1v
1$"
#200000000
0!
0C
0N
0T
0_
0j
0u
0#"
#300000000
1!
1$
0*
1@
1C
1N
1T
1_
1j
1u
1#"
#400000000
0!
0C
0N
0T
0_
0j
0u
0#"
#500000000
1!
0$
1*
0@
1C
1N
1T
1_
1j
1u
1#"
#600000000
0!
0C
0N
0T
0_
0j
0u
0#"
#700000000
1!
b00000001 #
1$
0*
b00000001 ?
1@
1C
1N
1T
1_
1j
1u
1#"
#800000000
0!
0C
0N
0T
0_
0j
0u
0#"
#900000000
1!
0$
0&
1*
b01111101 +
1,
b01111101 ;
1<
0@
0B
1C
b00000100 E
b01111101 J
1K
1N
1T
1_
1j
1u
1#"
#1000000000
0!
0C
0N
0T
0_
0j
0u
0#"
#1100000000
1!
b00000010 #
1$
0*
b00011001 +
b00011001 ;
b00000010 ?
1@
1C
b00011001 J
1N
1T
b0000000001111101 W
1_
1j
1u
1#"
#1200000000
0!
0C
0N
0T
0_
0j
0u
0#"
#1300000000
1!
1&
0,
0.
0<
0>
1B
1C
0K
0M
1N
b000001 R
1T
1V
b0000000000011001 X
b0000000000000000 Y
1_
1j
1u
1#"
#1400000000
0!
0C
0N
0T
0_
0j
0u
0#"
#1500000000
1!
0$
1*
0@
1C
b00000110 E
1N
b000010 R
b000001 S
1T
0V
1[
b1111111111111111 ^
1_
1a
b1111111111111111 d
1j
1u
1#"
#1600000000
0!
0C
0N
0T
0_
0j
0u
0#"
#1700000000
1!
b00000011 #
1$
0*
b00000011 ?
1@
1C
1N
b000100 R
b000010 S
1T
0[
1_
0a
1f
b1111111111111111 i
1j
1l
b1111111111111111 o
1u
1#"
#1800000000
0!
0C
0N
0T
0_
0j
0u
0#"
#1900000000
1!
0$
0&
1*
b10010110 +
1,
b10010110 ;
1<
0@
0B
1C
b00001110 E
b10010110 J
1K
1N
b001000 R
b000100 S
1T
1_
0f
1j
0l
1q
b1111111111111111 t
1u
1w
b1111111111111111 z
1#"
#2000000000
0!
0C
0N
0T
0_
0j
0u
0#"
#2100000000
1!
b00000100 #
1$
0*
b00000100 ?
1@
1C
1N
b010000 R
b001000 S
1T
1_
1j
0q
1u
0w
1|
b1111111111111111 ""
1#"
1%"
b1111111111111111 ("
#2200000000
0!
0C
0N
0T
0_
0j
0u
0#"
#2300000000
1!
1C
1N
b100000 R
b010000 S
1T
1_
1j
1u
0|
1#"
0%"
1*"
b1111111111111111 -"
#2400000000
0!
0C
0N
0T
0_
0j
0u
0#"
#2500000000
1!
18
1C
1G
1N
b000000 R
b000000 S
1T
1_
1j
1u
1#"
0*"
#2600000000
0!
0C
0N
0T
0_
0j
0u
0#"
#2700000000
1!
1C
1N
1T
1_
1j
1u
1#"
#2800000000
0!
0C
0N
0T
0_
0j
0u
0#"
#2900000000
1!
1.
b11111111 7
08
1>
1C
b11111111 F
0G
1M
1N
1T
1_
1j
1u
1#"
#3000000000
0!
0C
0N
0T
0_
0j
0u
0#"
#3100000000
1!
b01000111 +
b01000111 ;
1C
b01000111 J
1N
1T
b0000000010010110 W
1_
1j
1u
1#"
#3200000000
0!
0C
0N
0T
0_
0j
0u
0#"
#3300000000
1!
1&
0,
0.
0<
0>
1B
1C
0K
0M
1N
b000001 R
1T
1V
b0000000001000111 X
1_
1j
1u
1#"
#3400000000
0!
0C
0N
0T
0_
0j
0u
0#"
#3500000000
1!
0$
1*
0@
1C
b00001100 E
1N
b000010 R
b000001 S
1T
0V
1[
1_
1a
1j
1u
1#"
#3600000000
0!
0C
0N
0T
0_
0j
0u
0#"
#3700000000
1!
b00000101 #
1$
0*
b00000101 ?
1@
1C
1N
b000100 R
b000010 S
1T
0[
1_
0a
1f
1j
1l
1u
1#"
#3800000000
0!
0C
0N
0T
0_
0j
0u
0#"
#3900000000
1!
0$
0&
1*
b00011001 +
1,
b00011001 ;
1<
0@
0B
1C
b00000100 E
b00011001 J
1K
1N
b001000 R
b000100 S
1T
1_
0f
1j
0l
1q
1u
1w
1#"
#4000000000
0!
0C
0N
0T
0_
0j
0u
0#"
#4100000000
1!
b00000110 #
1$
0*
b00000110 ?
1@
1C
1N
b010000 R
b001000 S
1T
1_
1j
0q
1u
0w
1|
1#"
1%"
#4200000000
0!
0C
0N
0T
0_
0j
0u
0#"
#4300000000
1!
1C
1N
b100000 R
b010000 S
1T
1_
1j
1u
0|
1#"
0%"
1*"
#4400000000
0!
0C
0N
0T
0_
0j
0u
0#"
#4500000000
1!
b00000000 7
18
1C
b00000000 F
1G
1N
b000000 R
b000000 S
1T
1_
1j
1u
1#"
0*"
#4600000000
0!
0C
0N
0T
0_
0j
0u
0#"
#4700000000
1!
1C
1N
1T
1_
1j
1u
1#"
#4800000000
0!
0C
0N
0T
0_
0j
0u
0#"
#4900000000
1!
1.
b11111111 7
08
1>
1C
b11111111 F
0G
1M
1N
1T
1_
1j
1u
1#"
#5000000000
0!
0C
0N
0T
0_
0j
0u
0#"
#5100000000
1!
b10000011 +
b10000011 ;
1C
b10000011 J
1N
1T
b0000000000011001 W
1_
1j
1u
1#"
#5200000000
0!
0C
0N
0T
0_
0j
0u
0#"
#5300000000
1!
1&
0,
0.
0<
0>
1B
1C
0K
0M
1N
b000001 R
1T
1V
b0000000010000011 X
1_
1j
1u
1#"
#5400000000
0!
0C
0N
0T
0_
0j
0u
0#"
#5500000000
1!
0$
1*
0@
1C
b00000110 E
1N
b000010 R
b000001 S
1T
0V
1[
1_
1a
1j
1u
1#"
#5600000000
0!
0C
0N
0T
0_
0j
0u
0#"
#5700000000
1!
b00000111 #
1$
0*
b00000111 ?
1@
1C
1N
b000100 R
b000010 S
1T
0[
1_
0a
1f
1j
1l
1u
1#"
#5800000000
0!
0C
0N
0T
0_
0j
0u
0#"
#5900000000
1!
0$
0&
1*
b10010110 +
1,
b10010110 ;
1<
0@
0B
1C
b00001110 E
b10010110 J
1K
1N
b001000 R
b000100 S
1T
1_
0f
1j
0l
1q
1u
1w
1#"
#6000000000
0!
0C
0N
0T
0_
0j
0u
0#"
#6100000000
1!
b00001000 #
1$
0*
b00001000 ?
1@
1C
1N
b010000 R
b001000 S
1T
1_
1j
0q
1u
0w
1|
1#"
1%"
#6200000000
0!
0C
0N
0T
0_
0j
0u
0#"
#6300000000
1!
1C
1N
b100000 R
b010000 S
1T
1_
1j
1u
0|
1#"
0%"
1*"
#6400000000
0!
0C
0N
0T
0_
0j
0u
0#"
#6500000000
1!
b00000000 7
18
1C
b00000000 F
1G
1N
b000000 R
b000000 S
1T
1_
1j
1u
1#"
0*"
#6600000000
0!
0C
0N
0T
0_
0j
0u
0#"
#6700000000
1!
1C
1N
1T
1_
1j
1u
1#"
#6800000000
0!
0C
0N
0T
0_
0j
0u
0#"
#6900000000
1!
1.
b11111111 7
08
1>
1C
b11111111 F
0G
1M
1N
1T
1_
1j
1u
1#"
#7000000000
0!
0C
0N
0T
0_
0j
0u
0#"
#7100000000
1!
b01000111 +
b01000111 ;
1C
b01000111 J
1N
1T
b0000000010010110 W
1_
1j
1u
1#"
#7200000000
0!
0C
0N
0T
0_
0j
0u
0#"
#7300000000
1!
1&
0,
0.
0<
0>
1B
1C
0K
0M
1N
b000001 R
1T
1V
b0000000001000111 X
1_
1j
1u
1#"
#7400000000
0!
0C
0N
0T
0_
0j
0u
0#"
#7500000000
1!
0$
1*
0@
1C
b00001100 E
1N
b000010 R
b000001 S
1T
0V
1[
1_
1a
1j
1u
1#"
#7600000000
0!
0C
0N
0T
0_
0j
0u
0#"
#7700000000
1!
b00001001 #
1$
0*
b00001001 ?
1@
1C
1N
b000100 R
b000010 S
1T
0[
1_
0a
1f
1j
1l
1u
1#"
#7800000000
0!
0C
0N
0T
0_
0j
0u
0#"
#7900000000
1!
0$
0&
1*
b00011001 +
1,
b00011001 ;
1<
0@
0B
1C
b00000100 E
b00011001 J
1K
1N
b001000 R
b000100 S
1T
1_
0f
1j
0l
1q
1u
1w
1#"
#8000000000
0!
0C
0N
0T
0_
0j
0u
0#"
#8100000000
1!
b00001010 #
1$
0*
b00001010 ?
1@
1C
1N
b010000 R
b001000 S
1T
1_
1j
0q
1u
0w
1|
1#"
1%"
#8200000000
0!
0C
0N
0T
0_
0j
0u
0#"
#8300000000
1!
1C
1N
b100000 R
b010000 S
1T
1_
1j
1u
0|
1#"
0%"
1*"
#8400000000
0!
0C
0N
0T
0_
0j
0u
0#"
#8500000000
1!
b00000000 7
18
1C
b00000000 F
1G
1N
b000000 R
b000000 S
1T
1_
1j
1u
1#"
0*"
#8600000000
0!
0C
0N
0T
0_
0j
0u
0#"
#8700000000
1!
1C
1N
1T
1_
1j
1u
1#"
#8800000000
0!
0C
0N
0T
0_
0j
0u
0#"
#8900000000
1!
1.
b11111111 7
08
1>
1C
b11111111 F
0G
1M
1N
1T
1_
1j
1u
1#"
#9000000000
0!
0C
0N
0T
0_
0j
0u
0#"
#9100000000
1!
b10000011 +
b10000011 ;
1C
b10000011 J
1N
1T
b0000000000011001 W
1_
1j
1u
1#"
#9200000000
0!
0C
0N
0T
0_
0j
0u
0#"
#9300000000
1!
1&
0,
0.
0<
0>
1B
1C
0K
0M
1N
b000001 R
1T
1V
b0000000010000011 X
1_
1j
1u
1#"
#9400000000
0!
0C
0N
0T
0_
0j
0u
0#"
#9500000000
1!
0$
1*
0@
1C
b00000110 E
1N
b000010 R
b000001 S
1T
0V
1[
1_
1a
1j
1u
1#"
#9600000000
0!
0C
0N
0T
0_
0j
0u
0#"
#9700000000
1!
b00001011 #
1$
0*
b00001011 ?
1@
1C
1N
b000100 R
b000010 S
1T
0[
1_
0a
1f
1j
1l
1u
1#"
#9800000000
0!
0C
0N
0T
0_
0j
0u
0#"
#9900000000
1!
0$
0&
1*
b10010110 +
1,
b10010110 ;
1<
0@
0B
1C
b00001110 E
b10010110 J
1K
1N
b001000 R
b000100 S
1T
1_
0f
1j
0l
1q
1u
1w
1#"
#10000000000
0!
0C
0N
0T
0_
0j
0u
0#"
#10100000000
1!
b00001100 #
1$
0*
b00001100 ?
1@
1C
1N
b010000 R
b001000 S
1T
1_
1j
0q
1u
0w
1|
1#"
1%"
#10200000000
0!
0C
0N
0T
0_
0j
0u
0#"
#10300000000
1!
1C
1N
b100000 R
b010000 S
1T
1_
1j
1u
0|
1#"
0%"
1*"
#10400000000
0!
0C
0N
0T
0_
0j
0u
0#"
#10500000000
1!
b00000000 7
18
1C
b00000000 F
1G
1N
b000000 R
b000000 S
1T
1_
1j
1u
1#"
0*"
#10600000000
0!
0C
0N
0T
0_
0j
0u
0#"
#10700000000
1!
1C
1N
1T
1_
1j
1u
1#"
#10800000000
0!
0C
0N
0T
0_
0j
0u
0#"
#10900000000
1!
1.
b11111111 7
08
1>
1C
b11111111 F
0G
1M
1N
1T
1_
1j
1u
1#"
#11000000000
0!
0C
0N
0T
0_
0j
0u
0#"
#11100000000
1!
b01000111 +
b01000111 ;
1C
b01000111 J
1N
1T
b0000000010010110 W
1_
1j
1u
1#"
#11200000000
0!
0C
0N
0T
0_
0j
0u
0#"
#11300000000
1!
1&
0,
0.
0<
0>
1B
1C
0K
0M
1N
b000001 R
1T
1V
b0000000001000111 X
1_
1j
1u
1#"
#11400000000
0!
0C
0N
0T
0_
0j
0u
0#"
#11500000000
1!
0$
1*
0@
1C
b00001100 E
1N
b000010 R
b000001 S
1T
0V
1[
1_
1a
1j
1u
1#"
#11600000000
0!
0C
0N
0T
0_
0j
0u
0#"
#11700000000
1!
b00001101 #
1$
0*
b00001101 ?
1@
1C
1N
b000100 R
b000010 S
1T
0[
1_
0a
1f
1j
1l
1u
1#"
#11800000000
0!
0C
0N
0T
0_
0j
0u
0#"
#11900000000
1!
0$
0&
1*
b00011001 +
1,
b00011001 ;
1<
0@
0B
1C
b00000100 E
b00011001 J
1K
1N
b001000 R
b000100 S
1T
1_
0f
1j
0l
1q
1u
1w
1#"
#12000000000
0!
0C
0N
0T
0_
0j
0u
0#"
#12100000000
1!
b00001110 #
1$
0*
b00001110 ?
1@
1C
1N
b010000 R
b001000 S
1T
1_
1j
0q
1u
0w
1|
1#"
1%"
#12200000000
0!
0C
0N
0T
0_
0j
0u
0#"
#12300000000
1!
1C
1N
b100000 R
b010000 S
1T
1_
1j
1u
0|
1#"
0%"
1*"
#12400000000
0!
0C
0N
0T
0_
0j
0u
0#"
#12500000000
1!
b00000000 7
18
1C
b00000000 F
1G
1N
b000000 R
b000000 S
1T
1_
1j
1u
1#"
0*"
#12600000000
0!
0C
0N
0T
0_
0j
0u
0#"
#12700000000
1!
1C
1N
1T
1_
1j
1u
1#"
#12800000000
0!
0C
0N
0T
0_
0j
0u
0#"
#12900000000
1!
1.
b11111111 7
08
1>
1C
b11111111 F
0G
1M
1N
1T
1_
1j
1u
1#"
#13000000000
0!
0C
0N
0T
0_
0j
0u
0#"
#13100000000
1!
b10000011 +
b10000011 ;
1C
b10000011 J
1N
1T
b0000000000011001 W
1_
1j
1u
1#"
#13200000000
0!
0C
0N
0T
0_
0j
0u
0#"
#13300000000
1!
1&
0,
0.
0<
0>
1B
1C
0K
0M
1N
b000001 R
1T
1V
b0000000010000011 X
1_
1j
1u
1#"
#13400000000
0!
0C
0N
0T
0_
0j
0u
0#"
#13500000000
1!
0$
1*
0@
1C
b00000110 E
1N
b000010 R
b000001 S
1T
0V
1[
1_
1a
1j
1u
1#"
#13600000000
0!
0C
0N
0T
0_
0j
0u
0#"
#13700000000
1!
b00001111 #
1$
0*
b00001111 ?
1@
1C
1N
b000100 R
b000010 S
1T
0[
1_
0a
1f
1j
1l
1u
1#"
#13800000000
0!
0C
0N
0T
0_
0j
0u
0#"
#13900000000
1!
0$
0&
1*
b10010110 +
1,
b10010110 ;
1<
0@
0B
1C
b00001110 E
b10010110 J
1K
1N
b001000 R
b000100 S
1T
1_
0f
1j
0l
1q
1u
1w
1#"
#14000000000
0!
0C
0N
0T
0_
0j
0u
0#"
#14100000000
1!
b00010000 #
1$
0*
b00010000 ?
1@
1C
1N
b010000 R
b001000 S
1T
1_
1j
0q
1u
0w
1|
1#"
1%"
#14200000000
0!
0C
0N
0T
0_
0j
0u
0#"
#14300000000
1!
1C
1N
b100000 R
b010000 S
1T
1_
1j
1u
0|
1#"
0%"
1*"
#14400000000
0!
0C
0N
0T
0_
0j
0u
0#"
#14500000000
1!
b00000000 7
18
1C
b00000000 F
1G
1N
b000000 R
b000000 S
1T
1_
1j
1u
1#"
0*"
#14600000000
0!
0C
0N
0T
0_
0j
0u
0#"
#14700000000
1!
1C
1N
1T
1_
1j
1u
1#"
#14800000000
0!
0C
0N
0T
0_
0j
0u
0#"
#14900000000
1!
1.
b11111111 7
08
1>
1C
b11111111 F
0G
1M
1N
1T
1_
1j
1u
1#"
#15000000000
0!
0C
0N
0T
0_
0j
0u
0#"
#15100000000
1!
b01000111 +
b01000111 ;
1C
b01000111 J
1N
1T
b0000000010010110 W
1_
1j
1u
1#"
#15200000000
0!
0C
0N
0T
0_
0j
0u
0#"
#15300000000
1!
1&
0,
0.
0<
0>
1B
1C
0K
0M
1N
b000001 R
1T
1V
b0000000001000111 X
1_
1j
1u
1#"
#15400000000
0!
0C
0N
0T
0_
0j
0u
0#"
#15500000000
1!
0$
1*
0@
1C
b00001100 E
1N
b000010 R
b000001 S
1T
0V
1[
1_
1a
1j
1u
1#"
#15600000000
0!
0C
0N
0T
0_
0j
0u
0#"
#15700000000
1!
b00010001 #
1$
0*
b00010001 ?
1@
1C
1N
b000100 R
b000010 S
1T
0[
1_
0a
1f
1j
1l
1u
1#"
#15800000000
0!
0C
0N
0T
0_
0j
0u
0#"
#15900000000
1!
0$
0&
1*
b00011001 +
1,
b00011001 ;
1<
0@
0B
1C
b00000100 E
b00011001 J
1K
1N
b001000 R
b000100 S
1T
1_
0f
1j
0l
1q
1u
1w
1#"
#16000000000
0!
0C
0N
0T
0_
0j
0u
0#"
#16100000000
1!
b00010010 #
1$
0*
b00010010 ?
1@
1C
1N
b010000 R
b001000 S
1T
1_
1j
0q
1u
0w
1|
1#"
1%"
#16200000000
0!
0C
0N
0T
0_
0j
0u
0#"
#16300000000
1!
1C
1N
b100000 R
b010000 S
1T
1_
1j
1u
0|
1#"
0%"
1*"
#16400000000
0!
0C
0N
0T
0_
0j
0u
0#"
#16500000000
1!
b00000000 7
18
1C
b00000000 F
1G
1N
b000000 R
b000000 S
1T
1_
1j
1u
1#"
0*"
#16600000000
0!
0C
0N
0T
0_
0j
0u
0#"
#16700000000
1!
1C
1N
1T
1_
1j
1u
1#"
#16800000000
0!
0C
0N
0T
0_
0j
0u
0#"
#16900000000
1!
1.
b11111111 7
08
1>
1C
b11111111 F
0G
1M
1N
1T
1_
1j
1u
1#"
#17000000000
0!
0C
0N
0T
0_
0j
0u
0#"
#17100000000
1!
b10000011 +
b10000011 ;
1C
b10000011 J
1N
1T
b0000000000011001 W
1_
1j
1u
1#"
#17200000000
0!
0C
0N
0T
0_
0j
0u
0#"
#17300000000
1!
1&
0,
0.
0<
0>
1B
1C
0K
0M
1N
b000001 R
1T
1V
b0000000010000011 X
1_
1j
1u
1#"
#17400000000
0!
0C
0N
0T
0_
0j
0u
0#"
#17500000000
1!
0$
1*
0@
1C
b00000110 E
1N
b000010 R
b000001 S
1T
0V
1[
1_
1a
1j
1u
1#"
#17600000000
0!
0C
0N
0T
0_
0j
0u
0#"
#17700000000
1!
b00010011 #
1$
0*
b00010011 ?
1@
1C
1N
b000100 R
b000010 S
1T
0[
1_
0a
1f
1j
1l
1u
1#"
#17800000000
0!
0C
0N
0T
0_
0j
0u
0#"
#17900000000
1!
0$
0&
1*
b10010110 +
1,
b10010110 ;
1<
0@
0B
1C
b00001110 E
b10010110 J
1K
1N
b001000 R
b000100 S
1T
1_
0f
1j
0l
1q
1u
1w
1#"
#18000000000
0!
0C
0N
0T
0_
0j
0u
0#"
#18100000000
1!
b00010100 #
1$
0*
b00010100 ?
1@
1C
1N
b010000 R
b001000 S
1T
1_
1j
0q
1u
0w
1|
1#"
1%"
#18200000000
0!
0C
0N
0T
0_
0j
0u
0#"
#18300000000
1!
1C
1N
b100000 R
b010000 S
1T
1_
1j
1u
0|
1#"
0%"
1*"
#18400000000
0!
0C
0N
0T
0_
0j
0u
0#"
#18500000000
1!
b00000000 7
18
1C
b00000000 F
1G
1N
b000000 R
b000000 S
1T
1_
1j
1u
1#"
0*"
#18600000000
0!
0C
0N
0T
0_
0j
0u
0#"
#18700000000
1!
1C
1N
1T
1_
1j
1u
1#"
#18800000000
0!
0C
0N
0T
0_
0j
0u
0#"
#18900000000
1!
1.
b11111111 7
08
1>
1C
b11111111 F
0G
1M
1N
1T
1_
1j
1u
1#"
#19000000000
0!
0C
0N
0T
0_
0j
0u
0#"
#19100000000
1!
b01000111 +
b01000111 ;
1C
b01000111 J
1N
1T
b0000000010010110 W
1_
1j
1u
1#"
#19200000000
0!
0C
0N
0T
0_
0j
0u
0#"
#19300000000
1!
1&
0,
0.
0<
0>
1B
1C
0K
0M
1N
b000001 R
1T
1V
b0000000001000111 X
1_
1j
1u
1#"
#19400000000
0!
0C
0N
0T
0_
0j
0u
0#"
#19500000000
1!
0$
1*
0@
1C
b00001100 E
1N
b000010 R
b000001 S
1T
0V
1[
1_
1a
1j
1u
1#"
#19600000000
0!
0C
0N
0T
0_
0j
0u
0#"
#19700000000
1!
b00010101 #
1$
0*
b00010101 ?
1@
1C
1N
b000100 R
b000010 S
1T
0[
1_
0a
1f
1j
1l
1u
1#"
#19800000000
0!
0C
0N
0T
0_
0j
0u
0#"
#19900000000
1!
0$
0&
1*
b00011001 +
1,
b00011001 ;
1<
0@
0B
1C
b00000100 E
b00011001 J
1K
1N
b001000 R
b000100 S
1T
1_
0f
1j
0l
1q
1u
1w
1#"
#20000000000
0!
0C
0N
0T
0_
0j
0u
0#"
#20100000000
1!
b00010110 #
1$
0*
b00010110 ?
1@
1C
1N
b010000 R
b001000 S
1T
1_
1j
0q
1u
0w
1|
1#"
1%"
#20200000000
0!
0C
0N
0T
0_
0j
0u
0#"
#20300000000
1!
1C
1N
b100000 R
b010000 S
1T
1_
1j
1u
0|
1#"
0%"
1*"
#20400000000
0!
0C
0N
0T
0_
0j
0u
0#"
#20500000000
1!
b00000000 7
18
1C
b00000000 F
1G
1N
b000000 R
b000000 S
1T
1_
1j
1u
1#"
0*"
#20600000000
0!
0C
0N
0T
0_
0j
0u
0#"
#20700000000
1!
1C
1N
1T
1_
1j
1u
1#"
#20800000000
0!
0C
0N
0T
0_
0j
0u
0#"
#20900000000
1!
1.
b11111111 7
08
1>
1C
b11111111 F
0G
1M
1N
1T
1_
1j
1u
1#"
#21000000000
0!
0C
0N
0T
0_
0j
0u
0#"
#21100000000
1!
b10000011 +
b10000011 ;
1C
b10000011 J
1N
1T
b0000000000011001 W
1_
1j
1u
1#"
#21200000000
0!
0C
0N
0T
0_
0j
0u
0#"
#21300000000
1!
1&
0,
0.
0<
0>
1B
1C
0K
0M
1N
b000001 R
1T
1V
b0000000010000011 X
1_
1j
1u
1#"
#21400000000
0!
0C
0N
0T
0_
0j
0u
0#"
#21500000000
1!
0$
1*
0@
1C
b00000110 E
1N
b000010 R
b000001 S
1T
0V
1[
1_
1a
1j
1u
1#"
#21600000000
0!
0C
0N
0T
0_
0j
0u
0#"
#21700000000
1!
b00010111 #
1$
0*
b00010111 ?
1@
1C
1N
b000100 R
b000010 S
1T
0[
1_
0a
1f
1j
1l
1u
1#"
#21800000000
0!
0C
0N
0T
0_
0j
0u
0#"
#21900000000
1!
0$
0&
1*
b10010110 +
1,
b10010110 ;
1<
0@
0B
1C
b00001110 E
b10010110 J
1K
1N
b001000 R
b000100 S
1T
1_
0f
1j
0l
1q
1u
1w
1#"
#22000000000
0!
0C
0N
0T
0_
0j
0u
0#"
#22100000000
1!
b00011000 #
1$
0*
b00011000 ?
1@
1C
1N
b010000 R
b001000 S
1T
1_
1j
0q
1u
0w
1|
1#"
1%"
#22200000000
0!
0C
0N
0T
0_
0j
0u
0#"
#22300000000
1!
1C
1N
b100000 R
b010000 S
1T
1_
1j
1u
0|
1#"
0%"
1*"
#22400000000
0!
0C
0N
0T
0_
0j
0u
0#"
