sim/out.vcd
$date
  Tue Dec 31 11:14:01 2019
$end
$version
  GHDL v0
$end
$timescale
  1 fs
$end
$var reg 1 ! spi_mosi_tb $end
$var reg 1 " spi_miso_tb $end
$var reg 1 # stop_data_tb $end
$var reg 1 $ cs_tb $end
$var reg 8 % outdata_tb[7:0] $end
$var reg 8 & indata_tb[7:0] $end
$var reg 4 ' ledsdata_tb[3:0] $end
$var reg 1 ( spi_clk_tb $end
$var reg 1 ) sys_clk_tb $end
$var reg 1 * rst_tb $end
$var integer 32 + ii $end
$var reg 8 , mosidata_tb[7:0] $end
$scope module spi_inst $end
$var reg 1 - spi_mosi $end
$var reg 1 . stop_data $end
$var reg 1 / spi_miso $end
$var reg 1 0 cs $end
$var reg 8 1 outdata[7:0] $end
$var reg 8 2 indata[7:0] $end
$var reg 4 3 ledsdata[3:0] $end
$var reg 1 4 spi_clk $end
$var reg 1 5 sys_clk $end
$var reg 8 6 mosisignal[7:0] $end
$var reg 8 7 misosignal[7:0] $end
$var reg 1 8 stop_state $end
$upscope $end
$enddefinitions $end
#0
U!
U"
0#
1$
bUUUUUUUU %
b00000000 &
b10UU '
1(
0)
0*
b0 +
b00000000 ,
U-
0.
U/
10
bUUUUUUUU 1
bUUUUUUUU 2
b10UU 3
14
05
b00000000 6
b00000000 7
08
#100000000
0$
b00UU '
1)
00
b00UU 3
15
bUUUUUUUU 7
#200000000
0)
05
#300000000
0!
0(
1)
b1 +
0-
04
15
#400000000
1(
0)
14
05
#500000000
0(
1)
b10 +
04
15
#600000000
1(
0)
14
05
#700000000
0(
1)
b11 +
04
15
#800000000
1(
0)
14
05
#900000000
0(
1)
b100 +
04
15
#1000000000
1(
0)
14
05
#1100000000
0(
1)
b101 +
04
15
#1200000000
1(
0)
14
05
#1300000000
0(
1)
b110 +
04
15
#1400000000
1(
0)
14
05
#1500000000
0(
1)
b111 +
04
15
#1600000000
1(
0)
14
05
#1700000000
b00000001 &
0(
1)
b0 +
b01100101 ,
04
15
#1800000000
b00000000 %
b0000 '
1(
0)
b00000000 1
b00000000 2
b0000 3
14
05
#1900000000
1$
b1000 '
1)
10
b1000 3
15
#2000000000
0)
05
#2100000000
1)
15
#2200000000
0)
05
#2300000000
1)
15
#2400000000
0)
05
#2500000000
1)
15
#2600000000
0)
05
#2700000000
1)
15
#2800000000
0)
05
#2900000000
1)
15
#3000000000
0$
b0000 '
0)
00
b0000 3
05
b00000000 7
#3100000000
1)
15
#3200000000
0(
0)
b1 +
b11001010 ,
04
05
#3300000000
0"
1(
1)
0/
14
15
#3400000000
1!
0(
0)
b10 +
b10010100 ,
1-
04
05
#3500000000
1(
1)
14
15
b00000001 6
#3600000000
0(
0)
b11 +
b00101000 ,
04
05
#3700000000
1(
1)
14
15
b00000011 6
#3800000000
0!
0(
0)
b100 +
b01010000 ,
0-
04
05
#3900000000
1(
1)
14
15
b00000110 6
#4000000000
0(
0)
b101 +
b10100000 ,
04
05
#4100000000
1(
1)
14
15
b00001100 6
#4200000000
1!
0(
0)
b110 +
b01000000 ,
1-
04
05
#4300000000
1(
1)
14
15
b00011001 6
#4400000000
0!
0(
0)
b111 +
b10000000 ,
0-
04
05
#4500000000
1(
1)
14
15
b00110010 6
#4600000000
1!
b00000010 &
0(
0)
b0 +
b01100110 ,
1-
04
05
#4700000000
b01100101 %
b0001 '
1(
1)
b01100101 1
b01100101 2
b0001 3
14
15
b01100101 6
#4800000000
1$
b1001 '
0)
10
b1001 3
05
#4900000000
1)
15
#5000000000
0)
05
#5100000000
1)
15
#5200000000
0)
05
#5300000000
1)
15
#5400000000
0)
05
#5500000000
1)
15
#5600000000
0)
05
#5700000000
1)
15
#5800000000
0)
05
#5900000000
0$
b0001 '
1)
00
b0001 3
15
b01100101 7
#6000000000
0)
05
#6100000000
0!
0(
1)
b1 +
b11001100 ,
0-
04
15
#6200000000
1(
0)
14
05
b11001010 6
#6300000000
1!
0(
1)
b10 +
b10011000 ,
1-
04
15
#6400000000
1"
1(
0)
1/
14
05
b10010101 6
#6500000000
0(
1)
b11 +
b00110000 ,
04
15
#6600000000
1(
0)
14
05
b00101011 6
#6700000000
0!
0(
1)
b100 +
b01100000 ,
0-
04
15
#6800000000
0"
1(
0)
0/
14
05
b01010110 6
#6900000000
0(
1)
b101 +
b11000000 ,
04
15
#7000000000
1(
0)
14
05
b10101100 6
#7100000000
1!
0(
1)
b110 +
b10000000 ,
1-
04
15
#7200000000
1"
1(
0)
1/
14
05
b01011001 6
#7300000000
0(
1)
b111 +
b00000000 ,
04
15
#7400000000
0"
1(
0)
0/
14
05
b10110011 6
#7500000000
0!
b00000011 &
0(
1)
b0 +
b01100111 ,
0-
04
15
#7600000000
1"
b01100110 %
b0010 '
1(
0)
1/
b01100110 1
b01100110 2
b0010 3
14
05
b01100110 6
#7700000000
1$
b1010 '
1)
10
b1010 3
15
#7800000000
0)
05
#7900000000
1)
15
#8000000000
0)
05
#8100000000
1)
15
#8200000000
0)
05
#8300000000
1)
15
#8400000000
0)
05
#8500000000
1)
15
#8600000000
0)
05
#8700000000
1)
15
#8800000000
0$
b0010 '
0)
00
b0010 3
05
b01100110 7
#8900000000
1)
15
#9000000000
0(
0)
b1 +
b11001110 ,
04
05
#9100000000
0"
1(
1)
0/
14
15
b11001100 6
#9200000000
1!
0(
0)
b10 +
b10011100 ,
1-
04
05
#9300000000
1"
1(
1)
1/
14
15
b10011001 6
#9400000000
0(
0)
b11 +
b00111000 ,
04
05
#9500000000
1(
1)
14
15
b00110011 6
#9600000000
0!
0(
0)
b100 +
b01110000 ,
0-
04
05
#9700000000
0"
1(
1)
0/
14
15
b01100110 6
#9800000000
0(
0)
b101 +
b11100000 ,
04
05
#9900000000
1(
1)
14
15
b11001100 6
#10000000000
1!
0(
0)
b110 +
b11000000 ,
1-
04
05
#10100000000
1"
1(
1)
1/
14
15
b10011001 6
#10200000000
0(
0)
b111 +
b10000000 ,
04
05
#10300000000
1(
1)
14
15
b00110011 6
#10400000000
b00000100 &
0(
0)
b0 +
b01101000 ,
04
05
#10500000000
0"
b01100111 %
b0011 '
1(
1)
0/
b01100111 1
b01100111 2
b0011 3
14
15
b01100111 6
#10600000000
1$
b1011 '
0)
10
b1011 3
05
#10700000000
1)
15
#10800000000
0)
05
#10900000000
1)
15
#11000000000
0)
05
#11100000000
1)
15
#11200000000
0)
05
#11300000000
1)
15
#11400000000
0)
05
#11500000000
1)
15
#11600000000
0)
05
#11700000000
0$
b0011 '
1)
00
b0011 3
15
b01100111 7
#11800000000
0)
05
#11900000000
0!
0(
1)
b1 +
b11010000 ,
0-
04
15
#12000000000
1(
0)
14
05
b11001110 6
#12100000000
1!
0(
1)
b10 +
b10100000 ,
1-
04
15
#12200000000
1"
1(
0)
1/
14
05
b10011101 6
#12300000000
0(
1)
b11 +
b01000000 ,
04
15
#12400000000
1(
0)
14
05
b00111011 6
#12500000000
0!
0(
1)
b100 +
b10000000 ,
0-
04
15
#12600000000
0"
1(
0)
0/
14
05
b01110110 6
#12700000000
1!
0(
1)
b101 +
b00000000 ,
1-
04
15
#12800000000
1(
0)
14
05
b11101101 6
#12900000000
0!
0(
1)
b110 +
0-
04
15
#13000000000
1"
1(
0)
1/
14
05
b11011010 6
#13100000000
0(
1)
b111 +
04
15
#13200000000
1(
0)
14
05
b10110100 6
#13300000000
b00000101 &
0(
1)
b0 +
b01101001 ,
04
15
#13400000000
b01101000 %
b0000 '
1(
0)
b01101000 1
b01101000 2
b0000 3
14
05
b01101000 6
#13500000000
1$
b1000 '
1)
10
b1000 3
15
#13600000000
0)
05
#13700000000
1)
15
#13800000000
0)
05
#13900000000
1)
15
#14000000000
0)
05
#14100000000
1)
15
#14200000000
0)
05
#14300000000
1)
15
#14400000000
0)
05
#14500000000
1)
15
#14600000000
0$
b0000 '
0)
00
b0000 3
05
b01101000 7
#14700000000
1)
15
#14800000000
0(
0)
b1 +
b11010010 ,
04
05
#14900000000
0"
1(
1)
0/
14
15
b11010000 6
#15000000000
1!
0(
0)
b10 +
b10100100 ,
1-
04
05
#15100000000
1"
1(
1)
1/
14
15
b10100001 6
#15200000000
0(
0)
b11 +
b01001000 ,
04
05
#15300000000
1(
1)
14
15
b01000011 6
#15400000000
0!
0(
0)
b100 +
b10010000 ,
0-
04
05
#15500000000
0"
1(
1)
0/
14
15
b10000110 6
#15600000000
1!
0(
0)
b101 +
b00100000 ,
1-
04
05
#15700000000
1"
1(
1)
1/
14
15
b00001101 6
#15800000000
0!
0(
0)
b110 +
b01000000 ,
0-
04
05
#15900000000
0"
1(
1)
0/
14
15
b00011010 6
#16000000000
0(
0)
b111 +
b10000000 ,
04
05
#16100000000
1(
1)
14
15
b00110100 6
#16200000000
1!
b00000110 &
0(
0)
b0 +
b01101010 ,
1-
04
05
#16300000000
b01101001 %
b0001 '
1(
1)
b01101001 1
b01101001 2
b0001 3
14
15
b01101001 6
#16400000000
1$
b1001 '
0)
10
b1001 3
05
#16500000000
1)
15
#16600000000
0)
05
#16700000000
1)
15
#16800000000
0)
05
#16900000000
1)
15
#17000000000
0)
05
#17100000000
1)
15
#17200000000
0)
05
#17300000000
1)
15
#17400000000
0)
05
#17500000000
0$
b0001 '
1)
00
b0001 3
15
b01101001 7
#17600000000
0)
05
#17700000000
0!
0(
1)
b1 +
b11010100 ,
0-
04
15
#17800000000
1(
0)
14
05
b11010010 6
#17900000000
1!
0(
1)
b10 +
b10101000 ,
1-
04
15
#18000000000
1"
1(
0)
1/
14
05
b10100101 6
#18100000000
0(
1)
b11 +
b01010000 ,
04
15
#18200000000
1(
0)
14
05
b01001011 6
#18300000000
0!
0(
1)
b100 +
b10100000 ,
0-
04
15
#18400000000
0"
1(
0)
0/
14
05
b10010110 6
#18500000000
1!
0(
1)
b101 +
b01000000 ,
1-
04
15
#18600000000
1"
1(
0)
1/
14
05
b00101101 6
#18700000000
0!
0(
1)
b110 +
b10000000 ,
0-
04
15
#18800000000
0"
1(
0)
0/
14
05
b01011010 6
#18900000000
1!
0(
1)
b111 +
b00000000 ,
1-
04
15
#19000000000
1(
0)
14
05
b10110101 6
#19100000000
0!
b00000111 &
0(
1)
b0 +
b01101011 ,
0-
04
15
#19200000000
1"
b01101010 %
b0010 '
1(
0)
1/
b01101010 1
b01101010 2
b0010 3
14
05
b01101010 6
#19300000000
1$
b1010 '
1)
10
b1010 3
15
#19400000000
0)
05
#19500000000
1)
15
#19600000000
0)
05
#19700000000
1)
15
#19800000000
0)
05
#19900000000
1)
15
#20000000000
0)
05
#20100000000
1)
15
#20200000000
0)
05
#20300000000
1)
15
#20400000000
0$
b0010 '
0)
00
b0010 3
05
b01101010 7
#20500000000
1)
15
#20600000000
0(
0)
b1 +
b11010110 ,
04
05
#20700000000
0"
1(
1)
0/
14
15
b11010100 6
#20800000000
1!
0(
0)
b10 +
b10101100 ,
1-
04
05
#20900000000
1"
1(
1)
1/
14
15
b10101001 6
#21000000000
0(
0)
b11 +
b01011000 ,
04
05
#21100000000
1(
1)
14
15
b01010011 6
#21200000000
0!
0(
0)
b100 +
b10110000 ,
0-
04
05
#21300000000
0"
1(
1)
0/
14
15
b10100110 6
#21400000000
1!
0(
0)
b101 +
b01100000 ,
1-
04
05
#21500000000
1"
1(
1)
1/
14
15
b01001101 6
#21600000000
0!
0(
0)
b110 +
b11000000 ,
0-
04
05
#21700000000
0"
1(
1)
0/
14
15
b10011010 6
#21800000000
1!
0(
0)
b111 +
b10000000 ,
1-
04
05
#21900000000
1"
1(
1)
1/
14
15
b00110101 6
#22000000000
b00001000 &
0(
0)
b0 +
b01101100 ,
04
05
#22100000000
0"
b01101011 %
b0011 '
1(
1)
0/
b01101011 1
b01101011 2
b0011 3
14
15
b01101011 6
#22200000000
1$
b1011 '
0)
10
b1011 3
05
#22300000000
1)
15
#22400000000
0)
05
#22500000000
1)
15
#22600000000
0)
05
#22700000000
1)
15
#22800000000
0)
05
#22900000000
1)
15
#23000000000
0)
05
#23100000000
1)
15
#23200000000
0)
05
#23300000000
0$
b0011 '
1)
00
b0011 3
15
b01101011 7
#23400000000
0)
05
#23500000000
0!
0(
1)
b1 +
b11011000 ,
0-
04
15
#23600000000
1(
0)
14
05
b11010110 6
#23700000000
1!
0(
1)
b10 +
b10110000 ,
1-
04
15
#23800000000
1"
1(
0)
1/
14
05
b10101101 6
#23900000000
0(
1)
b11 +
b01100000 ,
04
15
#24000000000
1(
0)
14
05
b01011011 6
#24100000000
0!
0(
1)
b100 +
b11000000 ,
0-
04
15
#24200000000
0"
1(
0)
0/
14
05
b10110110 6
#24300000000
1!
0(
1)
b101 +
b10000000 ,
1-
04
15
#24400000000
1"
1(
0)
1/
14
05
b01101101 6
#24500000000
0(
1)
b110 +
b00000000 ,
04
15
#24600000000
0"
1(
0)
0/
14
05
b11011011 6
#24700000000
0!
0(
1)
b111 +
0-
04
15
#24800000000
1"
1(
0)
1/
14
05
b10110110 6
#24900000000
b00001001 &
0(
1)
b0 +
b01101101 ,
04
15
#25000000000
b01101100 %
b0000 '
1(
0)
b01101100 1
b01101100 2
b0000 3
14
05
b01101100 6
#25100000000
1$
b1000 '
1)
10
b1000 3
15
#25200000000
0)
05
#25300000000
1)
15
#25400000000
0)
05
#25500000000
1)
15
#25600000000
0)
05
#25700000000
1)
15
#25800000000
0)
05
#25900000000
1)
15
#26000000000
0)
05
#26100000000
1)
15
#26200000000
0$
b0000 '
0)
00
b0000 3
05
b01101100 7
#26300000000
1)
15
#26400000000
0(
0)
b1 +
b11011010 ,
04
05
#26500000000
0"
1(
1)
0/
14
15
b11011000 6
#26600000000
1!
0(
0)
b10 +
b10110100 ,
1-
04
05
#26700000000
1"
1(
1)
1/
14
15
b10110001 6
#26800000000
0(
0)
b11 +
b01101000 ,
04
05
#26900000000
1(
1)
14
15
b01100011 6
#27000000000
0!
0(
0)
b100 +
b11010000 ,
0-
04
05
#27100000000
0"
1(
1)
0/
14
15
b11000110 6
#27200000000
1!
0(
0)
b101 +
b10100000 ,
1-
04
05
#27300000000
1"
1(
1)
1/
14
15
b10001101 6
#27400000000
0(
0)
b110 +
b01000000 ,
04
05
#27500000000
1(
1)
14
15
b00011011 6
#27600000000
0!
0(
0)
b111 +
b10000000 ,
0-
04
05
#27700000000
0"
1(
1)
0/
14
15
b00110110 6
#27800000000
1!
b00001010 &
0(
0)
b0 +
b01101110 ,
1-
04
05
#27900000000
b01101101 %
b0001 '
1(
1)
b01101101 1
b01101101 2
b0001 3
14
15
b01101101 6
#28000000000
1$
b1001 '
0)
10
b1001 3
05
#28100000000
1)
15
#28200000000
0)
05
#28300000000
1)
15
#28400000000
0)
05
#28500000000
1)
15
#28600000000
0)
05
#28700000000
1)
15
#28800000000
0)
05
#28900000000
1)
15
#29000000000
0)
05
#29100000000
0$
b0001 '
1)
00
b0001 3
15
b01101101 7
#29200000000
0)
05
#29300000000
0!
0(
1)
b1 +
b11011100 ,
0-
04
15
#29400000000
1(
0)
14
05
b11011010 6
#29500000000
1!
0(
1)
b10 +
b10111000 ,
1-
04
15
#29600000000
1"
1(
0)
1/
14
05
b10110101 6
#29700000000
0(
1)
b11 +
b01110000 ,
04
15
#29800000000
1(
0)
14
05
b01101011 6
#29900000000
0!
0(
1)
b100 +
b11100000 ,
0-
04
15
#30000000000
0"
1(
0)
0/
14
05
b11010110 6
#30100000000
1!
0(
1)
b101 +
b11000000 ,
1-
04
15
#30200000000
1"
1(
0)
1/
14
05
b10101101 6
#30300000000
0(
1)
b110 +
b10000000 ,
04
15
#30400000000
1(
0)
14
05
b01011011 6
#30500000000
0(
1)
b111 +
b00000000 ,
04
15
#30600000000
0"
1(
0)
0/
14
05
b10110111 6
#30700000000
0!
b00001011 &
0(
1)
b0 +
b01101111 ,
0-
04
15
#30800000000
1"
b01101110 %
b0010 '
1(
0)
1/
b01101110 1
b01101110 2
b0010 3
14
05
b01101110 6
#30900000000
1$
b1010 '
1)
10
b1010 3
15
#31000000000
0)
05
#31100000000
1)
15
#31200000000
0)
05
#31300000000
1)
15
#31400000000
0)
05
#31500000000
1)
15
#31600000000
0)
05
#31700000000
1)
15
#31800000000
0)
05
#31900000000
1)
15
#32000000000
0$
b0010 '
0)
00
b0010 3
05
b01101110 7
#32100000000
1)
15
#32200000000
0(
0)
b1 +
b11011110 ,
04
05
#32300000000
0"
1(
1)
0/
14
15
b11011100 6
#32400000000
1!
0(
0)
b10 +
b10111100 ,
1-
04
05
#32500000000
1"
1(
1)
1/
14
15
b10111001 6
#32600000000
0(
0)
b11 +
b01111000 ,
04
05
#32700000000
1(
1)
14
15
b01110011 6
#32800000000
0!
0(
0)
b100 +
b11110000 ,
0-
04
05
#32900000000
0"
1(
1)
0/
14
15
b11100110 6
#33000000000
1!
0(
0)
b101 +
b11100000 ,
1-
04
05
#33100000000
1"
1(
1)
1/
14
15
b11001101 6
#33200000000
0(
0)
b110 +
b11000000 ,
04
05
#33300000000
1(
1)
14
15
b10011011 6
#33400000000
0(
0)
b111 +
b10000000 ,
04
05
#33500000000
1(
1)
14
15
b00110111 6
#33600000000
b00001100 &
0(
0)
b0 +
b01110000 ,
04
05
#33700000000
0"
b01101111 %
b0011 '
1(
1)
0/
b01101111 1
b01101111 2
b0011 3
14
15
b01101111 6
#33800000000
1$
b1011 '
0)
10
b1011 3
05
#33900000000
1)
15
#34000000000
0)
05
#34100000000
1)
15
#34200000000
0)
05
#34300000000
1)
15
#34400000000
0)
05
#34500000000
1)
15
#34600000000
0)
05
#34700000000
1)
15
#34800000000
0)
05
#34900000000
0$
b0011 '
1)
00
b0011 3
15
b01101111 7
#35000000000
0)
05
#35100000000
0!
0(
1)
b1 +
b11100000 ,
0-
04
15
#35200000000
1(
0)
14
05
b11011110 6
#35300000000
1!
0(
1)
b10 +
b11000000 ,
1-
04
15
#35400000000
1"
1(
0)
1/
14
05
b10111101 6
#35500000000
0(
1)
b11 +
b10000000 ,
04
15
#35600000000
1(
0)
14
05
b01111011 6
#35700000000
0(
1)
b100 +
b00000000 ,
04
15
#35800000000
0"
1(
0)
0/
14
05
b11110111 6
#35900000000
0!
0(
1)
b101 +
0-
04
15
#36000000000
1"
1(
0)
1/
14
05
b11101110 6
#36100000000
0(
1)
b110 +
04
15
#36200000000
1(
0)
14
05
b11011100 6
#36300000000
0(
1)
b111 +
04
15
#36400000000
1(
0)
14
05
b10111000 6
#36500000000
b00001101 &
0(
1)
b0 +
b01110001 ,
04
15
#36600000000
b01110000 %
b0000 '
1(
0)
b01110000 1
b01110000 2
b0000 3
14
05
b01110000 6
#36700000000
1$
b1000 '
1)
10
b1000 3
15
#36800000000
0)
05
#36900000000
1)
15
#37000000000
0)
05
#37100000000
1)
15
#37200000000
0)
05
#37300000000
1)
15
#37400000000
0)
05
#37500000000
1)
15
#37600000000
0)
05
#37700000000
1)
15
#37800000000
0$
b0000 '
0)
00
b0000 3
05
b01110000 7
#37900000000
1)
15
#38000000000
0(
0)
b1 +
b11100010 ,
04
05
#38100000000
0"
1(
1)
0/
14
15
b11100000 6
#38200000000
1!
0(
0)
b10 +
b11000100 ,
1-
04
05
#38300000000
1"
1(
1)
1/
14
15
b11000001 6
#38400000000
0(
0)
b11 +
b10001000 ,
04
05
#38500000000
1(
1)
14
15
b10000011 6
#38600000000
0(
0)
b100 +
b00010000 ,
04
05
#38700000000
1(
1)
14
15
b00000111 6
#38800000000
0!
0(
0)
b101 +
b00100000 ,
0-
04
05
#38900000000
0"
1(
1)
0/
14
15
b00001110 6
#39000000000
0(
0)
b110 +
b01000000 ,
04
05
#39100000000
1(
1)
14
15
b00011100 6
#39200000000
0(
0)
b111 +
b10000000 ,
04
05
#39300000000
1(
1)
14
15
b00111000 6
#39400000000
1!
b00001110 &
0(
0)
b0 +
b01110010 ,
1-
04
05
#39500000000
b01110001 %
b0001 '
1(
1)
b01110001 1
b01110001 2
b0001 3
14
15
b01110001 6
#39600000000
1$
b1001 '
0)
10
b1001 3
05
#39700000000
1)
15
#39800000000
0)
05
#39900000000
1)
15
#40000000000
0)
05
#40100000000
1)
15
#40200000000
0)
05
#40300000000
1)
15
#40400000000
0)
05
#40500000000
1)
15
#40600000000
0)
05
#40700000000
0$
b0001 '
1)
00
b0001 3
15
b01110001 7
#40800000000
0)
05
#40900000000
0!
0(
1)
b1 +
b11100100 ,
0-
04
15
#41000000000
1(
0)
14
05
b11100010 6
#41100000000
1!
0(
1)
b10 +
b11001000 ,
1-
04
15
#41200000000
1"
1(
0)
1/
14
05
b11000101 6
#41300000000
0(
1)
b11 +
b10010000 ,
04
15
#41400000000
1(
0)
14
05
b10001011 6
#41500000000
0(
1)
b100 +
b00100000 ,
04
15
#41600000000
1(
0)
14
05
b00010111 6
#41700000000
0!
0(
1)
b101 +
b01000000 ,
0-
04
15
#41800000000
0"
1(
0)
0/
14
05
b00101110 6
#41900000000
0(
1)
b110 +
b10000000 ,
04
15
#42000000000
1(
0)
14
05
b01011100 6
#42100000000
1!
0(
1)
b111 +
b00000000 ,
1-
04
15
#42200000000
1(
0)
14
05
b10111001 6
#42300000000
0!
b00001111 &
0(
1)
b0 +
b01110011 ,
0-
04
15
#42400000000
1"
b01110010 %
b0010 '
1(
0)
1/
b01110010 1
b01110010 2
b0010 3
14
05
b01110010 6
#42500000000
1$
b1010 '
1)
10
b1010 3
15
#42600000000
0)
05
#42700000000
1)
15
#42800000000
0)
05
#42900000000
1)
15
#43000000000
0)
05
#43100000000
1)
15
#43200000000
0)
05
#43300000000
1)
15
#43400000000
0)
05
#43500000000
1)
15
#43600000000
0$
b0010 '
0)
00
b0010 3
05
b01110010 7
#43700000000
1)
15
#43800000000
0(
0)
b1 +
b11100110 ,
04
05
#43900000000
0"
1(
1)
0/
14
15
b11100100 6
#44000000000
1!
0(
0)
b10 +
b11001100 ,
1-
04
05
#44100000000
1"
1(
1)
1/
14
15
b11001001 6
#44200000000
0(
0)
b11 +
b10011000 ,
04
05
#44300000000
1(
1)
14
15
b10010011 6
#44400000000
0(
0)
b100 +
b00110000 ,
04
05
#44500000000
1(
1)
14
15
b00100111 6
#44600000000
0!
0(
0)
b101 +
b01100000 ,
0-
04
05
#44700000000
0"
1(
1)
0/
14
15
b01001110 6
#44800000000
0(
0)
b110 +
b11000000 ,
04
05
#44900000000
1(
1)
14
15
b10011100 6
#45000000000
1!
0(
0)
b111 +
b10000000 ,
1-
04
05
#45100000000
1"
1(
1)
1/
14
15
b00111001 6
#45200000000
b00010000 &
0(
0)
b0 +
b01110100 ,
04
05
#45300000000
0"
b01110011 %
b0011 '
1(
1)
0/
b01110011 1
b01110011 2
b0011 3
14
15
b01110011 6
#45400000000
1$
b1011 '
0)
10
b1011 3
05
#45500000000
1)
15
#45600000000
0)
05
#45700000000
1)
15
#45800000000
0)
05
#45900000000
1)
15
#46000000000
0)
05
#46100000000
1)
15
#46200000000
0)
05
#46300000000
1)
15
#46400000000
0)
05
#46500000000
0$
b0011 '
1)
00
b0011 3
15
b01110011 7
#46600000000
0)
05
#46700000000
0!
0(
1)
b1 +
b11101000 ,
0-
04
15
#46800000000
1(
0)
14
05
b11100110 6
#46900000000
1!
0(
1)
b10 +
b11010000 ,
1-
04
15
#47000000000
1"
1(
0)
1/
14
05
b11001101 6
#47100000000
0(
1)
b11 +
b10100000 ,
04
15
#47200000000
1(
0)
14
05
b10011011 6
#47300000000
0(
1)
b100 +
b01000000 ,
04
15
#47400000000
1(
0)
14
05
b00110111 6
#47500000000
0!
0(
1)
b101 +
b10000000 ,
0-
04
15
#47600000000
0"
1(
0)
0/
14
05
b01101110 6
#47700000000
1!
0(
1)
b110 +
b00000000 ,
1-
04
15
#47800000000
1(
0)
14
05
b11011101 6
#47900000000
0!
0(
1)
b111 +
0-
04
15
#48000000000
1"
1(
0)
1/
14
05
b10111010 6
#48100000000
b00010001 &
0(
1)
b0 +
b01110101 ,
04
15
#48200000000
b01110100 %
b0000 '
1(
0)
b01110100 1
b01110100 2
b0000 3
14
05
b01110100 6
#48300000000
1$
b1000 '
1)
10
b1000 3
15
#48400000000
0)
05
#48500000000
1)
15
#48600000000
0)
05
#48700000000
1)
15
#48800000000
0)
05
#48900000000
1)
15
#49000000000
0)
05
#49100000000
1)
15
#49200000000
0)
05
#49300000000
1)
15
#49400000000
0$
b0000 '
0)
00
b0000 3
05
b01110100 7
#49500000000
1)
15
#49600000000
0(
0)
b1 +
b11101010 ,
04
05
#49700000000
0"
1(
1)
0/
14
15
b11101000 6
#49800000000
1!
0(
0)
b10 +
b11010100 ,
1-
04
05
#49900000000
1"
1(
1)
1/
14
15
b11010001 6
#50000000000
0(
0)
b11 +
b10101000 ,
04
05
#50100000000
1(
1)
14
15
b10100011 6
#50200000000
0(
0)
b100 +
b01010000 ,
04
05
#50300000000
1(
1)
14
15
b01000111 6
#50400000000
0!
0(
0)
b101 +
b10100000 ,
0-
04
05
#50500000000
0"
1(
1)
0/
14
15
b10001110 6
#50600000000
1!
0(
0)
b110 +
b01000000 ,
1-
04
05
#50700000000
1"
1(
1)
1/
14
15
b00011101 6
#50800000000
0!
0(
0)
b111 +
b10000000 ,
0-
04
05
#50900000000
0"
1(
1)
0/
14
15
b00111010 6
#51000000000
1!
b00010010 &
0(
0)
b0 +
b01110110 ,
1-
04
05
#51100000000
b01110101 %
b0001 '
1(
1)
b01110101 1
b01110101 2
b0001 3
14
15
b01110101 6
#51200000000
1$
b1001 '
0)
10
b1001 3
05
#51300000000
1)
15
#51400000000
0)
05
#51500000000
1)
15
#51600000000
0)
05
#51700000000
1)
15
#51800000000
0)
05
#51900000000
1)
15
#52000000000
0)
05
#52100000000
1)
15
#52200000000
0)
05
#52300000000
0$
b0001 '
1)
00
b0001 3
15
b01110101 7
#52400000000
0)
05
#52500000000
0!
0(
1)
b1 +
b11101100 ,
0-
04
15
#52600000000
1(
0)
14
05
b11101010 6
#52700000000
1!
0(
1)
b10 +
b11011000 ,
1-
04
15
#52800000000
1"
1(
0)
1/
14
05
b11010101 6
#52900000000
0(
1)
b11 +
b10110000 ,
04
15
#53000000000
1(
0)
14
05
b10101011 6
#53100000000
0(
1)
b100 +
b01100000 ,
04
15
#53200000000
1(
0)
14
05
b01010111 6
#53300000000
0!
0(
1)
b101 +
b11000000 ,
0-
04
15
#53400000000
0"
1(
0)
0/
14
05
b10101110 6
#53500000000
1!
0(
1)
b110 +
b10000000 ,
1-
04
15
#53600000000
1"
1(
0)
1/
14
05
b01011101 6
#53700000000
0(
1)
b111 +
b00000000 ,
04
15
#53800000000
0"
1(
0)
0/
14
05
b10111011 6
#53900000000
0!
b00010011 &
0(
1)
b0 +
b01110111 ,
0-
04
15
#54000000000
1"
b01110110 %
b0010 '
1(
0)
1/
b01110110 1
b01110110 2
b0010 3
14
05
b01110110 6
#54100000000
1$
b1010 '
1)
10
b1010 3
15
#54200000000
0)
05
#54300000000
1)
15
#54400000000
0)
05
#54500000000
1)
15
#54600000000
0)
05
#54700000000
1)
15
#54800000000
0)
05
#54900000000
1)
15
#55000000000
0)
05
#55100000000
1)
15
#55200000000
0$
b0010 '
0)
00
b0010 3
05
b01110110 7
#55300000000
1)
15
#55400000000
0(
0)
b1 +
b11101110 ,
04
05
#55500000000
0"
1(
1)
0/
14
15
b11101100 6
#55600000000
1!
0(
0)
b10 +
b11011100 ,
1-
04
05
#55700000000
1"
1(
1)
1/
14
15
b11011001 6
#55800000000
0(
0)
b11 +
b10111000 ,
04
05
#55900000000
1(
1)
14
15
b10110011 6
#56000000000
0(
0)
b100 +
b01110000 ,
04
05
#56100000000
1(
1)
14
15
b01100111 6
#56200000000
0!
0(
0)
b101 +
b11100000 ,
0-
04
05
#56300000000
0"
1(
1)
0/
14
15
b11001110 6
#56400000000
1!
0(
0)
b110 +
b11000000 ,
1-
04
05
#56500000000
1"
1(
1)
1/
14
15
b10011101 6
#56600000000
0(
0)
b111 +
b10000000 ,
04
05
#56700000000
1(
1)
14
15
b00111011 6
#56800000000
b00010100 &
0(
0)
b0 +
b01111000 ,
04
05
#56900000000
0"
b01110111 %
b0011 '
1(
1)
0/
b01110111 1
b01110111 2
b0011 3
14
15
b01110111 6
#57000000000
1$
b1011 '
0)
10
b1011 3
05
#57100000000
1)
15
#57200000000
0)
05
#57300000000
1)
15
#57400000000
0)
05
#57500000000
1)
15
#57600000000
0)
05
#57700000000
1)
15
#57800000000
0)
05
#57900000000
1)
15
#58000000000
0)
05
#58100000000
0$
b0011 '
1)
00
b0011 3
15
b01110111 7
#58200000000
0)
05
#58300000000
0!
0(
1)
b1 +
b11110000 ,
0-
04
15
#58400000000
1(
0)
14
05
b11101110 6
#58500000000
1!
0(
1)
b10 +
b11100000 ,
1-
04
15
#58600000000
1"
1(
0)
1/
14
05
b11011101 6
#58700000000
0(
1)
b11 +
b11000000 ,
04
15
#58800000000
1(
0)
14
05
b10111011 6
#58900000000
0(
1)
b100 +
b10000000 ,
04
15
#59000000000
1(
0)
14
05
b01110111 6
#59100000000
0(
1)
b101 +
b00000000 ,
04
15
#59200000000
0"
1(
0)
0/
14
05
b11101111 6
#59300000000
0!
0(
1)
b110 +
0-
04
15
#59400000000
1"
1(
0)
1/
14
05
b11011110 6
#59500000000
0(
1)
b111 +
04
15
#59600000000
1(
0)
14
05
b10111100 6
#59700000000
b00010101 &
0(
1)
b0 +
b01111001 ,
04
15
#59800000000
b01111000 %
b0000 '
1(
0)
b01111000 1
b01111000 2
b0000 3
14
05
b01111000 6
#59900000000
1$
b1000 '
1)
10
b1000 3
15
#60000000000
0)
05
#60100000000
1)
15
#60200000000
0)
05
#60300000000
1)
15
#60400000000
0)
05
#60500000000
1)
15
#60600000000
0)
05
#60700000000
1)
15
#60800000000
0)
05
#60900000000
1)
15
#61000000000
0$
b0000 '
0)
00
b0000 3
05
b01111000 7
