sim/out.vcd
$date
  Tue Jan  7 21:13:44 2020
$end
$version
  GHDL v0
$end
$timescale
  1 fs
$end
$comment state is not handled $end
$var reg 1 ! clk_tb $end
$var reg 1 " rst_tb $end
$var reg 8 # m1_axis_tdata[7:0] $end
$var reg 1 $ m1_axis_tvalid $end
$var reg 1 % m1_axis_tlast $end
$var reg 1 & m1_axis_tready $end
$var reg 8 ' s1_axis_tdata[7:0] $end
$var reg 1 ( s1_axis_tvalid $end
$var reg 1 ) s1_axis_tlast $end
$var reg 1 * s1_axis_tready $end
$var reg 8 + axis2_tdata[7:0] $end
$var reg 1 , axis2_tvalid $end
$var reg 1 - axis2_tlast $end
$var reg 1 . axis2_tready $end
$var reg 8 / axis3_tdata[7:0] $end
$var reg 1 0 axis3_tvalid $end
$var reg 1 1 axis3_tlast $end
$var reg 1 2 axis3_tready $end
$var reg 8 3 axis4_tdata[7:0] $end
$var reg 1 4 axis4_tvalid $end
$var reg 1 5 axis4_tlast $end
$var reg 1 6 axis4_tready $end
$var reg 8 7 axiso_tdata[7:0] $end
$var reg 1 8 axiso_tvalid $end
$var reg 1 9 axiso_tlast $end
$var reg 1 : axiso_tready $end
$scope module mapper_inst $end
$var reg 8 ; m_axis_tdata[7:0] $end
$var reg 1 < m_axis_tvalid $end
$var reg 1 = m_axis_tlast $end
$var reg 1 > m_axis_tready $end
$var reg 8 ? s_axis_tdata[7:0] $end
$var reg 1 @ s_axis_tvalid $end
$var reg 1 A s_axis_tlast $end
$var reg 1 B s_axis_tready $end
$var reg 1 C clk $end
$var reg 1 D rst $end
$comment state is not handled $end
$var reg 8 E data2map[7:0] $end
$upscope $end
$scope module cordic_inst $end
$var reg 8 F m_axis_tdata[7:0] $end
$var reg 1 G m_axis_tvalid $end
$var reg 1 H m_axis_tlast $end
$var reg 1 I m_axis_tready $end
$var reg 8 J s_axis_tdata[7:0] $end
$var reg 1 K s_axis_tvalid $end
$var reg 1 L s_axis_tlast $end
$var reg 1 M s_axis_tready $end
$var reg 1 N clk $end
$var reg 1 O rst $end
$comment state is not handled $end
$comment xydata is not handled $end
$var reg 1 P clockwise $end
$var reg 16 Q angle[15:0] $end
$var reg 11 R en[10:0] $end
$var reg 11 S dv[10:0] $end
$comment wirex is not handled $end
$comment wirey is not handled $end
$comment wirez is not handled $end
$comment wirelut is not handled $end
$comment atanlut is not handled $end
$scope module connection_instance(0) $end
$scope module iteration $end
$var reg 1 T clk $end
$var reg 1 U rst $end
$var reg 1 V en_i $end
$var reg 16 W xi[15:0] $end
$var reg 16 X yi[15:0] $end
$var reg 16 Y zi[15:0] $end
$var reg 16 Z ci[15:0] $end
$var reg 1 [ dv_o $end
$var reg 16 \ xip1[15:0] $end
$var reg 16 ] yip1[15:0] $end
$var reg 16 ^ zip1[15:0] $end
$comment state is not handled $end
$upscope $end
$upscope $end
$scope module connection_instance(1) $end
$scope module iteration $end
$var reg 1 _ clk $end
$var reg 1 ` rst $end
$var reg 1 a en_i $end
$var reg 16 b xi[15:0] $end
$var reg 16 c yi[15:0] $end
$var reg 16 d zi[15:0] $end
$var reg 16 e ci[15:0] $end
$var reg 1 f dv_o $end
$var reg 16 g xip1[15:0] $end
$var reg 16 h yip1[15:0] $end
$var reg 16 i zip1[15:0] $end
$comment state is not handled $end
$upscope $end
$upscope $end
$scope module connection_instance(2) $end
$scope module iteration $end
$var reg 1 j clk $end
$var reg 1 k rst $end
$var reg 1 l en_i $end
$var reg 16 m xi[15:0] $end
$var reg 16 n yi[15:0] $end
$var reg 16 o zi[15:0] $end
$var reg 16 p ci[15:0] $end
$var reg 1 q dv_o $end
$var reg 16 r xip1[15:0] $end
$var reg 16 s yip1[15:0] $end
$var reg 16 t zip1[15:0] $end
$comment state is not handled $end
$upscope $end
$upscope $end
$scope module connection_instance(3) $end
$scope module iteration $end
$var reg 1 u clk $end
$var reg 1 v rst $end
$var reg 1 w en_i $end
$var reg 16 x xi[15:0] $end
$var reg 16 y yi[15:0] $end
$var reg 16 z zi[15:0] $end
$var reg 16 { ci[15:0] $end
$var reg 1 | dv_o $end
$var reg 16 } xip1[15:0] $end
$var reg 16 !" yip1[15:0] $end
$var reg 16 "" zip1[15:0] $end
$comment state is not handled $end
$upscope $end
$upscope $end
$scope module connection_instance(4) $end
$scope module iteration $end
$var reg 1 #" clk $end
$var reg 1 $" rst $end
$var reg 1 %" en_i $end
$var reg 16 &" xi[15:0] $end
$var reg 16 '" yi[15:0] $end
$var reg 16 (" zi[15:0] $end
$var reg 16 )" ci[15:0] $end
$var reg 1 *" dv_o $end
$var reg 16 +" xip1[15:0] $end
$var reg 16 ," yip1[15:0] $end
$var reg 16 -" zip1[15:0] $end
$comment state is not handled $end
$upscope $end
$upscope $end
$scope module connection_instance(5) $end
$scope module iteration $end
$var reg 1 ." clk $end
$var reg 1 /" rst $end
$var reg 1 0" en_i $end
$var reg 16 1" xi[15:0] $end
$var reg 16 2" yi[15:0] $end
$var reg 16 3" zi[15:0] $end
$var reg 16 4" ci[15:0] $end
$var reg 1 5" dv_o $end
$var reg 16 6" xip1[15:0] $end
$var reg 16 7" yip1[15:0] $end
$var reg 16 8" zip1[15:0] $end
$comment state is not handled $end
$upscope $end
$upscope $end
$scope module connection_instance(6) $end
$scope module iteration $end
$var reg 1 9" clk $end
$var reg 1 :" rst $end
$var reg 1 ;" en_i $end
$var reg 16 <" xi[15:0] $end
$var reg 16 =" yi[15:0] $end
$var reg 16 >" zi[15:0] $end
$var reg 16 ?" ci[15:0] $end
$var reg 1 @" dv_o $end
$var reg 16 A" xip1[15:0] $end
$var reg 16 B" yip1[15:0] $end
$var reg 16 C" zip1[15:0] $end
$comment state is not handled $end
$upscope $end
$upscope $end
$scope module connection_instance(7) $end
$scope module iteration $end
$var reg 1 D" clk $end
$var reg 1 E" rst $end
$var reg 1 F" en_i $end
$var reg 16 G" xi[15:0] $end
$var reg 16 H" yi[15:0] $end
$var reg 16 I" zi[15:0] $end
$var reg 16 J" ci[15:0] $end
$var reg 1 K" dv_o $end
$var reg 16 L" xip1[15:0] $end
$var reg 16 M" yip1[15:0] $end
$var reg 16 N" zip1[15:0] $end
$comment state is not handled $end
$upscope $end
$upscope $end
$scope module connection_instance(8) $end
$scope module iteration $end
$var reg 1 O" clk $end
$var reg 1 P" rst $end
$var reg 1 Q" en_i $end
$var reg 16 R" xi[15:0] $end
$var reg 16 S" yi[15:0] $end
$var reg 16 T" zi[15:0] $end
$var reg 16 U" ci[15:0] $end
$var reg 1 V" dv_o $end
$var reg 16 W" xip1[15:0] $end
$var reg 16 X" yip1[15:0] $end
$var reg 16 Y" zip1[15:0] $end
$comment state is not handled $end
$upscope $end
$upscope $end
$scope module connection_instance(9) $end
$scope module iteration $end
$var reg 1 Z" clk $end
$var reg 1 [" rst $end
$var reg 1 \" en_i $end
$var reg 16 ]" xi[15:0] $end
$var reg 16 ^" yi[15:0] $end
$var reg 16 _" zi[15:0] $end
$var reg 16 `" ci[15:0] $end
$var reg 1 a" dv_o $end
$var reg 16 b" xip1[15:0] $end
$var reg 16 c" yip1[15:0] $end
$var reg 16 d" zip1[15:0] $end
$comment state is not handled $end
$upscope $end
$upscope $end
$upscope $end
$enddefinitions $end
#0
0!
0"
b00000000 #
0$
0%
U&
b00000000 '
1(
0)
0*
bUUUUUUUU +
U,
U-
U.
b00000000 /
00
01
02
b00000000 3
04
05
06
bUUUUUUUU 7
U8
U9
1:
bUUUUUUUU ;
U<
U=
U>
b00000000 ?
0@
0A
UB
0C
0D
bUUUUUUUU E
bUUUUUUUU F
UG
UH
1I
bUUUUUUUU J
UK
UL
UM
0N
0O
0P
b0000000000000000 Q
bUUUUUUUUUU0 R
b0UUUUUUUUUU S
0T
0U
0V
bUUUUUUUUUUUUUUUU W
bUUUUUUUUUUUUUUUU X
bUUUUUUUUUUUUUUUU Y
b0001000110010100 Z
U[
bUUUUUUUUUUUUUUUU \
bUUUUUUUUUUUUUUUU ]
bUUUUUUUUUUUUUUUU ^
0_
0`
Ua
bUUUUUUUUUUUUUUUU b
bUUUUUUUUUUUUUUUU c
bUUUUUUUUUUUUUUUU d
b0000101001100001 e
Uf
bUUUUUUUUUUUUUUUU g
bUUUUUUUUUUUUUUUU h
bUUUUUUUUUUUUUUUU i
0j
0k
Ul
bUUUUUUUUUUUUUUUU m
bUUUUUUUUUUUUUUUU n
bUUUUUUUUUUUUUUUU o
b0000010101111100 p
Uq
bUUUUUUUUUUUUUUUU r
bUUUUUUUUUUUUUUUU s
bUUUUUUUUUUUUUUUU t
0u
0v
Uw
bUUUUUUUUUUUUUUUU x
bUUUUUUUUUUUUUUUU y
bUUUUUUUUUUUUUUUU z
b0000001011001001 {
U|
bUUUUUUUUUUUUUUUU }
bUUUUUUUUUUUUUUUU !"
bUUUUUUUUUUUUUUUU ""
0#"
0$"
U%"
bUUUUUUUUUUUUUUUU &"
bUUUUUUUUUUUUUUUU '"
bUUUUUUUUUUUUUUUU ("
b0000000101100110 )"
U*"
bUUUUUUUUUUUUUUUU +"
bUUUUUUUUUUUUUUUU ,"
bUUUUUUUUUUUUUUUU -"
0."
0/"
U0"
bUUUUUUUUUUUUUUUU 1"
bUUUUUUUUUUUUUUUU 2"
bUUUUUUUUUUUUUUUU 3"
b0000000010110011 4"
U5"
bUUUUUUUUUUUUUUUU 6"
bUUUUUUUUUUUUUUUU 7"
bUUUUUUUUUUUUUUUU 8"
09"
0:"
U;"
bUUUUUUUUUUUUUUUU <"
bUUUUUUUUUUUUUUUU ="
bUUUUUUUUUUUUUUUU >"
b0000000001011010 ?"
U@"
bUUUUUUUUUUUUUUUU A"
bUUUUUUUUUUUUUUUU B"
bUUUUUUUUUUUUUUUU C"
0D"
0E"
UF"
bUUUUUUUUUUUUUUUU G"
bUUUUUUUUUUUUUUUU H"
bUUUUUUUUUUUUUUUU I"
b0000000000101101 J"
UK"
bUUUUUUUUUUUUUUUU L"
bUUUUUUUUUUUUUUUU M"
bUUUUUUUUUUUUUUUU N"
0O"
0P"
UQ"
bUUUUUUUUUUUUUUUU R"
bUUUUUUUUUUUUUUUU S"
bUUUUUUUUUUUUUUUU T"
b0000000000010110 U"
UV"
bUUUUUUUUUUUUUUUU W"
bUUUUUUUUUUUUUUUU X"
bUUUUUUUUUUUUUUUU Y"
0Z"
0["
U\"
bUUUUUUUUUUUUUUUU ]"
bUUUUUUUUUUUUUUUU ^"
bUUUUUUUUUUUUUUUU _"
b0000000000001011 `"
Ua"
bUUUUUUUUUUUUUUUU b"
bUUUUUUUUUUUUUUUU c"
bUUUUUUUUUUUUUUUU d"
#100000000
1!
1&
1*
b00000000 +
0,
1.
b00000000 7
08
b00000000 ;
0<
1>
1B
1C
b00000000 E
b00000000 F
0G
b00000000 J
0K
1M
1N
b00000000000 R
b00000000000 S
1T
0[
b0000000000000000 \
b0000000000000000 ]
b0000000000000000 ^
1_
0a
b0000000000000000 b
b0000000000000000 c
b0000000000000000 d
0f
b0000000000000000 g
b0000000000000000 h
b0000000000000000 i
1j
0l
b0000000000000000 m
b0000000000000000 n
b0000000000000000 o
0q
b0000000000000000 r
b0000000000000000 s
b0000000000000000 t
1u
0w
b0000000000000000 x
b0000000000000000 y
b0000000000000000 z
0|
b0000000000000000 }
b0000000000000000 !"
b0000000000000000 ""
1#"
0%"
b0000000000000000 &"
b0000000000000000 '"
b0000000000000000 ("
0*"
b0000000000000000 +"
b0000000000000000 ,"
b0000000000000000 -"
1."
00"
b0000000000000000 1"
b0000000000000000 2"
b0000000000000000 3"
05"
b0000000000000000 6"
b0000000000000000 7"
b0000000000000000 8"
19"
0;"
b0000000000000000 <"
b0000000000000000 ="
b0000000000000000 >"
0@"
b0000000000000000 A"
b0000000000000000 B"
b0000000000000000 C"
1D"
0F"
b0000000000000000 G"
b0000000000000000 H"
b0000000000000000 I"
0K"
b0000000000000000 L"
b0000000000000000 M"
b0000000000000000 N"
1O"
0Q"
b0000000000000000 R"
b0000000000000000 S"
b0000000000000000 T"
0V"
b0000000000000000 W"
b0000000000000000 X"
b0000000000000000 Y"
1Z"
0\"
b0000000000000000 ]"
b0000000000000000 ^"
b0000000000000000 _"
0a"
b0000000000000000 b"
b0000000000000000 c"
b0000000000000000 d"
#180000000
1"
1D
1O
1U
1`
1k
1v
1$"
1/"
1:"
1E"
1P"
1["
#200000000
0!
0C
0N
0T
0_
0j
0u
0#"
0."
09"
0D"
0O"
0Z"
#300000000
1!
1$
0*
1@
1C
1N
1T
1_
1j
1u
1#"
1."
19"
1D"
1O"
1Z"
#400000000
0!
0C
0N
0T
0_
0j
0u
0#"
0."
09"
0D"
0O"
0Z"
#500000000
1!
1C
1N
1T
1_
1j
1u
1#"
1."
19"
1D"
1O"
1Z"
#600000000
0!
0C
0N
0T
0_
0j
0u
0#"
0."
09"
0D"
0O"
0Z"
#700000000
1!
0$
0&
1*
b01111101 +
1,
b01111101 ;
1<
0@
0B
1C
b01111101 J
1K
1N
1T
1_
1j
1u
1#"
1."
19"
1D"
1O"
1Z"
#800000000
0!
0C
0N
0T
0_
0j
0u
0#"
0."
09"
0D"
0O"
0Z"
#900000000
1!
b00000001 #
1$
0*
b00011001 +
b00011001 ;
b00000001 ?
1@
1C
b00011001 J
1N
1T
b0011111010000000 W
1_
1j
1u
1#"
1."
19"
1D"
1O"
1Z"
#1000000000
0!
0C
0N
0T
0_
0j
0u
0#"
0."
09"
0D"
0O"
0Z"
#1100000000
1!
1&
0,
0.
0<
0>
1B
1C
0K
0M
1N
b00000000001 R
1T
1V
b0000110010000000 X
b0000000000000000 Y
1_
1j
1u
1#"
1."
19"
1D"
1O"
1Z"
#1200000000
0!
0C
0N
0T
0_
0j
0u
0#"
0."
09"
0D"
0O"
0Z"
#1300000000
1!
b00000000 #
b00000000 ?
1C
b00000001 E
1N
b00000000010 R
b00000000001 S
1T
0V
1[
b0100101100000000 \
b1100111000000000 ]
b0001000110010100 ^
1_
1a
b0100101100000000 b
b1100111000000000 c
b0001000110010100 d
1j
1u
1#"
1."
19"
1D"
1O"
1Z"
#1400000000
0!
0C
0N
0T
0_
0j
0u
0#"
0."
09"
0D"
0O"
0Z"
#1500000000
1!
0$
0&
1*
b01101010 +
1,
b01101010 ;
1<
0@
0B
1C
b01101010 J
1K
1N
b00000000100 R
b00000000010 S
1T
0[
1_
0a
1f
b0110010000000000 g
b1111001110000000 h
b0000011100110011 i
1j
1l
b0110010000000000 m
b1111001110000000 n
b0000011100110011 o
1u
1#"
1."
19"
1D"
1O"
1Z"
#1600000000
0!
0C
0N
0T
0_
0j
0u
0#"
0."
09"
0D"
0O"
0Z"
#1700000000
1!
b00000010 #
1$
0*
b00000010 ?
1@
1C
1N
b00000001000 R
b00000000100 S
1T
1_
0f
1j
0l
1q
b0110011100100000 r
b0000110010000000 s
b0000000110110111 t
1u
1w
b0110011100100000 x
b0000110010000000 y
b0000000110110111 z
1#"
1."
19"
1D"
1O"
1Z"
#1800000000
0!
0C
0N
0T
0_
0j
0u
0#"
0."
09"
0D"
0O"
0Z"
#1900000000
1!
1C
1N
b00000010000 R
b00000001000 S
1T
1_
1j
0q
1u
0w
1|
b0110100010110000 }
b1111111110011100 !"
b0000010010000000 ""
1#"
1%"
b0110100010110000 &"
b1111111110011100 '"
b0000010010000000 ("
1."
19"
1D"
1O"
1Z"
#2000000000
0!
0C
0N
0T
0_
0j
0u
0#"
0."
09"
0D"
0O"
0Z"
#2100000000
1!
1C
1N
b00000100000 R
b00000010000 S
1T
1_
1j
1u
0|
1#"
0%"
1*"
b0110100010110111 +"
b0000011000100111 ,"
b0000001100011010 -"
1."
10"
b0110100010110111 1"
b0000011000100111 2"
b0000001100011010 3"
19"
1D"
1O"
1Z"
#2200000000
0!
0C
0N
0T
0_
0j
0u
0#"
0."
09"
0D"
0O"
0Z"
#2300000000
1!
1C
1N
b00001000000 R
b00000100000 S
1T
1_
1j
1u
1#"
0*"
1."
00"
15"
b0110100011101000 6"
b0000001011100010 7"
b0000001111001101 8"
19"
1;"
b0110100011101000 <"
b0000001011100010 ="
b0000001111001101 >"
1D"
1O"
1Z"
#2400000000
0!
0C
0N
0T
0_
0j
0u
0#"
0."
09"
0D"
0O"
0Z"
#2500000000
1!
1C
1N
b00010000000 R
b00001000000 S
1T
1_
1j
1u
1#"
1."
05"
19"
0;"
1@"
b0110100011110011 A"
b0000000100111111 B"
b0000010000100111 C"
1D"
1F"
b0110100011110011 G"
b0000000100111111 H"
b0000010000100111 I"
1O"
1Z"
#2600000000
0!
0C
0N
0T
0_
0j
0u
0#"
0."
09"
0D"
0O"
0Z"
#2700000000
1!
1C
1N
b00100000000 R
b00010000000 S
1T
1_
1j
1u
1#"
1."
19"
0@"
1D"
0F"
1K"
b0110100011110101 L"
b0000000001101110 M"
b0000010001010100 N"
1O"
1Q"
b0110100011110101 R"
b0000000001101110 S"
b0000010001010100 T"
1Z"
#2800000000
0!
0C
0N
0T
0_
0j
0u
0#"
0."
09"
0D"
0O"
0Z"
#2900000000
1!
1C
1N
b01000000000 R
b00100000000 S
1T
1_
1j
1u
1#"
1."
19"
1D"
0K"
1O"
0Q"
1V"
b0110100011110101 W"
b0000000000000110 X"
b0000010001101010 Y"
1Z"
1\"
b0110100011110101 ]"
b0000000000000110 ^"
b0000010001101010 _"
#3000000000
0!
0C
0N
0T
0_
0j
0u
0#"
0."
09"
0D"
0O"
0Z"
#3100000000
1!
1C
1N
b10000000000 R
b01000000000 S
1T
1_
1j
1u
1#"
1."
19"
1D"
1O"
0V"
1Z"
0\"
1a"
b0110100011110101 b"
b1111111111010010 c"
b0000010001110101 d"
#3200000000
0!
0C
0N
0T
0_
0j
0u
0#"
0."
09"
0D"
0O"
0Z"
#3300000000
1!
b11110101 7
18
1C
b11110101 F
1G
1N
b00000000000 R
b00000000000 S
1T
1_
1j
1u
1#"
1."
19"
1D"
1O"
1Z"
0a"
#3400000000
0!
0C
0N
0T
0_
0j
0u
0#"
0."
09"
0D"
0O"
0Z"
#3500000000
1!
b00000110 7
1C
b00000110 F
1N
1T
1_
1j
1u
1#"
1."
19"
1D"
1O"
1Z"
#3600000000
0!
0C
0N
0T
0_
0j
0u
0#"
0."
09"
0D"
0O"
0Z"
#3700000000
1!
1.
b01101010 7
08
1>
1C
b01101010 F
0G
1M
1N
1T
1_
1j
1u
1#"
1."
19"
1D"
1O"
1Z"
#3800000000
0!
0C
0N
0T
0_
0j
0u
0#"
0."
09"
0D"
0O"
0Z"
#3900000000
1!
b01000111 +
b01000111 ;
1C
b01000111 J
1N
1T
b0011010100000000 W
1_
1j
1u
1#"
1."
19"
1D"
1O"
1Z"
#4000000000
0!
0C
0N
0T
0_
0j
0u
0#"
0."
09"
0D"
0O"
0Z"
#4100000000
1!
1&
0,
0.
0<
0>
1B
1C
0K
0M
1N
b00000000001 R
1T
1V
b0010001110000000 X
1_
1j
1u
1#"
1."
19"
1D"
1O"
1Z"
#4200000000
0!
0C
0N
0T
0_
0j
0u
0#"
0."
09"
0D"
0O"
0Z"
#4300000000
1!
b00000000 #
b00000000 ?
1C
b00000010 E
1N
b00000000010 R
b00000000001 S
1T
0V
1[
b0101100010000000 \
b1110111010000000 ]
1_
1a
b0101100010000000 b
b1110111010000000 c
1j
1u
1#"
1."
19"
1D"
1O"
1Z"
#4400000000
0!
0C
0N
0T
0_
0j
0u
0#"
0."
09"
0D"
0O"
0Z"
#4500000000
1!
0$
0&
1*
1,
1<
0@
0B
1C
1K
1N
b00000000100 R
b00000000010 S
1T
0[
1_
0a
1f
b0110000101000000 g
b0001101011000000 h
1j
1l
b0110000101000000 m
b0001101011000000 n
1u
1#"
1."
19"
1D"
1O"
1Z"
#4600000000
0!
0C
0N
0T
0_
0j
0u
0#"
0."
09"
0D"
0O"
0Z"
#4700000000
1!
b00000011 #
1$
0*
b00000011 ?
1@
1C
1N
b00000001000 R
b00000000100 S
1T
1_
0f
1j
0l
1q
b0110011111110000 r
b0000001001110000 s
b0000110010101111 t
1u
1w
b0110011111110000 x
b0000001001110000 y
b0000110010101111 z
1#"
1."
19"
1D"
1O"
1Z"
#4800000000
0!
0C
0N
0T
0_
0j
0u
0#"
0."
09"
0D"
0O"
0Z"
#4900000000
1!
1C
1N
b00000010000 R
b00000001000 S
1T
1_
1j
0q
1u
0w
1|
b0110100000111110 }
b1111010101110010 !"
b0000111101111000 ""
1#"
1%"
b0110100000111110 &"
b1111010101110010 '"
b0000111101111000 ("
1."
19"
1D"
1O"
1Z"
#5000000000
0!
0C
0N
0T
0_
0j
0u
0#"
0."
09"
0D"
0O"
0Z"
#5100000000
1!
1C
1N
b00000100000 R
b00000010000 S
1T
1_
1j
1u
0|
1#"
0%"
1*"
b0110100011100111 +"
b1111101111110101 ,"
b0000111000010010 -"
1."
10"
b0110100011100111 1"
b1111101111110101 2"
b0000111000010010 3"
19"
1D"
1O"
1Z"
#5200000000
0!
0C
0N
0T
0_
0j
0u
0#"
0."
09"
0D"
0O"
0Z"
#5300000000
1!
1C
1N
b00001000000 R
b00000100000 S
1T
1_
1j
1u
1#"
0*"
1."
00"
15"
b0110100100001000 6"
b1111111100111100 7"
b0000110101011111 8"
19"
1;"
b0110100100001000 <"
b1111111100111100 ="
b0000110101011111 >"
1D"
1O"
1Z"
#5400000000
0!
0C
0N
0T
0_
0j
0u
0#"
0."
09"
0D"
0O"
0Z"
#5500000000
1!
1C
1N
b00010000000 R
b00001000000 S
1T
1_
1j
1u
1#"
1."
05"
19"
0;"
1@"
b0110100100001100 A"
b0000000011100000 B"
b0000110100000101 C"
1D"
1F"
b0110100100001100 G"
b0000000011100000 H"
b0000110100000101 I"
1O"
1Z"
#5600000000
0!
0C
0N
0T
0_
0j
0u
0#"
0."
09"
0D"
0O"
0Z"
#5700000000
1!
1C
1N
b00100000000 R
b00010000000 S
1T
1_
1j
1u
1#"
1."
19"
0@"
1D"
0F"
1K"
b0110100100001101 L"
b0000000000001110 M"
b0000110100110010 N"
1O"
1Q"
b0110100100001101 R"
b0000000000001110 S"
b0000110100110010 T"
1Z"
#5800000000
0!
0C
0N
0T
0_
0j
0u
0#"
0."
09"
0D"
0O"
0Z"
#5900000000
1!
1C
1N
b01000000000 R
b00100000000 S
1T
1_
1j
1u
1#"
1."
19"
1D"
0K"
1O"
0Q"
1V"
b0110100100001101 W"
b1111111110100101 X"
b0000110101001000 Y"
1Z"
1\"
b0110100100001101 ]"
b1111111110100101 ^"
b0000110101001000 _"
#6000000000
0!
0C
0N
0T
0_
0j
0u
0#"
0."
09"
0D"
0O"
0Z"
#6100000000
1!
1C
1N
b10000000000 R
b01000000000 S
1T
1_
1j
1u
1#"
1."
19"
1D"
1O"
0V"
1Z"
0\"
1a"
b0110100100001110 b"
b1111111111011001 c"
b0000110100111101 d"
#6200000000
0!
0C
0N
0T
0_
0j
0u
0#"
0."
09"
0D"
0O"
0Z"
#6300000000
1!
b00001101 7
18
1C
b00001101 F
1G
1N
b00000000000 R
b00000000000 S
1T
1_
1j
1u
1#"
1."
19"
1D"
1O"
1Z"
0a"
#6400000000
0!
0C
0N
0T
0_
0j
0u
0#"
0."
09"
0D"
0O"
0Z"
#6500000000
1!
b10100101 7
1C
b10100101 F
1N
1T
1_
1j
1u
1#"
1."
19"
1D"
1O"
1Z"
#6600000000
0!
0C
0N
0T
0_
0j
0u
0#"
0."
09"
0D"
0O"
0Z"
#6700000000
1!
1.
b01001000 7
08
1>
1C
b01001000 F
0G
1M
1N
1T
1_
1j
1u
1#"
1."
19"
1D"
1O"
1Z"
#6800000000
0!
0C
0N
0T
0_
0j
0u
0#"
0."
09"
0D"
0O"
0Z"
#6900000000
1!
b01101010 +
b01101010 ;
1C
b01101010 J
1N
1T
b0010001110000000 W
1_
1j
1u
1#"
1."
19"
1D"
1O"
1Z"
#7000000000
0!
0C
0N
0T
0_
0j
0u
0#"
0."
09"
0D"
0O"
0Z"
#7100000000
1!
1&
0,
0.
0<
0>
1B
1C
0K
0M
1N
b00000000001 R
1T
1V
b0011010100000000 X
1_
1j
1u
1#"
1."
19"
1D"
1O"
1Z"
#7200000000
0!
0C
0N
0T
0_
0j
0u
0#"
0."
09"
0D"
0O"
0Z"
#7300000000
1!
b00000000 #
b00000000 ?
1C
b00000011 E
1N
b00000000010 R
b00000000001 S
1T
0V
1[
b0001000110000000 ]
1_
1a
b0001000110000000 c
1j
1u
1#"
1."
19"
1D"
1O"
1Z"
#7400000000
0!
0C
0N
0T
0_
0j
0u
0#"
0."
09"
0D"
0O"
0Z"
#7500000000
1!
0$
0&
1*
b00011001 +
1,
b00011001 ;
1<
0@
0B
1C
b00011001 J
1K
1N
b00000000100 R
b00000000010 S
1T
0[
1_
0a
1f
b1110010101000000 h
b0001101111110101 i
1j
1l
b1110010101000000 n
b0001101111110101 o
1u
1#"
1."
19"
1D"
1O"
1Z"
#7600000000
0!
0C
0N
0T
0_
0j
0u
0#"
0."
09"
0D"
0O"
0Z"
#7700000000
1!
1$
0*
1@
1C
1N
b00000001000 R
b00000000100 S
1T
1_
0f
1j
0l
1q
b1111110110010000 s
b0001011001111001 t
1u
1w
b1111110110010000 y
b0001011001111001 z
1#"
1."
19"
1D"
1O"
1Z"
#7800000000
0!
0C
0N
0T
0_
0j
0u
0#"
0."
09"
0D"
0O"
0Z"
#7900000000
1!
1C
1N
b00000010000 R
b00000001000 S
1T
1_
1j
0q
1u
0w
1|
b0000101010001110 !"
b0001001110110000 ""
1#"
1%"
b0000101010001110 '"
b0001001110110000 ("
1."
19"
1D"
1O"
1Z"
#8000000000
0!
0C
0N
0T
0_
0j
0u
0#"
0."
09"
0D"
0O"
0Z"
#8100000000
1!
1C
1N
b00000100000 R
b00000010000 S
1T
1_
1j
1u
0|
1#"
0%"
1*"
b0110100011100110 +"
b0000010000001011 ,"
b0001010100010110 -"
1."
10"
b0110100011100110 1"
b0000010000001011 2"
b0001010100010110 3"
19"
1D"
1O"
1Z"
#8200000000
0!
0C
0N
0T
0_
0j
0u
0#"
0."
09"
0D"
0O"
0Z"
#8300000000
1!
1C
1N
b00001000000 R
b00000100000 S
1T
1_
1j
1u
1#"
0*"
1."
00"
15"
b0110100100000110 6"
b0000000011000100 7"
b0001010111001001 8"
19"
1;"
b0110100100000110 <"
b0000000011000100 ="
b0001010111001001 >"
1D"
1O"
1Z"
#8400000000
0!
0C
0N
0T
0_
0j
0u
0#"
0."
09"
0D"
0O"
0Z"
#8500000000
1!
1C
1N
b00010000000 R
b00001000000 S
1T
1_
1j
1u
1#"
1."
05"
19"
0;"
1@"
b0110100100001001 A"
b1111111100100000 B"
b0001011000100011 C"
1D"
1F"
b0110100100001001 G"
b1111111100100000 H"
b0001011000100011 I"
1O"
1Z"
#8600000000
0!
0C
0N
0T
0_
0j
0u
0#"
0."
09"
0D"
0O"
0Z"
#8700000000
1!
1C
1N
b00100000000 R
b00010000000 S
1T
1_
1j
1u
1#"
1."
19"
0@"
1D"
0F"
1K"
b0110100100001011 L"
b1111111111110010 M"
b0001010111110110 N"
1O"
1Q"
b0110100100001011 R"
b1111111111110010 S"
b0001010111110110 T"
1Z"
#8800000000
0!
0C
0N
0T
0_
0j
0u
0#"
0."
09"
0D"
0O"
0Z"
#8900000000
1!
1C
1N
b01000000000 R
b00100000000 S
1T
1_
1j
1u
1#"
1."
19"
1D"
0K"
1O"
0Q"
1V"
b0110100100001100 W"
b0000000001011011 X"
b0001010111100000 Y"
1Z"
1\"
b0110100100001100 ]"
b0000000001011011 ^"
b0001010111100000 _"
#9000000000
0!
0C
0N
0T
0_
0j
0u
0#"
0."
09"
0D"
0O"
0Z"
#9100000000
1!
1C
1N
b10000000000 R
b01000000000 S
1T
1_
1j
1u
1#"
1."
19"
1D"
1O"
0V"
1Z"
0\"
1a"
b0110100100001100 b"
b0000000000100111 c"
b0001010111101011 d"
#9200000000
0!
0C
0N
0T
0_
0j
0u
0#"
0."
09"
0D"
0O"
0Z"
#9300000000
1!
b00001100 7
18
1C
b00001100 F
1G
1N
b00000000000 R
b00000000000 S
1T
1_
1j
1u
1#"
1."
19"
1D"
1O"
1Z"
0a"
#9400000000
0!
0C
0N
0T
0_
0j
0u
0#"
0."
09"
0D"
0O"
0Z"
#9500000000
1!
b01011011 7
1C
b01011011 F
1N
1T
1_
1j
1u
1#"
1."
19"
1D"
1O"
1Z"
#9600000000
0!
0C
0N
0T
0_
0j
0u
0#"
0."
09"
0D"
0O"
0Z"
#9700000000
1!
1.
b11100000 7
08
1>
1C
b11100000 F
0G
1M
1N
1T
1_
1j
1u
1#"
1."
19"
1D"
1O"
1Z"
#9800000000
0!
0C
0N
0T
0_
0j
0u
0#"
0."
09"
0D"
0O"
0Z"
#9900000000
1!
b01111101 +
b01111101 ;
1C
b01111101 J
1N
1T
b0000110010000000 W
1_
1j
1u
1#"
1."
19"
1D"
1O"
1Z"
#10000000000
0!
0C
0N
0T
0_
0j
0u
0#"
0."
09"
0D"
0O"
0Z"
#10100000000
1!
1&
0,
0.
0<
0>
1B
1C
0K
0M
1N
b00000000001 R
1T
1V
b0011111010000000 X
1_
1j
1u
1#"
1."
19"
1D"
1O"
1Z"
#10200000000
0!
0C
0N
0T
0_
0j
0u
0#"
0."
09"
0D"
0O"
0Z"
#10300000000
1!
1C
b00000000 E
1N
b00000000010 R
b00000000001 S
1T
0V
1[
b0100101100000000 \
b0011001000000000 ]
1_
1a
b0100101100000000 b
b0011001000000000 c
1j
1u
1#"
1."
19"
1D"
1O"
1Z"
#10400000000
0!
0C
0N
0T
0_
0j
0u
0#"
0."
09"
0D"
0O"
0Z"
