sim/out.vcd
$date
  Thu Jan  9 20:18:23 2020
$end
$version
  GHDL v0
$end
$timescale
  1 fs
$end
$comment state is not handled $end
$var reg 1 ! clk_tb $end
$var reg 1 " rst_tb $end
$var reg 8 # m1_axis_tdata[7:0] $end
$var reg 1 $ m1_axis_tvalid $end
$var reg 1 % m1_axis_tlast $end
$var reg 1 & m1_axis_tready $end
$var reg 8 ' s1_axis_tdata[7:0] $end
$var reg 1 ( s1_axis_tvalid $end
$var reg 1 ) s1_axis_tlast $end
$var reg 1 * s1_axis_tready $end
$var reg 8 + axis2_tdata[7:0] $end
$var reg 1 , axis2_tvalid $end
$var reg 1 - axis2_tlast $end
$var reg 1 . axis2_tready $end
$var reg 8 / axis3_tdata[7:0] $end
$var reg 1 0 axis3_tvalid $end
$var reg 1 1 axis3_tlast $end
$var reg 1 2 axis3_tready $end
$var reg 8 3 axis4_tdata[7:0] $end
$var reg 1 4 axis4_tvalid $end
$var reg 1 5 axis4_tlast $end
$var reg 1 6 axis4_tready $end
$var reg 8 7 axiso_tdata[7:0] $end
$var reg 1 8 axiso_tvalid $end
$var reg 1 9 axiso_tlast $end
$var reg 1 : axiso_tready $end
$scope module mapper_inst $end
$var reg 8 ; m_axis_tdata[7:0] $end
$var reg 1 < m_axis_tvalid $end
$var reg 1 = m_axis_tlast $end
$var reg 1 > m_axis_tready $end
$var reg 8 ? s_axis_tdata[7:0] $end
$var reg 1 @ s_axis_tvalid $end
$var reg 1 A s_axis_tlast $end
$var reg 1 B s_axis_tready $end
$var reg 1 C clk $end
$var reg 1 D rst $end
$comment state is not handled $end
$upscope $end
$scope module cordic_inst $end
$var reg 8 E m_axis_tdata[7:0] $end
$var reg 1 F m_axis_tvalid $end
$var reg 1 G m_axis_tlast $end
$var reg 1 H m_axis_tready $end
$var reg 8 I s_axis_tdata[7:0] $end
$var reg 1 J s_axis_tvalid $end
$var reg 1 K s_axis_tlast $end
$var reg 1 L s_axis_tready $end
$var reg 1 M clk $end
$var reg 1 N rst $end
$comment prestate is not handled $end
$comment posstate is not handled $end
$comment xydata is not handled $end
$var reg 16 O angle[15:0] $end
$var reg 11 P validw[10:0] $end
$var reg 11 Q readyw[10:0] $end
$var reg 11 R inv[10:0] $end
$comment wirex is not handled $end
$comment wirey is not handled $end
$comment wirez is not handled $end
$comment wirelut is not handled $end
$comment atanlut is not handled $end
$scope module connection_instance(0) $end
$scope module iteration $end
$var reg 16 S m_datax[15:0] $end
$var reg 16 T m_datay[15:0] $end
$var reg 16 U m_dataz[15:0] $end
$var reg 1 V m_valid $end
$var reg 1 W m_inv $end
$var reg 1 X m_ready $end
$var reg 16 Y s_datax[15:0] $end
$var reg 16 Z s_datay[15:0] $end
$var reg 16 [ s_dataz[15:0] $end
$var reg 16 \ s_datat[15:0] $end
$var reg 1 ] s_valid $end
$var reg 1 ^ s_ready $end
$var reg 1 _ s_inv $end
$var reg 1 ` clk $end
$var reg 1 a rst $end
$comment state is not handled $end
$upscope $end
$upscope $end
$scope module connection_instance(1) $end
$scope module iteration $end
$var reg 16 b m_datax[15:0] $end
$var reg 16 c m_datay[15:0] $end
$var reg 16 d m_dataz[15:0] $end
$var reg 1 e m_valid $end
$var reg 1 f m_inv $end
$var reg 1 g m_ready $end
$var reg 16 h s_datax[15:0] $end
$var reg 16 i s_datay[15:0] $end
$var reg 16 j s_dataz[15:0] $end
$var reg 16 k s_datat[15:0] $end
$var reg 1 l s_valid $end
$var reg 1 m s_ready $end
$var reg 1 n s_inv $end
$var reg 1 o clk $end
$var reg 1 p rst $end
$comment state is not handled $end
$upscope $end
$upscope $end
$scope module connection_instance(2) $end
$scope module iteration $end
$var reg 16 q m_datax[15:0] $end
$var reg 16 r m_datay[15:0] $end
$var reg 16 s m_dataz[15:0] $end
$var reg 1 t m_valid $end
$var reg 1 u m_inv $end
$var reg 1 v m_ready $end
$var reg 16 w s_datax[15:0] $end
$var reg 16 x s_datay[15:0] $end
$var reg 16 y s_dataz[15:0] $end
$var reg 16 z s_datat[15:0] $end
$var reg 1 { s_valid $end
$var reg 1 | s_ready $end
$var reg 1 } s_inv $end
$var reg 1 !" clk $end
$var reg 1 "" rst $end
$comment state is not handled $end
$upscope $end
$upscope $end
$scope module connection_instance(3) $end
$scope module iteration $end
$var reg 16 #" m_datax[15:0] $end
$var reg 16 $" m_datay[15:0] $end
$var reg 16 %" m_dataz[15:0] $end
$var reg 1 &" m_valid $end
$var reg 1 '" m_inv $end
$var reg 1 (" m_ready $end
$var reg 16 )" s_datax[15:0] $end
$var reg 16 *" s_datay[15:0] $end
$var reg 16 +" s_dataz[15:0] $end
$var reg 16 ," s_datat[15:0] $end
$var reg 1 -" s_valid $end
$var reg 1 ." s_ready $end
$var reg 1 /" s_inv $end
$var reg 1 0" clk $end
$var reg 1 1" rst $end
$comment state is not handled $end
$upscope $end
$upscope $end
$scope module connection_instance(4) $end
$scope module iteration $end
$var reg 16 2" m_datax[15:0] $end
$var reg 16 3" m_datay[15:0] $end
$var reg 16 4" m_dataz[15:0] $end
$var reg 1 5" m_valid $end
$var reg 1 6" m_inv $end
$var reg 1 7" m_ready $end
$var reg 16 8" s_datax[15:0] $end
$var reg 16 9" s_datay[15:0] $end
$var reg 16 :" s_dataz[15:0] $end
$var reg 16 ;" s_datat[15:0] $end
$var reg 1 <" s_valid $end
$var reg 1 =" s_ready $end
$var reg 1 >" s_inv $end
$var reg 1 ?" clk $end
$var reg 1 @" rst $end
$comment state is not handled $end
$upscope $end
$upscope $end
$scope module connection_instance(5) $end
$scope module iteration $end
$var reg 16 A" m_datax[15:0] $end
$var reg 16 B" m_datay[15:0] $end
$var reg 16 C" m_dataz[15:0] $end
$var reg 1 D" m_valid $end
$var reg 1 E" m_inv $end
$var reg 1 F" m_ready $end
$var reg 16 G" s_datax[15:0] $end
$var reg 16 H" s_datay[15:0] $end
$var reg 16 I" s_dataz[15:0] $end
$var reg 16 J" s_datat[15:0] $end
$var reg 1 K" s_valid $end
$var reg 1 L" s_ready $end
$var reg 1 M" s_inv $end
$var reg 1 N" clk $end
$var reg 1 O" rst $end
$comment state is not handled $end
$upscope $end
$upscope $end
$scope module connection_instance(6) $end
$scope module iteration $end
$var reg 16 P" m_datax[15:0] $end
$var reg 16 Q" m_datay[15:0] $end
$var reg 16 R" m_dataz[15:0] $end
$var reg 1 S" m_valid $end
$var reg 1 T" m_inv $end
$var reg 1 U" m_ready $end
$var reg 16 V" s_datax[15:0] $end
$var reg 16 W" s_datay[15:0] $end
$var reg 16 X" s_dataz[15:0] $end
$var reg 16 Y" s_datat[15:0] $end
$var reg 1 Z" s_valid $end
$var reg 1 [" s_ready $end
$var reg 1 \" s_inv $end
$var reg 1 ]" clk $end
$var reg 1 ^" rst $end
$comment state is not handled $end
$upscope $end
$upscope $end
$scope module connection_instance(7) $end
$scope module iteration $end
$var reg 16 _" m_datax[15:0] $end
$var reg 16 `" m_datay[15:0] $end
$var reg 16 a" m_dataz[15:0] $end
$var reg 1 b" m_valid $end
$var reg 1 c" m_inv $end
$var reg 1 d" m_ready $end
$var reg 16 e" s_datax[15:0] $end
$var reg 16 f" s_datay[15:0] $end
$var reg 16 g" s_dataz[15:0] $end
$var reg 16 h" s_datat[15:0] $end
$var reg 1 i" s_valid $end
$var reg 1 j" s_ready $end
$var reg 1 k" s_inv $end
$var reg 1 l" clk $end
$var reg 1 m" rst $end
$comment state is not handled $end
$upscope $end
$upscope $end
$scope module connection_instance(8) $end
$scope module iteration $end
$var reg 16 n" m_datax[15:0] $end
$var reg 16 o" m_datay[15:0] $end
$var reg 16 p" m_dataz[15:0] $end
$var reg 1 q" m_valid $end
$var reg 1 r" m_inv $end
$var reg 1 s" m_ready $end
$var reg 16 t" s_datax[15:0] $end
$var reg 16 u" s_datay[15:0] $end
$var reg 16 v" s_dataz[15:0] $end
$var reg 16 w" s_datat[15:0] $end
$var reg 1 x" s_valid $end
$var reg 1 y" s_ready $end
$var reg 1 z" s_inv $end
$var reg 1 {" clk $end
$var reg 1 |" rst $end
$comment state is not handled $end
$upscope $end
$upscope $end
$scope module connection_instance(9) $end
$scope module iteration $end
$var reg 16 }" m_datax[15:0] $end
$var reg 16 !# m_datay[15:0] $end
$var reg 16 "# m_dataz[15:0] $end
$var reg 1 ## m_valid $end
$var reg 1 $# m_inv $end
$var reg 1 %# m_ready $end
$var reg 16 &# s_datax[15:0] $end
$var reg 16 '# s_datay[15:0] $end
$var reg 16 (# s_dataz[15:0] $end
$var reg 16 )# s_datat[15:0] $end
$var reg 1 *# s_valid $end
$var reg 1 +# s_ready $end
$var reg 1 ,# s_inv $end
$var reg 1 -# clk $end
$var reg 1 .# rst $end
$comment state is not handled $end
$upscope $end
$upscope $end
$upscope $end
$enddefinitions $end
#0
0!
0"
b00000000 #
0$
0%
U&
b00000000 '
1(
0)
0*
bUUUUUUUU +
U,
U-
U.
b00000000 /
00
01
02
b00000000 3
04
05
06
bUUUUUUUU 7
U8
U9
1:
bUUUUUUUU ;
U<
U=
U>
b00000000 ?
0@
0A
UB
0C
0D
bUUUUUUUU E
UF
UG
1H
bUUUUUUUU I
UJ
UK
UL
0M
0N
b0000000000000000 O
bUUUUUUUUUU0 P
b0UUUUUUUUUU Q
bUUUUUUUUUU0 R
bUUUUUUUUUUUUUUUU S
bUUUUUUUUUUUUUUUU T
bUUUUUUUUUUUUUUUU U
UV
UW
UX
bUUUUUUUUUUUUUUUU Y
bUUUUUUUUUUUUUUUU Z
bUUUUUUUUUUUUUUUU [
b0001000110010100 \
0]
U^
0_
0`
0a
bUUUUUUUUUUUUUUUU b
bUUUUUUUUUUUUUUUU c
bUUUUUUUUUUUUUUUU d
Ue
Uf
Ug
bUUUUUUUUUUUUUUUU h
bUUUUUUUUUUUUUUUU i
bUUUUUUUUUUUUUUUU j
b0000101001100001 k
Ul
Um
Un
0o
0p
bUUUUUUUUUUUUUUUU q
bUUUUUUUUUUUUUUUU r
bUUUUUUUUUUUUUUUU s
Ut
Uu
Uv
bUUUUUUUUUUUUUUUU w
bUUUUUUUUUUUUUUUU x
bUUUUUUUUUUUUUUUU y
b0000010101111100 z
U{
U|
U}
0!"
0""
bUUUUUUUUUUUUUUUU #"
bUUUUUUUUUUUUUUUU $"
bUUUUUUUUUUUUUUUU %"
U&"
U'"
U("
bUUUUUUUUUUUUUUUU )"
bUUUUUUUUUUUUUUUU *"
bUUUUUUUUUUUUUUUU +"
b0000001011001001 ,"
U-"
U."
U/"
00"
01"
bUUUUUUUUUUUUUUUU 2"
bUUUUUUUUUUUUUUUU 3"
bUUUUUUUUUUUUUUUU 4"
U5"
U6"
U7"
bUUUUUUUUUUUUUUUU 8"
bUUUUUUUUUUUUUUUU 9"
bUUUUUUUUUUUUUUUU :"
b0000000101100110 ;"
U<"
U="
U>"
0?"
0@"
bUUUUUUUUUUUUUUUU A"
bUUUUUUUUUUUUUUUU B"
bUUUUUUUUUUUUUUUU C"
UD"
UE"
UF"
bUUUUUUUUUUUUUUUU G"
bUUUUUUUUUUUUUUUU H"
bUUUUUUUUUUUUUUUU I"
b0000000010110011 J"
UK"
UL"
UM"
0N"
0O"
bUUUUUUUUUUUUUUUU P"
bUUUUUUUUUUUUUUUU Q"
bUUUUUUUUUUUUUUUU R"
US"
UT"
UU"
bUUUUUUUUUUUUUUUU V"
bUUUUUUUUUUUUUUUU W"
bUUUUUUUUUUUUUUUU X"
b0000000001011010 Y"
UZ"
U["
U\"
0]"
0^"
bUUUUUUUUUUUUUUUU _"
bUUUUUUUUUUUUUUUU `"
bUUUUUUUUUUUUUUUU a"
Ub"
Uc"
Ud"
bUUUUUUUUUUUUUUUU e"
bUUUUUUUUUUUUUUUU f"
bUUUUUUUUUUUUUUUU g"
b0000000000101101 h"
Ui"
Uj"
Uk"
0l"
0m"
bUUUUUUUUUUUUUUUU n"
bUUUUUUUUUUUUUUUU o"
bUUUUUUUUUUUUUUUU p"
Uq"
Ur"
Us"
bUUUUUUUUUUUUUUUU t"
bUUUUUUUUUUUUUUUU u"
bUUUUUUUUUUUUUUUU v"
b0000000000010110 w"
Ux"
Uy"
Uz"
0{"
0|"
bUUUUUUUUUUUUUUUU }"
bUUUUUUUUUUUUUUUU !#
bUUUUUUUUUUUUUUUU "#
U##
U$#
0%#
bUUUUUUUUUUUUUUUU &#
bUUUUUUUUUUUUUUUU '#
bUUUUUUUUUUUUUUUU (#
b0000000000001011 )#
U*#
U+#
U,#
0-#
0.#
#100000000
1!
1&
1*
b00000000 +
0,
1.
b00000000 7
08
b00000000 ;
0<
1>
1B
1C
b00000000 E
0F
b00000000 I
0J
1L
1M
b00000000000 P
b11111111111 Q
b00000000000 R
b0000000000000000 S
b0000000000000000 T
b0000000000000000 U
0V
0W
1X
1^
1`
b0000000000000000 b
b0000000000000000 c
b0000000000000000 d
0e
0f
1g
b0000000000000000 h
b0000000000000000 i
b0000000000000000 j
0l
1m
0n
1o
b0000000000000000 q
b0000000000000000 r
b0000000000000000 s
0t
0u
1v
b0000000000000000 w
b0000000000000000 x
b0000000000000000 y
0{
1|
0}
1!"
b0000000000000000 #"
b0000000000000000 $"
b0000000000000000 %"
0&"
0'"
1("
b0000000000000000 )"
b0000000000000000 *"
b0000000000000000 +"
0-"
1."
0/"
10"
b0000000000000000 2"
b0000000000000000 3"
b0000000000000000 4"
05"
06"
17"
b0000000000000000 8"
b0000000000000000 9"
b0000000000000000 :"
0<"
1="
0>"
1?"
b0000000000000000 A"
b0000000000000000 B"
b0000000000000000 C"
0D"
0E"
1F"
b0000000000000000 G"
b0000000000000000 H"
b0000000000000000 I"
0K"
1L"
0M"
1N"
b0000000000000000 P"
b0000000000000000 Q"
b0000000000000000 R"
0S"
0T"
1U"
b0000000000000000 V"
b0000000000000000 W"
b0000000000000000 X"
0Z"
1["
0\"
1]"
b0000000000000000 _"
b0000000000000000 `"
b0000000000000000 a"
0b"
0c"
1d"
b0000000000000000 e"
b0000000000000000 f"
b0000000000000000 g"
0i"
1j"
0k"
1l"
b0000000000000000 n"
b0000000000000000 o"
b0000000000000000 p"
0q"
0r"
1s"
b0000000000000000 t"
b0000000000000000 u"
b0000000000000000 v"
0x"
1y"
0z"
1{"
b0000000000000000 }"
b0000000000000000 !#
b0000000000000000 "#
0##
0$#
1%#
b0000000000000000 &#
b0000000000000000 '#
b0000000000000000 (#
0*#
1+#
0,#
1-#
#180000000
1"
1D
1N
1a
1p
1""
11"
1@"
1O"
1^"
1m"
1|"
1.#
#200000000
0!
0C
0M
0`
0o
0!"
00"
0?"
0N"
0]"
0l"
0{"
0-#
#300000000
1!
1$
0*
1@
1C
1M
1`
1o
1!"
10"
1?"
1N"
1]"
1l"
1{"
1-#
#400000000
0!
0C
0M
0`
0o
0!"
00"
0?"
0N"
0]"
0l"
0{"
0-#
#500000000
1!
1C
1M
1`
1o
1!"
10"
1?"
1N"
1]"
1l"
1{"
1-#
#600000000
0!
0C
0M
0`
0o
0!"
00"
0?"
0N"
0]"
0l"
0{"
0-#
#700000000
1!
0$
0&
1*
b01111101 +
1,
b01111101 ;
1<
0@
0B
1C
b01111101 I
1J
1M
1`
1o
1!"
10"
1?"
1N"
1]"
1l"
1{"
1-#
#800000000
0!
0C
0M
0`
0o
0!"
00"
0?"
0N"
0]"
0l"
0{"
0-#
#900000000
1!
b00000001 #
1$
0*
b00011001 +
b00011001 ;
b00000001 ?
1@
1C
b00011001 I
1M
b0000000001111101 Y
1`
1o
1!"
10"
1?"
1N"
1]"
1l"
1{"
1-#
#1000000000
0!
0C
0M
0`
0o
0!"
00"
0?"
0N"
0]"
0l"
0{"
0-#
#1100000000
1!
1&
0,
0.
0<
0>
1B
1C
0J
0L
1M
b00000000001 P
b0000000000011001 Z
b0000000000000000 [
1]
1`
1o
1!"
10"
1?"
1N"
1]"
1l"
1{"
1-#
#1200000000
0!
0C
0M
0`
0o
0!"
00"
0?"
0N"
0]"
0l"
0{"
0-#
#1300000000
1!
b00000000 #
1.
1>
b00000000 ?
1C
1L
1M
b00000000010 P
b0000000010010110 S
b1111111110011100 T
b0001000110010100 U
1V
0]
1`
b0000000010010110 h
b1111111110011100 i
b0001000110010100 j
1l
1o
1!"
10"
1?"
1N"
1]"
1l"
1{"
1-#
#1400000000
0!
0C
0M
0`
0o
0!"
00"
0?"
0N"
0]"
0l"
0{"
0-#
#1500000000
1!
0$
0&
1*
b01101010 +
1,
b01101010 ;
1<
0@
0B
1C
b01101010 I
1J
1M
b00000000100 P
0V
1`
b0000000011001000 b
b1111111111100111 c
b0000011100110011 d
1e
0l
1o
b0000000011001000 w
b1111111111100111 x
b0000011100110011 y
1{
1!"
10"
1?"
1N"
1]"
1l"
1{"
1-#
#1600000000
0!
0C
0M
0`
0o
0!"
00"
0?"
0N"
0]"
0l"
0{"
0-#
#1700000000
1!
b00000010 #
1$
0*
b01000111 +
b01000111 ;
b00000010 ?
1@
1C
b01000111 I
1M
b00000001000 P
b0000000001101010 Y
1`
0e
1o
b0000000011001111 q
b0000000000011001 r
b0000000110110111 s
1t
0{
1!"
b0000000011001111 )"
b0000000000011001 *"
b0000000110110111 +"
1-"
10"
1?"
1N"
1]"
1l"
1{"
1-#
#1800000000
0!
0C
0M
0`
0o
0!"
00"
0?"
0N"
0]"
0l"
0{"
0-#
#1900000000
1!
1&
0,
0.
0<
0>
1B
1C
0J
0L
1M
b00000010001 P
b0000000001000111 Z
1]
1`
1o
0t
1!"
b0000000011010010 #"
b0000010010000000 %"
1&"
0-"
10"
b0000000011010010 8"
b0000010010000000 :"
1<"
1?"
1N"
1]"
1l"
1{"
1-#
#2000000000
0!
0C
0M
0`
0o
0!"
00"
0?"
0N"
0]"
0l"
0{"
0-#
#2100000000
1!
b00000000 #
1.
1>
b00000000 ?
1C
1L
1M
b00000100010 P
b0000000010110001 S
b1111111111011101 T
1V
0]
1`
b0000000010110001 h
b1111111111011101 i
1l
1o
1!"
0&"
10"
b0000000011010010 2"
b1111111111110011 3"
b0000010111100110 4"
15"
0<"
1?"
b0000000011010010 G"
b1111111111110011 H"
b0000010111100110 I"
1K"
1N"
1]"
1l"
1{"
1-#
#2200000000
0!
0C
0M
0`
0o
0!"
00"
0?"
0N"
0]"
0l"
0{"
0-#
#2300000000
1!
0$
0&
1*
1,
1<
0@
0B
1C
1J
1M
b00001000100 P
0V
1`
b0000000011000011 b
b0000000000110101 c
1e
0l
1o
b0000000011000011 w
b0000000000110101 x
1{
1!"
10"
05"
1?"
b0000000011010011 A"
b1111111111111001 B"
b0000010100110011 C"
1D"
0K"
1N"
b0000000011010011 V"
b1111111111111001 W"
b0000010100110011 X"
1Z"
1]"
1l"
1{"
1-#
#2400000000
0!
0C
0M
0`
0o
0!"
00"
0?"
0N"
0]"
0l"
0{"
0-#
#2500000000
1!
b00000011 #
1$
0*
b01101010 +
b01101010 ;
b00000011 ?
1@
1C
b01101010 I
1M
b00010001000 P
b0000000001000111 Y
1`
0e
1o
b0000000011010000 q
b0000000000000101 r
b0000110010101111 s
1t
0{
1!"
b0000000011010000 )"
b0000000000000101 *"
b0000110010101111 +"
1-"
10"
1?"
0D"
1N"
b0000000011010100 P"
b1111111111111100 Q"
b0000010011011001 R"
1S"
0Z"
1]"
b0000000011010100 e"
b1111111111111100 f"
b0000010011011001 g"
1i"
1l"
1{"
1-#
#2600000000
0!
0C
0M
0`
0o
0!"
00"
0?"
0N"
0]"
0l"
0{"
0-#
#2700000000
1!
1&
0,
0.
0<
0>
1B
1C
0J
0L
1M
b00100010001 P
b0000000001101010 Z
1]
1`
1o
0t
1!"
b0000000011010000 #"
b1111111111101011 $"
b0000111101111000 %"
1&"
0-"
10"
b0000000011010000 8"
b1111111111101011 9"
b0000111101111000 :"
1<"
1?"
1N"
0S"
1]"
b0000000011010101 _"
b1111111111111101 `"
b0000010010101100 a"
1b"
0i"
1l"
b0000000011010101 t"
b1111111111111101 u"
b0000010010101100 v"
1x"
1{"
1-#
#2800000000
0!
0C
0M
0`
0o
0!"
00"
0?"
0N"
0]"
0l"
0{"
0-#
#2900000000
1!
b00000000 #
1.
1>
b00000000 ?
1C
1L
1M
b01000100010 P
b0000000000100011 T
1V
0]
1`
b0000000000100011 i
1l
1o
1!"
0&"
10"
b1111111111111000 3"
b0000111000010010 4"
15"
0<"
1?"
b1111111111111000 H"
b0000111000010010 I"
1K"
1N"
1]"
0b"
1l"
b0000000011010110 n"
b1111111111111101 o"
b0000010010010110 p"
1q"
0x"
1{"
b0000000011010110 &#
b1111111111111101 '#
b0000010010010110 (#
1*#
1-#
#3000000000
0!
0C
0M
0`
0o
0!"
00"
0?"
0N"
0]"
0l"
0{"
0-#
#3100000000
1!
0$
0&
1*
b00011001 +
1,
b00011001 ;
1<
0@
0B
1C
b00011001 I
1J
1M
b10001000100 P
0V
1`
b0000000011000010 b
b1111111111001011 c
b0001101111110101 d
1e
0l
1o
b0000000011000010 w
b1111111111001011 x
b0001101111110101 y
1{
1!"
10"
05"
1?"
b1111111111111110 B"
b0000110101011111 C"
1D"
0K"
1N"
b1111111111111110 W"
b0000110101011111 X"
1Z"
1]"
1l"
0q"
1{"
b0000000011010111 }"
b1111111111111101 !#
b0000010010001011 "#
1##
0*#
1-#
#3200000000
0!
0C
0M
0`
0o
0!"
00"
0?"
0N"
0]"
0l"
0{"
0-#
#3300000000
1!
1$
0*
b01111101 +
b00001001 7
18
b01111101 ;
1@
1C
b00001001 E
1F
b01111101 I
1M
b0000010010010110 O
b00010001000 P
b01111111111 Q
b0000000000011001 Y
1`
0e
1o
b1111111111111011 r
b0001011001111001 s
1t
0{
1!"
b1111111111111011 *"
b0001011001111001 +"
1-"
10"
1?"
0D"
1N"
b0000000000000001 Q"
b0000110100000101 R"
1S"
0Z"
1]"
b0000000000000001 f"
b0000110100000101 g"
1i"
1l"
1{"
0##
0%#
1-#
#3400000000
0!
0C
0M
0`
0o
0!"
00"
0?"
0N"
0]"
0l"
0{"
0-#
#3500000000
1!
1&
0,
0.
08
0<
0>
1B
1C
0F
0J
0L
1M
b00100010001 P
b11111111111 Q
b0000000001111101 Z
1]
1`
1o
0t
1!"
b0000000011010001 #"
b0000000000010101 $"
b0001001110110000 %"
1&"
0-"
10"
b0000000011010001 8"
b0000000000010101 9"
b0001001110110000 :"
1<"
1?"
1N"
0S"
1]"
b0000000011010100 _"
b0000000000000000 `"
b0000110100110010 a"
1b"
0i"
1l"
b0000000011010100 t"
b0000000000000000 u"
b0000110100110010 v"
1x"
1{"
1%#
1-#
#3600000000
0!
0C
0M
0`
0o
0!"
00"
0?"
0N"
0]"
0l"
0{"
0-#
#3700000000
1!
b00000001 #
1.
1>
b00000001 ?
1C
1L
1M
b01000100010 P
b0000000010010110 S
b0000000001100100 T
1V
0]
1`
b0000000010010110 h
b0000000001100100 i
1l
1o
1!"
0&"
10"
b0000000000001000 3"
b0001010100010110 4"
15"
0<"
1?"
b0000000000001000 H"
b0001010100010110 I"
1K"
1N"
1]"
0b"
1l"
b0000000011010100 n"
b0000000000000000 o"
b0000110101001000 p"
1q"
0x"
1{"
b0000000011010100 &#
b0000000000000000 '#
b0000110101001000 (#
1*#
1-#
#3800000000
0!
0C
0M
0`
0o
0!"
00"
0?"
0N"
0]"
0l"
0{"
0-#
#3900000000
1!
0$
0&
1*
b11100111 +
1,
b11100111 ;
1<
0@
0B
1C
b11100111 I
1J
1M
b10001000100 P
0V
1`
b0000000011001000 b
b0000000000011001 c
1e
0l
1o
b0000000011001000 w
b0000000000011001 x
1{
1!"
10"
05"
1?"
b0000000011010010 A"
b0000000000000010 B"
b0001010111001001 C"
1D"
0K"
1N"
b0000000011010010 V"
b0000000000000010 W"
b0001010111001001 X"
1Z"
1]"
1l"
0q"
1{"
b0000000011010100 }"
b0000000000000000 !#
b0000110101010011 "#
1##
0*#
1-#
#4000000000
0!
0C
0M
0`
0o
0!"
00"
0?"
0N"
0]"
0l"
0{"
0-#
#4100000000
1!
1$
0*
b01111101 +
b00011010 7
18
b01111101 ;
1@
1C
b00011010 E
1F
b01111101 I
1M
b0000110101001000 O
b00010001000 P
b01111111111 Q
b00000000001 R
1_
1`
0e
1o
b0000000011001110 q
b1111111111100111 r
b0010000101110001 s
1t
0{
1!"
b0000000011001110 )"
b1111111111100111 *"
b0010000101110001 +"
1-"
10"
1?"
0D"
1N"
b0000000011010010 P"
b1111111111111111 Q"
b0001011000100011 R"
1S"
0Z"
1]"
b0000000011010010 e"
b1111111111111111 f"
b0001011000100011 g"
1i"
1l"
1{"
0##
0%#
1-#
#4200000000
0!
0C
0M
0`
0o
0!"
00"
0?"
0N"
0]"
0l"
0{"
0-#
#4300000000
1!
1&
0,
0.
08
0<
0>
1B
1C
0F
0J
0L
1M
b00100010001 P
b11111111111 Q
b1011100110110000 [
1]
1`
1o
0t
1!"
b0000000011010010 #"
b0000000000000000 $"
b0001111010101000 %"
1&"
0-"
10"
b0000000011010010 8"
b0000000000000000 9"
b0001111010101000 :"
1<"
1?"
1N"
0S"
1]"
b0000000011010011 _"
b0001010111110110 a"
1b"
0i"
1l"
b0000000011010011 t"
b0001010111110110 v"
1x"
1{"
1%#
1-#
#4400000000
0!
0C
0M
0`
0o
0!"
00"
0?"
0N"
0]"
0l"
0{"
0-#
#4500000000
1!
1.
1>
1C
1L
1M
b01000100010 P
b00000000011 R
b1100101101000100 U
1V
1W
0]
1`
b1100101101000100 j
1l
1n
1o
1!"
0&"
10"
b1111111111110011 3"
b0010000000001110 4"
15"
0<"
1?"
b1111111111110011 H"
b0010000000001110 I"
1K"
1N"
1]"
0b"
1l"
b0000000011010011 n"
b0001011000001100 p"
1q"
0x"
1{"
b0000000011010011 &#
b0001011000001100 (#
1*#
1-#
#4600000000
0!
0C
0M
0`
0o
0!"
00"
0?"
0N"
0]"
0l"
0{"
0-#
#4700000000
1!
0$
0&
1*
b10111001 +
1,
b10111001 ;
1<
0@
0B
1C
b10111001 I
1J
1M
b10001000100 P
b00000000111 R
0V
1`
b1101010110100101 d
1e
1f
0l
1o
b1101010110100101 y
1{
1}
1!"
10"
05"
1?"
b0000000011010011 A"
b1111111111111001 B"
b0001111101011011 C"
1D"
0K"
1N"
b0000000011010011 V"
b1111111111111001 W"
b0001111101011011 X"
1Z"
1]"
1l"
0q"
1{"
b0000000011010011 }"
b0001011000010111 "#
1##
0*#
1-#
#4800000000
0!
0C
0M
0`
0o
0!"
00"
0?"
0N"
0]"
0l"
0{"
0-#
#4900000000
1!
b00000010 #
1$
0*
b01101010 +
b00101100 7
18
b01101010 ;
b00000010 ?
1@
1C
b00101100 E
1F
b01101010 I
1M
b0001011000001100 O
b00010001000 P
b01111111111 Q
b00000001111 R
b0000000001000111 Y
1`
0e
1o
b1101101100100001 s
1t
1u
0{
1!"
b1101101100100001 +"
1-"
1/"
10"
1?"
0D"
1N"
b0000000011010100 P"
b1111111111111100 Q"
b0001111100000001 R"
1S"
0Z"
1]"
b0000000011010100 e"
b1111111111111100 f"
b0001111100000001 g"
1i"
1l"
1{"
0##
0%#
1-#
#5000000000
0!
0C
0M
0`
0o
0!"
00"
0?"
0N"
0]"
0l"
0{"
0-#
#5100000000
1!
1&
0,
0.
08
0<
0>
1B
1C
0F
0J
0L
1M
b00100010001 P
b11111111111 Q
b00000011111 R
b0000000001101010 Z
1]
1`
1o
0t
1!"
b1101100001011000 %"
1&"
1'"
0-"
10"
b1101100001011000 :"
1<"
1>"
1?"
1N"
0S"
1]"
b0000000011010101 _"
b1111111111111101 `"
b0001111011010100 a"
1b"
0i"
1l"
b0000000011010101 t"
b1111111111111101 u"
b0001111011010100 v"
1x"
1{"
1%#
1-#
#5200000000
0!
0C
0M
0`
0o
0!"
00"
0?"
0N"
0]"
0l"
0{"
0-#
#5300000000
1!
b00000001 #
1.
1>
b00000001 ?
1C
1L
1M
b01000100010 P
b00000111111 R
b0000000010110001 S
b0000000000100011 T
1V
0]
1`
b0000000010110001 h
b0000000000100011 i
1l
1o
1!"
0&"
10"
b1101100110111110 4"
15"
16"
0<"
1?"
b1101100110111110 I"
1K"
1M"
1N"
1]"
0b"
1l"
b0000000011010110 n"
b1111111111111101 o"
b0001111010111110 p"
1q"
0x"
1{"
b0000000011010110 &#
b1111111111111101 '#
b0001111010111110 (#
1*#
1-#
#5400000000
0!
0C
0M
0`
0o
0!"
00"
0?"
0N"
0]"
0l"
0{"
0-#
#5500000000
1!
0$
0&
1*
b10010110 +
1,
b10010110 ;
1<
0@
0B
1C
b10010110 I
1J
1M
b10001000100 P
b00001111111 R
0V
1`
b0000000011000010 b
b1111111111001011 c
1e
0l
1o
b0000000011000010 w
b1111111111001011 x
1{
1!"
10"
05"
1?"
b1101100100001011 C"
1D"
1E"
0K"
1N"
b1101100100001011 X"
1Z"
1\"
1]"
1l"
0q"
1{"
b0000000011010111 }"
b1111111111111101 !#
b0001111010110011 "#
1##
0*#
1-#
#5600000000
0!
0C
0M
0`
0o
0!"
00"
0?"
0N"
0]"
0l"
0{"
0-#
#5700000000
1!
b00000011 #
1$
0*
b01000111 +
b00111101 7
18
b01000111 ;
b00000011 ?
1@
1C
b00111101 E
1F
b01000111 I
1M
b0001111010111110 O
b00010001000 P
b01111111111 Q
b00011111111 R
b0000000001101010 Y
1`
0e
1o
b0000000011010000 q
b1111111111111011 r
b1101000000101001 s
1t
0{
1!"
b0000000011010000 )"
b1111111111111011 *"
b1101000000101001 +"
1-"
10"
1?"
0D"
1N"
b1101100010110001 R"
1S"
1T"
0Z"
1]"
b1101100010110001 g"
1i"
1k"
1l"
1{"
0##
0%#
1-#
#5800000000
0!
0C
0M
0`
0o
0!"
00"
0?"
0N"
0]"
0l"
0{"
0-#
