sim/out.vcd
$date
  Tue Dec 10 21:05:05 2019
$end
$version
  GHDL v0
$end
$timescale
  1 fs
$end
$var reg 1 ! spi_mosi_tb $end
$var reg 1 " spi_miso_tb $end
$var reg 1 # cs_tb $end
$var reg 8 $ outdata_tb[7:0] $end
$var reg 8 % indata_tb[7:0] $end
$var reg 4 & ledsdata_tb[3:0] $end
$var reg 1 ' clk_tb $end
$var reg 1 ( rst_tb $end
$scope module spi_inst $end
$var reg 1 ) spi_mosi $end
$var reg 1 * spi_miso $end
$var reg 1 + cs $end
$var reg 8 , outdata[7:0] $end
$var reg 8 - indata[7:0] $end
$var reg 4 . ledsdata[3:0] $end
$var reg 1 / clk $end
$var reg 8 0 mosisignal[7:0] $end
$var reg 8 1 misosignal[7:0] $end
$upscope $end
$enddefinitions $end
#0
U!
U"
1#
bUUUUUUUU $
b00000000 %
bUUUU &
1'
0(
U)
U*
1+
bUUUUUUUU ,
b00000000 -
bUUUU .
1/
b00000000 0
b00000000 1
#1000000
0#
0+
#20000000
0!
0'
0)
0/
#40000000
0"
1'
0*
1/
#60000000
0'
0/
#80000000
1'
1/
#100000000
0'
0/
#120000000
1'
1/
#140000000
0'
0/
#160000000
1'
1/
#180000000
0'
0/
#200000000
1'
1/
#220000000
0'
0/
#240000000
1'
1/
#260000000
0'
0/
#280000000
1'
1/
#300000000
b00000001 %
0'
b00000001 -
0/
#320000000
b00000000 $
b0000 &
1'
b00000000 ,
b0000 .
1/
b00000001 1
#340000000
b00000010 %
0'
b00000010 -
0/
#360000000
1'
1/
b00000010 1
#380000000
b00000100 %
0'
b00000100 -
0/
#400000000
1'
1/
b00000100 1
#420000000
b00001000 %
0'
b00001000 -
0/
#440000000
1'
1/
b00001000 1
#460000000
b00010000 %
0'
b00010000 -
0/
#480000000
1'
1/
b00010000 1
#500000000
b00100000 %
0'
b00100000 -
0/
#520000000
1'
1/
b00100000 1
#540000000
b01000000 %
0'
b01000000 -
0/
#560000000
1'
1/
b01000000 1
#580000000
b10000000 %
0'
b10000000 -
0/
#600000000
1'
1/
b10000000 1
#620000000
1!
b00000010 %
0'
1)
b00000010 -
0/
#640000000
1"
b00000001 $
b0001 &
1'
1*
b00000001 ,
b0001 .
1/
b00000001 0
b00000010 1
#660000000
0!
b00000100 %
0'
0)
b00000100 -
0/
#680000000
0"
1'
0*
1/
b00000010 0
b00000100 1
#700000000
b00001000 %
0'
b00001000 -
0/
#720000000
1'
1/
b00000100 0
b00001000 1
#740000000
b00010000 %
0'
b00010000 -
0/
#760000000
1'
1/
b00001000 0
b00010000 1
#780000000
b00100000 %
0'
b00100000 -
0/
#800000000
1'
1/
b00010000 0
b00100000 1
#820000000
b01000000 %
0'
b01000000 -
0/
#840000000
1'
1/
b00100000 0
b01000000 1
#860000000
b10000000 %
0'
b10000000 -
0/
#880000000
1'
1/
b01000000 0
b10000000 1
#900000000
1!
b00000000 %
0'
1)
b00000000 -
0/
#920000000
1"
1'
1*
1/
b10000001 0
b00000000 1
#940000000
0!
b00000011 %
0'
0)
b00000011 -
0/
#960000000
0"
b00000010 $
b0010 &
1'
0*
b00000010 ,
b0010 .
1/
b00000010 0
b00000011 1
#980000000
b00000110 %
0'
b00000110 -
0/
#1000000000
1'
1/
b00000100 0
b00000110 1
#1020000000
b00001100 %
0'
b00001100 -
0/
#1040000000
1'
1/
b00001000 0
b00001100 1
#1060000000
b00011000 %
0'
b00011000 -
0/
#1080000000
1'
1/
b00010000 0
b00011000 1
#1100000000
b00110000 %
0'
b00110000 -
0/
#1120000000
1'
1/
b00100000 0
b00110000 1
#1140000000
b01100000 %
0'
b01100000 -
0/
#1160000000
1'
1/
b01000000 0
b01100000 1
#1180000000
b11000000 %
0'
b11000000 -
0/
#1200000000
1'
1/
b10000000 0
b11000000 1
#1220000000
1!
b10000000 %
0'
1)
b10000000 -
0/
#1240000000
1"
1'
1*
1/
b00000001 0
b10000000 1
#1260000000
b00000100 %
0'
b00000100 -
0/
#1280000000
b00000011 $
b0011 &
1'
b00000011 ,
b0011 .
1/
b00000011 0
b00000100 1
#1300000000
0!
b00001000 %
0'
0)
b00001000 -
0/
#1320000000
0"
1'
0*
1/
b00000110 0
b00001000 1
#1340000000
b00010000 %
0'
b00010000 -
0/
#1360000000
1'
1/
b00001100 0
b00010000 1
#1380000000
b00100000 %
0'
b00100000 -
0/
#1400000000
1'
1/
b00011000 0
b00100000 1
#1420000000
b01000000 %
0'
b01000000 -
0/
#1440000000
1'
1/
b00110000 0
b01000000 1
#1460000000
b10000000 %
0'
b10000000 -
0/
#1480000000
1'
1/
b01100000 0
b10000000 1
#1500000000
1!
b00000000 %
0'
1)
b00000000 -
0/
#1520000000
1"
1'
1*
1/
b11000001 0
b00000000 1
#1540000000
0!
0'
0)
0/
#1560000000
0"
1'
0*
1/
b10000010 0
#1580000000
b00000101 %
0'
b00000101 -
0/
#1600000000
b00000100 $
b0100 &
1'
b00000100 ,
b0100 .
1/
b00000100 0
b00000101 1
#1620000000
b00001010 %
0'
b00001010 -
0/
#1640000000
1'
1/
b00001000 0
b00001010 1
#1660000000
b00010100 %
0'
b00010100 -
0/
#1680000000
1'
1/
b00010000 0
b00010100 1
#1700000000
b00101000 %
0'
b00101000 -
0/
#1720000000
1'
1/
b00100000 0
b00101000 1
#1740000000
b01010000 %
0'
b01010000 -
0/
#1760000000
1'
1/
b01000000 0
b01010000 1
#1780000000
b10100000 %
0'
b10100000 -
0/
#1800000000
1'
1/
b10000000 0
b10100000 1
#1820000000
1!
b01000000 %
0'
1)
b01000000 -
0/
#1840000000
1"
1'
1*
1/
b00000001 0
b01000000 1
#1860000000
0!
b10000000 %
0'
0)
b10000000 -
0/
#1880000000
0"
1'
0*
1/
b00000010 0
b10000000 1
#1900000000
1!
b00000110 %
0'
1)
b00000110 -
0/
#1920000000
1"
b00000101 $
b0101 &
1'
1*
b00000101 ,
b0101 .
1/
b00000101 0
b00000110 1
#1940000000
0!
b00001100 %
0'
0)
b00001100 -
0/
#1960000000
0"
1'
0*
1/
b00001010 0
b00001100 1
#1980000000
b00011000 %
0'
b00011000 -
0/
#2000000000
1'
1/
b00010100 0
b00011000 1
#2020000000
b00110000 %
0'
b00110000 -
0/
#2040000000
1'
1/
b00101000 0
b00110000 1
#2060000000
b01100000 %
0'
b01100000 -
0/
#2080000000
1'
1/
b01010000 0
b01100000 1
#2100000000
b11000000 %
0'
b11000000 -
0/
#2120000000
1'
1/
b10100000 0
b11000000 1
#2140000000
1!
b10000000 %
0'
1)
b10000000 -
0/
#2160000000
1"
1'
1*
1/
b01000001 0
b10000000 1
#2180000000
b00000000 %
0'
b00000000 -
0/
#2200000000
1'
1/
b10000011 0
b00000000 1
#2220000000
0!
b00000111 %
0'
0)
b00000111 -
0/
#2240000000
0"
b00000110 $
b0110 &
1'
0*
b00000110 ,
b0110 .
1/
b00000110 0
b00000111 1
#2260000000
b00001110 %
0'
b00001110 -
0/
#2280000000
1'
1/
b00001100 0
b00001110 1
#2300000000
b00011100 %
0'
b00011100 -
0/
#2320000000
1'
1/
b00011000 0
b00011100 1
#2340000000
b00111000 %
0'
b00111000 -
0/
#2360000000
1'
1/
b00110000 0
b00111000 1
#2380000000
b01110000 %
0'
b01110000 -
0/
#2400000000
1'
1/
b01100000 0
b01110000 1
#2420000000
b11100000 %
0'
b11100000 -
0/
#2440000000
1'
1/
b11000000 0
b11100000 1
#2460000000
1!
b11000000 %
0'
1)
b11000000 -
0/
#2480000000
1"
1'
1*
1/
b10000001 0
b11000000 1
#2500000000
b10000000 %
0'
b10000000 -
0/
#2520000000
1'
1/
b00000011 0
b10000000 1
#2540000000
b00001000 %
0'
b00001000 -
0/
#2560000000
b00000111 $
b0111 &
1'
b00000111 ,
b0111 .
1/
b00000111 0
b00001000 1
#2580000000
0!
b00010000 %
0'
0)
b00010000 -
0/
#2600000000
0"
1'
0*
1/
b00001110 0
b00010000 1
#2620000000
b00100000 %
0'
b00100000 -
0/
#2640000000
1'
1/
b00011100 0
b00100000 1
#2660000000
b01000000 %
0'
b01000000 -
0/
#2680000000
1'
1/
b00111000 0
b01000000 1
#2700000000
b10000000 %
0'
b10000000 -
0/
#2720000000
1'
1/
b01110000 0
b10000000 1
#2740000000
1!
b00000000 %
0'
1)
b00000000 -
0/
#2760000000
1"
1'
1*
1/
b11100001 0
b00000000 1
#2780000000
0!
0'
0)
0/
#2800000000
0"
1'
0*
1/
b11000010 0
#2820000000
0'
0/
#2840000000
1'
1/
b10000100 0
#2860000000
b00001001 %
0'
b00001001 -
0/
#2880000000
b00001000 $
b1000 &
1'
b00001000 ,
b1000 .
1/
b00001000 0
b00001001 1
#2900000000
b00010010 %
0'
b00010010 -
0/
#2920000000
1'
1/
b00010000 0
b00010010 1
#2940000000
b00100100 %
0'
b00100100 -
0/
#2960000000
1'
1/
b00100000 0
b00100100 1
#2980000000
b01001000 %
0'
b01001000 -
0/
#3000000000
1'
1/
b01000000 0
b01001000 1
#3020000000
b10010000 %
0'
b10010000 -
0/
#3040000000
1'
1/
b10000000 0
b10010000 1
#3060000000
1!
b00100000 %
0'
1)
b00100000 -
0/
#3080000000
1"
1'
1*
1/
b00000001 0
b00100000 1
#3100000000
0!
b01000000 %
0'
0)
b01000000 -
0/
#3120000000
0"
1'
0*
1/
b00000010 0
b01000000 1
#3140000000
b10000000 %
0'
b10000000 -
0/
#3160000000
1'
1/
b00000100 0
b10000000 1
#3180000000
1!
b00001010 %
0'
1)
b00001010 -
0/
#3200000000
1"
b00001001 $
b1001 &
1'
1*
b00001001 ,
b1001 .
1/
b00001001 0
b00001010 1
#3220000000
0!
b00010100 %
0'
0)
b00010100 -
0/
#3240000000
0"
1'
0*
1/
b00010010 0
b00010100 1
#3260000000
b00101000 %
0'
b00101000 -
0/
#3280000000
1'
1/
b00100100 0
b00101000 1
#3300000000
b01010000 %
0'
b01010000 -
0/
#3320000000
1'
1/
b01001000 0
b01010000 1
#3340000000
b10100000 %
0'
b10100000 -
0/
#3360000000
1'
1/
b10010000 0
b10100000 1
#3380000000
1!
b01000000 %
0'
1)
b01000000 -
0/
#3400000000
1"
1'
1*
1/
b00100001 0
b01000000 1
#3420000000
0!
b10000000 %
0'
0)
b10000000 -
0/
#3440000000
0"
1'
0*
1/
b01000010 0
b10000000 1
#3460000000
1!
b00000000 %
0'
1)
b00000000 -
0/
#3480000000
1"
1'
1*
1/
b10000101 0
b00000000 1
#3500000000
0!
b00001011 %
0'
0)
b00001011 -
0/
#3520000000
0"
b00001010 $
b1010 &
1'
0*
b00001010 ,
b1010 .
1/
b00001010 0
b00001011 1
#3540000000
b00010110 %
0'
b00010110 -
0/
#3560000000
1'
1/
b00010100 0
b00010110 1
#3580000000
b00101100 %
0'
b00101100 -
0/
#3600000000
1'
1/
b00101000 0
b00101100 1
#3620000000
b01011000 %
0'
b01011000 -
0/
#3640000000
1'
1/
b01010000 0
b01011000 1
#3660000000
b10110000 %
0'
b10110000 -
0/
#3680000000
1'
1/
b10100000 0
b10110000 1
#3700000000
1!
b01100000 %
0'
1)
b01100000 -
0/
#3720000000
1"
1'
1*
1/
b01000001 0
b01100000 1
#3740000000
0!
b11000000 %
0'
0)
b11000000 -
0/
#3760000000
0"
1'
0*
1/
b10000010 0
b11000000 1
#3780000000
1!
b10000000 %
0'
1)
b10000000 -
0/
#3800000000
1"
1'
1*
1/
b00000101 0
b10000000 1
#3820000000
b00001100 %
0'
b00001100 -
0/
#3840000000
b00001011 $
b1011 &
1'
b00001011 ,
b1011 .
1/
b00001011 0
b00001100 1
#3860000000
0!
b00011000 %
0'
0)
b00011000 -
0/
#3880000000
0"
1'
0*
1/
b00010110 0
b00011000 1
#3900000000
b00110000 %
0'
b00110000 -
0/
#3920000000
1'
1/
b00101100 0
b00110000 1
#3940000000
b01100000 %
0'
b01100000 -
0/
#3960000000
1'
1/
b01011000 0
b01100000 1
#3980000000
b11000000 %
0'
b11000000 -
0/
#4000000000
1'
1/
b10110000 0
b11000000 1
#4020000000
1!
b10000000 %
0'
1)
b10000000 -
0/
#4040000000
1"
1'
1*
1/
b01100001 0
b10000000 1
#4060000000
b00000000 %
0'
b00000000 -
0/
#4080000000
1'
1/
b11000011 0
b00000000 1
#4100000000
0!
0'
0)
0/
#4120000000
0"
1'
0*
1/
b10000110 0
#4140000000
b00001101 %
0'
b00001101 -
0/
#4160000000
b00001100 $
b1100 &
1'
b00001100 ,
b1100 .
1/
b00001100 0
b00001101 1
#4180000000
b00011010 %
0'
b00011010 -
0/
#4200000000
1'
1/
b00011000 0
b00011010 1
#4220000000
b00110100 %
0'
b00110100 -
0/
#4240000000
1'
1/
b00110000 0
b00110100 1
#4260000000
b01101000 %
0'
b01101000 -
0/
#4280000000
1'
1/
b01100000 0
b01101000 1
#4300000000
b11010000 %
0'
b11010000 -
0/
#4320000000
1'
1/
b11000000 0
b11010000 1
#4340000000
1!
b10100000 %
0'
1)
b10100000 -
0/
#4360000000
1"
1'
1*
1/
b10000001 0
b10100000 1
#4380000000
b01000000 %
0'
b01000000 -
0/
#4400000000
1'
1/
b00000011 0
b01000000 1
#4420000000
0!
b10000000 %
0'
0)
b10000000 -
0/
#4440000000
0"
1'
0*
1/
b00000110 0
b10000000 1
#4460000000
1!
b00001110 %
0'
1)
b00001110 -
0/
#4480000000
1"
b00001101 $
b1101 &
1'
1*
b00001101 ,
b1101 .
1/
b00001101 0
b00001110 1
#4500000000
0!
b00011100 %
0'
0)
b00011100 -
0/
#4520000000
0"
1'
0*
1/
b00011010 0
b00011100 1
#4540000000
b00111000 %
0'
b00111000 -
0/
#4560000000
1'
1/
b00110100 0
b00111000 1
#4580000000
b01110000 %
0'
b01110000 -
0/
#4600000000
1'
1/
b01101000 0
b01110000 1
#4620000000
b11100000 %
0'
b11100000 -
0/
#4640000000
1'
1/
b11010000 0
b11100000 1
#4660000000
1!
b11000000 %
0'
1)
b11000000 -
0/
#4680000000
1"
1'
1*
1/
b10100001 0
b11000000 1
#4700000000
b10000000 %
0'
b10000000 -
0/
#4720000000
1'
1/
b01000011 0
b10000000 1
#4740000000
b00000000 %
0'
b00000000 -
0/
#4760000000
1'
1/
b10000111 0
b00000000 1
#4780000000
0!
b00001111 %
0'
0)
b00001111 -
0/
#4800000000
0"
b00001110 $
b1110 &
1'
0*
b00001110 ,
b1110 .
1/
b00001110 0
b00001111 1
#4820000000
b00011110 %
0'
b00011110 -
0/
#4840000000
1'
1/
b00011100 0
b00011110 1
#4860000000
b00111100 %
0'
b00111100 -
0/
#4880000000
1'
1/
b00111000 0
b00111100 1
#4900000000
b01111000 %
0'
b01111000 -
0/
#4920000000
1'
1/
b01110000 0
b01111000 1
#4940000000
b11110000 %
0'
b11110000 -
0/
#4960000000
1'
1/
b11100000 0
b11110000 1
#4980000000
1!
b11100000 %
0'
1)
b11100000 -
0/
#5000000000
1"
1'
1*
1/
b11000001 0
b11100000 1
#5020000000
b11000000 %
0'
b11000000 -
0/
#5040000000
1'
1/
b10000011 0
b11000000 1
#5060000000
b10000000 %
0'
b10000000 -
0/
#5080000000
1'
1/
b00000111 0
b10000000 1
#5100000000
b00010000 %
0'
b00010000 -
0/
#5120000000
b00001111 $
b1111 &
1'
b00001111 ,
b1111 .
1/
b00001111 0
b00010000 1
#5140000000
0!
b00100000 %
0'
0)
b00100000 -
0/
#5160000000
0"
1'
0*
1/
b00011110 0
b00100000 1
#5180000000
b01000000 %
0'
b01000000 -
0/
#5200000000
1'
1/
b00111100 0
b01000000 1
#5220000000
b10000000 %
0'
b10000000 -
0/
#5240000000
1'
1/
b01111000 0
b10000000 1
#5260000000
1!
b00000000 %
0'
1)
b00000000 -
0/
#5280000000
1"
1'
1*
1/
b11110001 0
b00000000 1
#5300000000
0!
0'
0)
0/
#5320000000
0"
1'
0*
1/
b11100010 0
#5340000000
0'
0/
#5360000000
1'
1/
b11000100 0
#5380000000
0'
0/
#5400000000
1'
1/
b10001000 0
#5420000000
b00010001 %
0'
b00010001 -
0/
#5440000000
b00010000 $
b0000 &
1'
b00010000 ,
b0000 .
1/
b00010000 0
b00010001 1
#5460000000
b00100010 %
0'
b00100010 -
0/
#5480000000
1'
1/
b00100000 0
b00100010 1
#5500000000
b01000100 %
0'
b01000100 -
0/
#5520000000
1'
1/
b01000000 0
b01000100 1
#5540000000
b10001000 %
0'
b10001000 -
0/
#5560000000
1'
1/
b10000000 0
b10001000 1
#5580000000
1!
b00010000 %
0'
1)
b00010000 -
0/
#5600000000
1"
1'
1*
1/
b00000001 0
b00010000 1
#5620000000
0!
b00100000 %
0'
0)
b00100000 -
0/
#5640000000
0"
1'
0*
1/
b00000010 0
b00100000 1
#5660000000
b01000000 %
0'
b01000000 -
0/
#5680000000
1'
1/
b00000100 0
b01000000 1
#5700000000
b10000000 %
0'
b10000000 -
0/
#5720000000
1'
1/
b00001000 0
b10000000 1
#5740000000
1!
b00010010 %
0'
1)
b00010010 -
0/
#5760000000
1"
b00010001 $
b0001 &
1'
1*
b00010001 ,
b0001 .
1/
b00010001 0
b00010010 1
#5780000000
0!
b00100100 %
0'
0)
b00100100 -
0/
#5800000000
0"
1'
0*
1/
b00100010 0
b00100100 1
#5820000000
b01001000 %
0'
b01001000 -
0/
#5840000000
1'
1/
b01000100 0
b01001000 1
#5860000000
b10010000 %
0'
b10010000 -
0/
#5880000000
1'
1/
b10001000 0
b10010000 1
#5900000000
1!
b00100000 %
0'
1)
b00100000 -
0/
#5920000000
1"
1'
1*
1/
b00010001 0
b00100000 1
#5940000000
0!
b01000000 %
0'
0)
b01000000 -
0/
#5960000000
0"
1'
0*
1/
b00100010 0
b01000000 1
#5980000000
b10000000 %
0'
b10000000 -
0/
#6000000000
1'
1/
b01000100 0
b10000000 1
#6020000000
1!
b00000000 %
0'
1)
b00000000 -
0/
#6040000000
1"
1'
1*
1/
b10001001 0
b00000000 1
#6060000000
0!
b00010011 %
0'
0)
b00010011 -
0/
#6080000000
0"
b00010010 $
b0010 &
1'
0*
b00010010 ,
b0010 .
1/
b00010010 0
b00010011 1
#6100000000
b00100110 %
0'
b00100110 -
0/
#6120000000
1'
1/
b00100100 0
b00100110 1
#6140000000
b01001100 %
0'
b01001100 -
0/
#6160000000
1'
1/
b01001000 0
b01001100 1
#6180000000
b10011000 %
0'
b10011000 -
0/
#6200000000
1'
1/
b10010000 0
b10011000 1
#6220000000
1!
b00110000 %
0'
1)
b00110000 -
0/
#6240000000
1"
1'
1*
1/
b00100001 0
b00110000 1
#6260000000
0!
b01100000 %
0'
0)
b01100000 -
0/
#6280000000
0"
1'
0*
1/
b01000010 0
b01100000 1
#6300000000
b11000000 %
0'
b11000000 -
0/
#6320000000
1'
1/
b10000100 0
b11000000 1
#6340000000
1!
b10000000 %
0'
1)
b10000000 -
0/
#6360000000
1"
1'
1*
1/
b00001001 0
b10000000 1
#6380000000
b00010100 %
0'
b00010100 -
0/
#6400000000
b00010011 $
b0011 &
1'
b00010011 ,
b0011 .
1/
b00010011 0
b00010100 1
#6420000000
0!
b00101000 %
0'
0)
b00101000 -
0/
#6440000000
0"
1'
0*
1/
b00100110 0
b00101000 1
#6460000000
b01010000 %
0'
b01010000 -
0/
#6480000000
1'
1/
b01001100 0
b01010000 1
#6500000000
b10100000 %
0'
b10100000 -
0/
#6520000000
1'
1/
b10011000 0
b10100000 1
#6540000000
1!
b01000000 %
0'
1)
b01000000 -
0/
#6560000000
1"
1'
1*
1/
b00110001 0
b01000000 1
#6580000000
0!
b10000000 %
0'
0)
b10000000 -
0/
#6600000000
0"
1'
0*
1/
b01100010 0
b10000000 1
#6620000000
1!
b00000000 %
0'
1)
b00000000 -
0/
#6640000000
1"
1'
1*
1/
b11000101 0
b00000000 1
#6660000000
0!
0'
0)
0/
#6680000000
0"
1'
0*
1/
b10001010 0
#6700000000
b00010101 %
0'
b00010101 -
0/
#6720000000
b00010100 $
b0100 &
1'
b00010100 ,
b0100 .
1/
b00010100 0
b00010101 1
#6740000000
b00101010 %
0'
b00101010 -
0/
#6760000000
1'
1/
b00101000 0
b00101010 1
#6780000000
b01010100 %
0'
b01010100 -
0/
#6800000000
1'
1/
b01010000 0
b01010100 1
#6820000000
b10101000 %
0'
b10101000 -
0/
#6840000000
1'
1/
b10100000 0
b10101000 1
#6860000000
1!
b01010000 %
0'
1)
b01010000 -
0/
#6880000000
1"
1'
1*
1/
b01000001 0
b01010000 1
#6900000000
0!
b10100000 %
0'
0)
b10100000 -
0/
#6920000000
0"
1'
0*
1/
b10000010 0
b10100000 1
#6940000000
1!
b01000000 %
0'
1)
b01000000 -
0/
#6960000000
1"
1'
1*
1/
b00000101 0
b01000000 1
#6980000000
0!
b10000000 %
0'
0)
b10000000 -
0/
#7000000000
0"
1'
0*
1/
b00001010 0
b10000000 1
#7020000000
1!
b00010110 %
0'
1)
b00010110 -
0/
#7040000000
1"
b00010101 $
b0101 &
1'
1*
b00010101 ,
b0101 .
1/
b00010101 0
b00010110 1
#7060000000
0!
b00101100 %
0'
0)
b00101100 -
0/
#7080000000
0"
1'
0*
1/
b00101010 0
b00101100 1
#7100000000
b01011000 %
0'
b01011000 -
0/
#7120000000
1'
1/
b01010100 0
b01011000 1
#7140000000
b10110000 %
0'
b10110000 -
0/
#7160000000
1'
1/
b10101000 0
b10110000 1
#7180000000
1!
b01100000 %
0'
1)
b01100000 -
0/
#7200000000
1"
1'
1*
1/
b01010001 0
b01100000 1
#7220000000
0!
b11000000 %
0'
0)
b11000000 -
0/
#7240000000
0"
1'
0*
1/
b10100010 0
b11000000 1
#7260000000
1!
b10000000 %
0'
1)
b10000000 -
0/
#7280000000
1"
1'
1*
1/
b01000101 0
b10000000 1
#7300000000
b00000000 %
0'
b00000000 -
0/
#7320000000
1'
1/
b10001011 0
b00000000 1
#7340000000
0!
b00010111 %
0'
0)
b00010111 -
0/
#7360000000
0"
b00010110 $
b0110 &
1'
0*
b00010110 ,
b0110 .
1/
b00010110 0
b00010111 1
#7380000000
b00101110 %
0'
b00101110 -
0/
#7400000000
1'
1/
b00101100 0
b00101110 1
#7420000000
b01011100 %
0'
b01011100 -
0/
#7440000000
1'
1/
b01011000 0
b01011100 1
#7460000000
b10111000 %
0'
b10111000 -
0/
#7480000000
1'
1/
b10110000 0
b10111000 1
#7500000000
1!
b01110000 %
0'
1)
b01110000 -
0/
#7520000000
1"
1'
1*
1/
b01100001 0
b01110000 1
#7540000000
0!
b11100000 %
0'
0)
b11100000 -
0/
#7560000000
0"
1'
0*
1/
b11000010 0
b11100000 1
#7580000000
1!
b11000000 %
0'
1)
b11000000 -
0/
#7600000000
1"
1'
1*
1/
b10000101 0
b11000000 1
#7620000000
b10000000 %
0'
b10000000 -
0/
#7640000000
1'
1/
b00001011 0
b10000000 1
#7660000000
b00011000 %
0'
b00011000 -
0/
#7680000000
b00010111 $
b0111 &
1'
b00010111 ,
b0111 .
1/
b00010111 0
b00011000 1
#7700000000
0!
b00110000 %
0'
0)
b00110000 -
0/
#7720000000
0"
1'
0*
1/
b00101110 0
b00110000 1
#7740000000
b01100000 %
0'
b01100000 -
0/
#7760000000
1'
1/
b01011100 0
b01100000 1
#7780000000
b11000000 %
0'
b11000000 -
0/
#7800000000
1'
1/
b10111000 0
b11000000 1
#7820000000
1!
b10000000 %
0'
1)
b10000000 -
0/
#7840000000
1"
1'
1*
1/
b01110001 0
b10000000 1
#7860000000
b00000000 %
0'
b00000000 -
0/
#7880000000
1'
1/
b11100011 0
b00000000 1
#7900000000
0!
0'
0)
0/
#7920000000
0"
1'
0*
1/
b11000110 0
#7940000000
0'
0/
#7960000000
1'
1/
b10001100 0
#7980000000
b00011001 %
0'
b00011001 -
0/
#8000000000
b00011000 $
b1000 &
1'
b00011000 ,
b1000 .
1/
b00011000 0
b00011001 1
#8020000000
b00110010 %
0'
b00110010 -
0/
#8040000000
1'
1/
b00110000 0
b00110010 1
#8060000000
b01100100 %
0'
b01100100 -
0/
#8080000000
1'
1/
b01100000 0
b01100100 1
#8100000000
b11001000 %
0'
b11001000 -
0/
#8120000000
1'
1/
b11000000 0
b11001000 1
#8140000000
1!
b10010000 %
0'
1)
b10010000 -
0/
#8160000000
1"
1'
1*
1/
b10000001 0
b10010000 1
#8180000000
b00100000 %
0'
b00100000 -
0/
#8200000000
1'
1/
b00000011 0
b00100000 1
#8220000000
0!
b01000000 %
0'
0)
b01000000 -
0/
#8240000000
0"
1'
0*
1/
b00000110 0
b01000000 1
#8260000000
b10000000 %
0'
b10000000 -
0/
#8280000000
1'
1/
b00001100 0
b10000000 1
#8300000000
1!
b00011010 %
0'
1)
b00011010 -
0/
#8320000000
1"
b00011001 $
b1001 &
1'
1*
b00011001 ,
b1001 .
1/
b00011001 0
b00011010 1
#8340000000
0!
b00110100 %
0'
0)
b00110100 -
0/
#8360000000
0"
1'
0*
1/
b00110010 0
b00110100 1
#8380000000
b01101000 %
0'
b01101000 -
0/
#8400000000
1'
1/
b01100100 0
b01101000 1
