sim/out.vcd
$date
  Wed Jan  8 19:28:52 2020
$end
$version
  GHDL v0
$end
$timescale
  1 fs
$end
$comment state is not handled $end
$var reg 1 ! clk_tb $end
$var reg 1 " rst_tb $end
$var reg 8 # m1_axis_tdata[7:0] $end
$var reg 1 $ m1_axis_tvalid $end
$var reg 1 % m1_axis_tlast $end
$var reg 1 & m1_axis_tready $end
$var reg 8 ' s1_axis_tdata[7:0] $end
$var reg 1 ( s1_axis_tvalid $end
$var reg 1 ) s1_axis_tlast $end
$var reg 1 * s1_axis_tready $end
$var reg 8 + axis2_tdata[7:0] $end
$var reg 1 , axis2_tvalid $end
$var reg 1 - axis2_tlast $end
$var reg 1 . axis2_tready $end
$var reg 8 / axis3_tdata[7:0] $end
$var reg 1 0 axis3_tvalid $end
$var reg 1 1 axis3_tlast $end
$var reg 1 2 axis3_tready $end
$var reg 8 3 axis4_tdata[7:0] $end
$var reg 1 4 axis4_tvalid $end
$var reg 1 5 axis4_tlast $end
$var reg 1 6 axis4_tready $end
$var reg 8 7 axiso_tdata[7:0] $end
$var reg 1 8 axiso_tvalid $end
$var reg 1 9 axiso_tlast $end
$var reg 1 : axiso_tready $end
$scope module mapper_inst $end
$var reg 8 ; m_axis_tdata[7:0] $end
$var reg 1 < m_axis_tvalid $end
$var reg 1 = m_axis_tlast $end
$var reg 1 > m_axis_tready $end
$var reg 8 ? s_axis_tdata[7:0] $end
$var reg 1 @ s_axis_tvalid $end
$var reg 1 A s_axis_tlast $end
$var reg 1 B s_axis_tready $end
$var reg 1 C clk $end
$var reg 1 D rst $end
$comment state is not handled $end
$upscope $end
$scope module cordic_inst $end
$var reg 8 E m_axis_tdata[7:0] $end
$var reg 1 F m_axis_tvalid $end
$var reg 1 G m_axis_tlast $end
$var reg 1 H m_axis_tready $end
$var reg 8 I s_axis_tdata[7:0] $end
$var reg 1 J s_axis_tvalid $end
$var reg 1 K s_axis_tlast $end
$var reg 1 L s_axis_tready $end
$var reg 1 M clk $end
$var reg 1 N rst $end
$comment state is not handled $end
$comment xydata is not handled $end
$var reg 1 O clockwise $end
$var reg 16 P angle[15:0] $end
$var reg 11 Q en[10:0] $end
$var reg 11 R dv[10:0] $end
$var reg 11 S inv[10:0] $end
$comment wirex is not handled $end
$comment wirey is not handled $end
$comment wirez is not handled $end
$comment wirelut is not handled $end
$comment atanlut is not handled $end
$scope module connection_instance(0) $end
$scope module iteration $end
$var reg 1 T clk $end
$var reg 1 U rst $end
$var reg 1 V en_i $end
$var reg 1 W inv_i $end
$var reg 16 X xi[15:0] $end
$var reg 16 Y yi[15:0] $end
$var reg 16 Z zi[15:0] $end
$var reg 16 [ ci[15:0] $end
$var reg 1 \ dv_o $end
$var reg 1 ] inv_o $end
$var reg 16 ^ xip1[15:0] $end
$var reg 16 _ yip1[15:0] $end
$var reg 16 ` zip1[15:0] $end
$comment state is not handled $end
$upscope $end
$upscope $end
$scope module connection_instance(1) $end
$scope module iteration $end
$var reg 1 a clk $end
$var reg 1 b rst $end
$var reg 1 c en_i $end
$var reg 1 d inv_i $end
$var reg 16 e xi[15:0] $end
$var reg 16 f yi[15:0] $end
$var reg 16 g zi[15:0] $end
$var reg 16 h ci[15:0] $end
$var reg 1 i dv_o $end
$var reg 1 j inv_o $end
$var reg 16 k xip1[15:0] $end
$var reg 16 l yip1[15:0] $end
$var reg 16 m zip1[15:0] $end
$comment state is not handled $end
$upscope $end
$upscope $end
$scope module connection_instance(2) $end
$scope module iteration $end
$var reg 1 n clk $end
$var reg 1 o rst $end
$var reg 1 p en_i $end
$var reg 1 q inv_i $end
$var reg 16 r xi[15:0] $end
$var reg 16 s yi[15:0] $end
$var reg 16 t zi[15:0] $end
$var reg 16 u ci[15:0] $end
$var reg 1 v dv_o $end
$var reg 1 w inv_o $end
$var reg 16 x xip1[15:0] $end
$var reg 16 y yip1[15:0] $end
$var reg 16 z zip1[15:0] $end
$comment state is not handled $end
$upscope $end
$upscope $end
$scope module connection_instance(3) $end
$scope module iteration $end
$var reg 1 { clk $end
$var reg 1 | rst $end
$var reg 1 } en_i $end
$var reg 1 !" inv_i $end
$var reg 16 "" xi[15:0] $end
$var reg 16 #" yi[15:0] $end
$var reg 16 $" zi[15:0] $end
$var reg 16 %" ci[15:0] $end
$var reg 1 &" dv_o $end
$var reg 1 '" inv_o $end
$var reg 16 (" xip1[15:0] $end
$var reg 16 )" yip1[15:0] $end
$var reg 16 *" zip1[15:0] $end
$comment state is not handled $end
$upscope $end
$upscope $end
$scope module connection_instance(4) $end
$scope module iteration $end
$var reg 1 +" clk $end
$var reg 1 ," rst $end
$var reg 1 -" en_i $end
$var reg 1 ." inv_i $end
$var reg 16 /" xi[15:0] $end
$var reg 16 0" yi[15:0] $end
$var reg 16 1" zi[15:0] $end
$var reg 16 2" ci[15:0] $end
$var reg 1 3" dv_o $end
$var reg 1 4" inv_o $end
$var reg 16 5" xip1[15:0] $end
$var reg 16 6" yip1[15:0] $end
$var reg 16 7" zip1[15:0] $end
$comment state is not handled $end
$upscope $end
$upscope $end
$scope module connection_instance(5) $end
$scope module iteration $end
$var reg 1 8" clk $end
$var reg 1 9" rst $end
$var reg 1 :" en_i $end
$var reg 1 ;" inv_i $end
$var reg 16 <" xi[15:0] $end
$var reg 16 =" yi[15:0] $end
$var reg 16 >" zi[15:0] $end
$var reg 16 ?" ci[15:0] $end
$var reg 1 @" dv_o $end
$var reg 1 A" inv_o $end
$var reg 16 B" xip1[15:0] $end
$var reg 16 C" yip1[15:0] $end
$var reg 16 D" zip1[15:0] $end
$comment state is not handled $end
$upscope $end
$upscope $end
$scope module connection_instance(6) $end
$scope module iteration $end
$var reg 1 E" clk $end
$var reg 1 F" rst $end
$var reg 1 G" en_i $end
$var reg 1 H" inv_i $end
$var reg 16 I" xi[15:0] $end
$var reg 16 J" yi[15:0] $end
$var reg 16 K" zi[15:0] $end
$var reg 16 L" ci[15:0] $end
$var reg 1 M" dv_o $end
$var reg 1 N" inv_o $end
$var reg 16 O" xip1[15:0] $end
$var reg 16 P" yip1[15:0] $end
$var reg 16 Q" zip1[15:0] $end
$comment state is not handled $end
$upscope $end
$upscope $end
$scope module connection_instance(7) $end
$scope module iteration $end
$var reg 1 R" clk $end
$var reg 1 S" rst $end
$var reg 1 T" en_i $end
$var reg 1 U" inv_i $end
$var reg 16 V" xi[15:0] $end
$var reg 16 W" yi[15:0] $end
$var reg 16 X" zi[15:0] $end
$var reg 16 Y" ci[15:0] $end
$var reg 1 Z" dv_o $end
$var reg 1 [" inv_o $end
$var reg 16 \" xip1[15:0] $end
$var reg 16 ]" yip1[15:0] $end
$var reg 16 ^" zip1[15:0] $end
$comment state is not handled $end
$upscope $end
$upscope $end
$scope module connection_instance(8) $end
$scope module iteration $end
$var reg 1 _" clk $end
$var reg 1 `" rst $end
$var reg 1 a" en_i $end
$var reg 1 b" inv_i $end
$var reg 16 c" xi[15:0] $end
$var reg 16 d" yi[15:0] $end
$var reg 16 e" zi[15:0] $end
$var reg 16 f" ci[15:0] $end
$var reg 1 g" dv_o $end
$var reg 1 h" inv_o $end
$var reg 16 i" xip1[15:0] $end
$var reg 16 j" yip1[15:0] $end
$var reg 16 k" zip1[15:0] $end
$comment state is not handled $end
$upscope $end
$upscope $end
$scope module connection_instance(9) $end
$scope module iteration $end
$var reg 1 l" clk $end
$var reg 1 m" rst $end
$var reg 1 n" en_i $end
$var reg 1 o" inv_i $end
$var reg 16 p" xi[15:0] $end
$var reg 16 q" yi[15:0] $end
$var reg 16 r" zi[15:0] $end
$var reg 16 s" ci[15:0] $end
$var reg 1 t" dv_o $end
$var reg 1 u" inv_o $end
$var reg 16 v" xip1[15:0] $end
$var reg 16 w" yip1[15:0] $end
$var reg 16 x" zip1[15:0] $end
$comment state is not handled $end
$upscope $end
$upscope $end
$upscope $end
$enddefinitions $end
#0
0!
0"
b00000000 #
0$
0%
U&
b00000000 '
1(
0)
0*
bUUUUUUUU +
U,
U-
U.
b00000000 /
00
01
02
b00000000 3
04
05
06
bUUUUUUUU 7
U8
U9
1:
bUUUUUUUU ;
U<
U=
U>
b00000000 ?
0@
0A
UB
0C
0D
bUUUUUUUU E
UF
UG
1H
bUUUUUUUU I
UJ
UK
UL
0M
0N
0O
b0000000000000000 P
bUUUUUUUUUU0 Q
b0UUUUUUUUUU R
bUUUUUUUUUU0 S
0T
0U
0V
0W
bUUUUUUUUUUUUUUUU X
bUUUUUUUUUUUUUUUU Y
bUUUUUUUUUUUUUUUU Z
b0001000110010100 [
U\
U]
bUUUUUUUUUUUUUUUU ^
bUUUUUUUUUUUUUUUU _
bUUUUUUUUUUUUUUUU `
0a
0b
Uc
Ud
bUUUUUUUUUUUUUUUU e
bUUUUUUUUUUUUUUUU f
bUUUUUUUUUUUUUUUU g
b0000101001100001 h
Ui
Uj
bUUUUUUUUUUUUUUUU k
bUUUUUUUUUUUUUUUU l
bUUUUUUUUUUUUUUUU m
0n
0o
Up
Uq
bUUUUUUUUUUUUUUUU r
bUUUUUUUUUUUUUUUU s
bUUUUUUUUUUUUUUUU t
b0000010101111100 u
Uv
Uw
bUUUUUUUUUUUUUUUU x
bUUUUUUUUUUUUUUUU y
bUUUUUUUUUUUUUUUU z
0{
0|
U}
U!"
bUUUUUUUUUUUUUUUU ""
bUUUUUUUUUUUUUUUU #"
bUUUUUUUUUUUUUUUU $"
b0000001011001001 %"
U&"
U'"
bUUUUUUUUUUUUUUUU ("
bUUUUUUUUUUUUUUUU )"
bUUUUUUUUUUUUUUUU *"
0+"
0,"
U-"
U."
bUUUUUUUUUUUUUUUU /"
bUUUUUUUUUUUUUUUU 0"
bUUUUUUUUUUUUUUUU 1"
b0000000101100110 2"
U3"
U4"
bUUUUUUUUUUUUUUUU 5"
bUUUUUUUUUUUUUUUU 6"
bUUUUUUUUUUUUUUUU 7"
08"
09"
U:"
U;"
bUUUUUUUUUUUUUUUU <"
bUUUUUUUUUUUUUUUU ="
bUUUUUUUUUUUUUUUU >"
b0000000010110011 ?"
U@"
UA"
bUUUUUUUUUUUUUUUU B"
bUUUUUUUUUUUUUUUU C"
bUUUUUUUUUUUUUUUU D"
0E"
0F"
UG"
UH"
bUUUUUUUUUUUUUUUU I"
bUUUUUUUUUUUUUUUU J"
bUUUUUUUUUUUUUUUU K"
b0000000001011010 L"
UM"
UN"
bUUUUUUUUUUUUUUUU O"
bUUUUUUUUUUUUUUUU P"
bUUUUUUUUUUUUUUUU Q"
0R"
0S"
UT"
UU"
bUUUUUUUUUUUUUUUU V"
bUUUUUUUUUUUUUUUU W"
bUUUUUUUUUUUUUUUU X"
b0000000000101101 Y"
UZ"
U["
bUUUUUUUUUUUUUUUU \"
bUUUUUUUUUUUUUUUU ]"
bUUUUUUUUUUUUUUUU ^"
0_"
0`"
Ua"
Ub"
bUUUUUUUUUUUUUUUU c"
bUUUUUUUUUUUUUUUU d"
bUUUUUUUUUUUUUUUU e"
b0000000000010110 f"
Ug"
Uh"
bUUUUUUUUUUUUUUUU i"
bUUUUUUUUUUUUUUUU j"
bUUUUUUUUUUUUUUUU k"
0l"
0m"
Un"
Uo"
bUUUUUUUUUUUUUUUU p"
bUUUUUUUUUUUUUUUU q"
bUUUUUUUUUUUUUUUU r"
b0000000000001011 s"
Ut"
Uu"
bUUUUUUUUUUUUUUUU v"
bUUUUUUUUUUUUUUUU w"
bUUUUUUUUUUUUUUUU x"
#100000000
1!
1&
1*
b00000000 +
0,
1.
b00000000 7
08
b00000000 ;
0<
1>
1B
1C
b00000000 E
0F
b00000000 I
0J
1L
1M
b00000000000 Q
b00000000000 R
b00000000000 S
1T
0\
0]
b0000000000000000 ^
b0000000000000000 _
b0000000000000000 `
1a
0c
0d
b0000000000000000 e
b0000000000000000 f
b0000000000000000 g
0i
0j
b0000000000000000 k
b0000000000000000 l
b0000000000000000 m
1n
0p
0q
b0000000000000000 r
b0000000000000000 s
b0000000000000000 t
0v
0w
b0000000000000000 x
b0000000000000000 y
b0000000000000000 z
1{
0}
0!"
b0000000000000000 ""
b0000000000000000 #"
b0000000000000000 $"
0&"
0'"
b0000000000000000 ("
b0000000000000000 )"
b0000000000000000 *"
1+"
0-"
0."
b0000000000000000 /"
b0000000000000000 0"
b0000000000000000 1"
03"
04"
b0000000000000000 5"
b0000000000000000 6"
b0000000000000000 7"
18"
0:"
0;"
b0000000000000000 <"
b0000000000000000 ="
b0000000000000000 >"
0@"
0A"
b0000000000000000 B"
b0000000000000000 C"
b0000000000000000 D"
1E"
0G"
0H"
b0000000000000000 I"
b0000000000000000 J"
b0000000000000000 K"
0M"
0N"
b0000000000000000 O"
b0000000000000000 P"
b0000000000000000 Q"
1R"
0T"
0U"
b0000000000000000 V"
b0000000000000000 W"
b0000000000000000 X"
0Z"
0["
b0000000000000000 \"
b0000000000000000 ]"
b0000000000000000 ^"
1_"
0a"
0b"
b0000000000000000 c"
b0000000000000000 d"
b0000000000000000 e"
0g"
0h"
b0000000000000000 i"
b0000000000000000 j"
b0000000000000000 k"
1l"
0n"
0o"
b0000000000000000 p"
b0000000000000000 q"
b0000000000000000 r"
0t"
0u"
b0000000000000000 v"
b0000000000000000 w"
b0000000000000000 x"
#180000000
1"
1D
1N
1U
1b
1o
1|
1,"
19"
1F"
1S"
1`"
1m"
#200000000
0!
0C
0M
0T
0a
0n
0{
0+"
08"
0E"
0R"
0_"
0l"
#300000000
1!
1$
0*
1@
1C
1M
1T
1a
1n
1{
1+"
18"
1E"
1R"
1_"
1l"
#400000000
0!
0C
0M
0T
0a
0n
0{
0+"
08"
0E"
0R"
0_"
0l"
#500000000
1!
1C
1M
1T
1a
1n
1{
1+"
18"
1E"
1R"
1_"
1l"
#600000000
0!
0C
0M
0T
0a
0n
0{
0+"
08"
0E"
0R"
0_"
0l"
#700000000
1!
0$
0&
1*
b01111101 +
1,
b01111101 ;
1<
0@
0B
1C
b01111101 I
1J
1M
1T
1a
1n
1{
1+"
18"
1E"
1R"
1_"
1l"
#800000000
0!
0C
0M
0T
0a
0n
0{
0+"
08"
0E"
0R"
0_"
0l"
#900000000
1!
b00000001 #
1$
0*
b00011001 +
b00011001 ;
b00000001 ?
1@
1C
b00011001 I
1M
1T
b0000000001111101 X
1a
1n
1{
1+"
18"
1E"
1R"
1_"
1l"
#1000000000
0!
0C
0M
0T
0a
0n
0{
0+"
08"
0E"
0R"
0_"
0l"
#1100000000
1!
1&
0,
0.
0<
0>
1B
1C
0J
0L
1M
b00000000001 Q
1T
1V
b0000000000011001 Y
b0000000000000000 Z
1a
1n
1{
1+"
18"
1E"
1R"
1_"
1l"
#1200000000
0!
0C
0M
0T
0a
0n
0{
0+"
08"
0E"
0R"
0_"
0l"
#1300000000
1!
b00000000 #
b00000000 ?
1C
1M
b00000000010 Q
b00000000001 R
1T
0V
1\
b0000000010010110 ^
b1111111110011100 _
b0001000110010100 `
1a
1c
b0000000010010110 e
b1111111110011100 f
b0001000110010100 g
1n
1{
1+"
18"
1E"
1R"
1_"
1l"
#1400000000
0!
0C
0M
0T
0a
0n
0{
0+"
08"
0E"
0R"
0_"
0l"
#1500000000
1!
0$
0&
1*
b01101010 +
1,
18
b01101010 ;
1<
0@
0B
1C
1F
b01101010 I
1J
1M
b00000000100 Q
b00000000010 R
1T
0\
1a
0c
1i
b0000000011001000 k
b1111111111100111 l
b0000011100110011 m
1n
1p
b0000000011001000 r
b1111111111100111 s
b0000011100110011 t
1{
1+"
18"
1E"
1R"
1_"
1l"
#1600000000
0!
0C
0M
0T
0a
0n
0{
0+"
08"
0E"
0R"
0_"
0l"
#1700000000
1!
b00000010 #
1$
0*
b00000010 ?
1@
1C
1M
b00000001000 Q
b00000000100 R
1T
1a
0i
1n
0p
1v
b0000000011001111 x
b0000000000011001 y
b0000000110110111 z
1{
1}
b0000000011001111 ""
b0000000000011001 #"
b0000000110110111 $"
1+"
18"
1E"
1R"
1_"
1l"
#1800000000
0!
0C
0M
0T
0a
0n
0{
0+"
08"
0E"
0R"
0_"
0l"
#1900000000
1!
1.
08
1>
1C
0F
1L
1M
b00000010000 Q
b00000001000 R
1T
1a
1n
0v
1{
0}
1&"
b0000000011010010 ("
b0000010010000000 *"
1+"
1-"
b0000000011010010 /"
b0000010010000000 1"
18"
1E"
1R"
1_"
1l"
#2000000000
0!
0C
0M
0T
0a
0n
0{
0+"
08"
0E"
0R"
0_"
0l"
#2100000000
1!
b01000111 +
b01000111 ;
1C
b01000111 I
1M
b00000100000 Q
b00000010000 R
1T
b0000000001101010 X
1a
1n
1{
0&"
1+"
0-"
13"
b0000000011010010 5"
b1111111111110011 6"
b0000010111100110 7"
18"
1:"
b0000000011010010 <"
b1111111111110011 ="
b0000010111100110 >"
1E"
1R"
1_"
1l"
#2200000000
0!
0C
0M
0T
0a
0n
0{
0+"
08"
0E"
0R"
0_"
0l"
#2300000000
1!
1&
0,
0.
0<
0>
1B
1C
0J
0L
1M
b00001000001 Q
b00000100000 R
1T
1V
b0000000001000111 Y
1a
1n
1{
1+"
03"
18"
0:"
1@"
b0000000011010011 B"
b1111111111111001 C"
b0000010100110011 D"
1E"
1G"
b0000000011010011 I"
b1111111111111001 J"
b0000010100110011 K"
1R"
1_"
1l"
#2400000000
0!
0C
0M
0T
0a
0n
0{
0+"
08"
0E"
0R"
0_"
0l"
#2500000000
1!
b00000000 #
b00000000 ?
1C
1M
b00010000010 Q
b00001000001 R
1T
0V
1\
b0000000010110001 ^
b1111111111011101 _
1a
1c
b0000000010110001 e
b1111111111011101 f
1n
1{
1+"
18"
0@"
1E"
0G"
1M"
b0000000011010100 O"
b1111111111111100 P"
b0000010011011001 Q"
1R"
1T"
b0000000011010100 V"
b1111111111111100 W"
b0000010011011001 X"
1_"
1l"
#2600000000
0!
0C
0M
0T
0a
0n
0{
0+"
08"
0E"
0R"
0_"
0l"
#2700000000
1!
0$
0&
1*
1,
18
1<
0@
0B
1C
1F
1J
1M
b00100000100 Q
b00010000010 R
1T
0\
1a
0c
1i
b0000000011000011 k
b0000000000110101 l
1n
1p
b0000000011000011 r
b0000000000110101 s
1{
1+"
18"
1E"
0M"
1R"
0T"
1Z"
b0000000011010101 \"
b1111111111111101 ]"
b0000010010101100 ^"
1_"
1a"
b0000000011010101 c"
b1111111111111101 d"
b0000010010101100 e"
1l"
#2800000000
0!
0C
0M
0T
0a
0n
0{
0+"
08"
0E"
0R"
0_"
0l"
#2900000000
1!
b00000011 #
1$
0*
b00000011 ?
1@
1C
1M
b01000001000 Q
b00100000100 R
1T
1a
0i
1n
0p
1v
b0000000011010000 x
b0000000000000101 y
b0000110010101111 z
1{
1}
b0000000011010000 ""
b0000000000000101 #"
b0000110010101111 $"
1+"
18"
1E"
1R"
0Z"
1_"
0a"
1g"
b0000000011010110 i"
b1111111111111101 j"
b0000010010010110 k"
1l"
1n"
b0000000011010110 p"
b1111111111111101 q"
b0000010010010110 r"
#3000000000
0!
0C
0M
0T
0a
0n
0{
0+"
08"
0E"
0R"
0_"
0l"
#3100000000
1!
1.
b00001001 7
08
1>
1C
b00001001 E
0F
1L
1M
b0000010010010110 P
b10000010000 Q
b01000001000 R
1T
1a
1n
0v
1{
0}
1&"
b0000000011010000 ("
b1111111111101011 )"
b0000111101111000 *"
1+"
1-"
b0000000011010000 /"
b1111111111101011 0"
b0000111101111000 1"
18"
1E"
1R"
1_"
0g"
1l"
0n"
1t"
b0000000011010111 v"
b1111111111111101 w"
b0000010010001011 x"
#3200000000
0!
0C
0M
0T
0a
0n
0{
0+"
08"
0E"
0R"
0_"
0l"
#3300000000
1!
b01101010 +
b01101010 ;
1C
b01101010 I
1M
b00000100000 Q
b00000010000 R
1T
b0000000001000111 X
1a
1n
1{
0&"
1+"
0-"
13"
b1111111111111000 6"
b0000111000010010 7"
18"
1:"
b1111111111111000 ="
b0000111000010010 >"
1E"
1R"
1_"
1l"
0t"
#3400000000
0!
0C
0M
0T
0a
0n
0{
0+"
08"
0E"
0R"
0_"
0l"
#3500000000
1!
1&
0,
0.
0<
0>
1B
1C
0J
0L
1M
b00001000001 Q
b00000100000 R
1T
1V
b0000000001101010 Y
1a
1n
1{
1+"
03"
18"
0:"
1@"
b1111111111111110 C"
b0000110101011111 D"
1E"
1G"
b1111111111111110 J"
b0000110101011111 K"
1R"
1_"
1l"
#3600000000
0!
0C
0M
0T
0a
0n
0{
0+"
08"
0E"
0R"
0_"
0l"
#3700000000
1!
b00000000 #
b00000000 ?
1C
1M
b00010000010 Q
b00001000001 R
1T
0V
1\
b0000000000100011 _
1a
1c
b0000000000100011 f
1n
1{
1+"
18"
0@"
1E"
0G"
1M"
b0000000000000001 P"
b0000110100000101 Q"
1R"
1T"
b0000000000000001 W"
b0000110100000101 X"
1_"
1l"
#3800000000
0!
0C
0M
0T
0a
0n
0{
0+"
08"
0E"
0R"
0_"
0l"
#3900000000
1!
0$
0&
1*
b00011001 +
1,
b11010110 7
18
b00011001 ;
1<
0@
0B
1C
b11010110 E
1F
b00011001 I
1J
1M
b00100000100 Q
b00010000010 R
1T
0\
1a
0c
1i
b0000000011000010 k
b1111111111001011 l
b0001101111110101 m
1n
1p
b0000000011000010 r
b1111111111001011 s
b0001101111110101 t
1{
1+"
18"
1E"
0M"
1R"
0T"
1Z"
b0000000011010100 \"
b0000000000000000 ]"
b0000110100110010 ^"
1_"
1a"
b0000000011010100 c"
b0000000000000000 d"
b0000110100110010 e"
1l"
#4000000000
0!
0C
0M
0T
0a
0n
0{
0+"
08"
0E"
0R"
0_"
0l"
#4100000000
1!
1$
0*
b11111101 7
1@
1C
b11111101 E
1M
b01000001000 Q
b00100000100 R
1T
1a
0i
1n
0p
1v
b1111111111111011 y
b0001011001111001 z
1{
1}
b1111111111111011 #"
b0001011001111001 $"
1+"
18"
1E"
1R"
0Z"
1_"
0a"
1g"
b0000000011010100 i"
b0000000000000000 j"
b0000110101001000 k"
1l"
1n"
b0000000011010100 p"
b0000000000000000 q"
b0000110101001000 r"
#4200000000
0!
0C
0M
0T
0a
0n
0{
0+"
08"
0E"
0R"
0_"
0l"
#4300000000
1!
1.
b00011010 7
08
1>
1C
b00011010 E
0F
1L
1M
b0000110101001000 P
b10000010000 Q
b01000001000 R
1T
1a
1n
0v
1{
0}
1&"
b0000000011010001 ("
b0000000000010101 )"
b0001001110110000 *"
1+"
1-"
b0000000011010001 /"
b0000000000010101 0"
b0001001110110000 1"
18"
1E"
1R"
1_"
0g"
1l"
0n"
1t"
b0000000011010100 v"
b0000000000000000 w"
b0000110101010011 x"
#4400000000
0!
0C
0M
0T
0a
0n
0{
0+"
08"
0E"
0R"
0_"
0l"
#4500000000
1!
b01111101 +
b01111101 ;
1C
b01111101 I
1M
b00000100000 Q
b00000010000 R
1T
b0000000000011001 X
1a
1n
1{
0&"
1+"
0-"
13"
b0000000000001000 6"
b0001010100010110 7"
18"
1:"
b0000000000001000 ="
b0001010100010110 >"
1E"
1R"
1_"
1l"
0t"
#4600000000
0!
0C
0M
0T
0a
0n
0{
0+"
08"
0E"
0R"
0_"
0l"
#4700000000
1!
1&
0,
0.
0<
0>
1B
1C
0J
0L
1M
b00001000001 Q
b00000100000 R
1T
1V
b0000000001111101 Y
1a
1n
1{
1+"
03"
18"
0:"
1@"
b0000000011010010 B"
b0000000000000010 C"
b0001010111001001 D"
1E"
1G"
b0000000011010010 I"
b0000000000000010 J"
b0001010111001001 K"
1R"
1_"
1l"
#4800000000
0!
0C
0M
0T
0a
0n
0{
0+"
08"
0E"
0R"
0_"
0l"
#4900000000
1!
b00000001 #
b00000001 ?
1C
1M
b00010000010 Q
b00001000001 R
1T
0V
1\
b0000000010010110 ^
b0000000001100100 _
1a
1c
b0000000010010110 e
b0000000001100100 f
1n
1{
1+"
18"
0@"
1E"
0G"
1M"
b0000000011010010 O"
b1111111111111111 P"
b0001011000100011 Q"
1R"
1T"
b0000000011010010 V"
b1111111111111111 W"
b0001011000100011 X"
1_"
1l"
#5000000000
0!
0C
0M
0T
0a
0n
0{
0+"
08"
0E"
0R"
0_"
0l"
#5100000000
1!
0$
0&
1*
b11100111 +
1,
b11010100 7
18
b11100111 ;
1<
0@
0B
1C
b11010100 E
1F
b11100111 I
1J
1M
b00100000100 Q
b00010000010 R
1T
0\
1a
0c
1i
b0000000011001000 k
b0000000000011001 l
1n
1p
b0000000011001000 r
b0000000000011001 s
1{
1+"
18"
1E"
0M"
1R"
0T"
1Z"
b0000000011010011 \"
b0001010111110110 ^"
1_"
1a"
b0000000011010011 c"
b0001010111110110 e"
1l"
#5200000000
0!
0C
0M
0T
0a
0n
0{
0+"
08"
0E"
0R"
0_"
0l"
#5300000000
1!
1$
0*
b00000000 7
1@
1C
b00000000 E
1M
b01000001000 Q
b00100000100 R
1T
1a
0i
1n
0p
1v
b0000000011001110 x
b1111111111100111 y
b0010000101110001 z
1{
1}
b0000000011001110 ""
b1111111111100111 #"
b0010000101110001 $"
1+"
18"
1E"
1R"
0Z"
1_"
0a"
1g"
b0000000011010011 i"
b0001011000001100 k"
1l"
1n"
b0000000011010011 p"
b0001011000001100 r"
#5400000000
0!
0C
0M
0T
0a
0n
0{
0+"
08"
0E"
0R"
0_"
0l"
#5500000000
1!
1.
b00101100 7
08
1>
1C
b00101100 E
0F
1L
1M
b0001011000001100 P
b10000010000 Q
b01000001000 R
1T
1a
1n
0v
1{
0}
1&"
b0000000011010010 ("
b0000000000000000 )"
b0001111010101000 *"
1+"
1-"
b0000000011010010 /"
b0000000000000000 0"
b0001111010101000 1"
18"
1E"
1R"
1_"
0g"
1l"
0n"
1t"
b0000000011010011 v"
b0001011000010111 x"
#5600000000
0!
0C
0M
0T
0a
0n
0{
0+"
08"
0E"
0R"
0_"
0l"
#5700000000
1!
b01111101 +
b01111101 ;
1C
b01111101 I
1M
b00000100000 Q
b00000010000 R
b00000000001 S
1T
1W
1a
1n
1{
0&"
1+"
0-"
13"
b1111111111110011 6"
b0010000000001110 7"
18"
1:"
b1111111111110011 ="
b0010000000001110 >"
1E"
1R"
1_"
1l"
0t"
#5800000000
0!
0C
0M
0T
0a
0n
0{
0+"
08"
0E"
0R"
0_"
0l"
#5900000000
1!
1&
0,
0.
0<
0>
1B
1C
0J
0L
1M
b00001000001 Q
b00000100000 R
1T
1V
b1011100110110000 Z
1a
1n
1{
1+"
03"
18"
0:"
1@"
b0000000011010011 B"
b1111111111111001 C"
b0001111101011011 D"
1E"
1G"
b0000000011010011 I"
b1111111111111001 J"
b0001111101011011 K"
1R"
1_"
1l"
#6000000000
0!
0C
0M
0T
0a
0n
0{
0+"
08"
0E"
0R"
0_"
0l"
#6100000000
1!
1C
1M
b00010000010 Q
b00001000001 R
b00000000011 S
1T
0V
1\
1]
b1100101101000100 `
1a
1c
1d
b1100101101000100 g
1n
1{
1+"
18"
0@"
1E"
0G"
1M"
b0000000011010100 O"
b1111111111111100 P"
b0001111100000001 Q"
1R"
1T"
b0000000011010100 V"
b1111111111111100 W"
b0001111100000001 X"
1_"
1l"
#6200000000
0!
0C
0M
0T
0a
0n
0{
0+"
08"
0E"
0R"
0_"
0l"
#6300000000
1!
0$
0&
1*
b10111001 +
1,
b11010011 7
18
b10111001 ;
1<
0@
0B
1C
b11010011 E
1F
b10111001 I
1J
1M
b00100000100 Q
b00010000010 R
b00000000111 S
1T
0\
1a
0c
1i
1j
b1101010110100101 m
1n
1p
1q
b1101010110100101 t
1{
1+"
18"
1E"
0M"
1R"
0T"
1Z"
b0000000011010101 \"
b1111111111111101 ]"
b0001111011010100 ^"
1_"
1a"
b0000000011010101 c"
b1111111111111101 d"
b0001111011010100 e"
1l"
#6400000000
0!
0C
0M
0T
0a
0n
0{
0+"
08"
0E"
0R"
0_"
0l"
#6500000000
1!
b00000010 #
1$
0*
b00000000 7
b00000010 ?
1@
1C
b00000000 E
1M
b01000001000 Q
b00100000100 R
b00000001111 S
1T
1a
0i
1n
0p
1v
1w
b1101101100100001 z
1{
1}
1!"
b1101101100100001 $"
1+"
18"
1E"
1R"
0Z"
1_"
0a"
1g"
b0000000011010110 i"
b1111111111111101 j"
b0001111010111110 k"
1l"
1n"
b0000000011010110 p"
b1111111111111101 q"
b0001111010111110 r"
#6600000000
0!
0C
0M
0T
0a
0n
0{
0+"
08"
0E"
0R"
0_"
0l"
#6700000000
1!
1.
b00111101 7
08
1>
1C
b00111101 E
0F
1L
1M
b0001111010111110 P
b10000010000 Q
b01000001000 R
b00000011111 S
1T
1a
1n
0v
1{
0}
1&"
1'"
b1101100001011000 *"
1+"
1-"
1."
b1101100001011000 1"
18"
1E"
1R"
1_"
0g"
1l"
0n"
1t"
b0000000011010111 v"
b1111111111111101 w"
b0001111010110011 x"
#6800000000
0!
0C
0M
0T
0a
0n
0{
0+"
08"
0E"
0R"
0_"
0l"
#6900000000
1!
b01101010 +
b01101010 ;
1C
b01101010 I
1M
b00000100000 Q
b00000010000 R
b00000111111 S
1T
b0000000001000111 X
1a
1n
1{
0&"
1+"
0-"
13"
14"
b1101100110111110 7"
18"
1:"
1;"
b1101100110111110 >"
1E"
1R"
1_"
1l"
0t"
#7000000000
0!
0C
0M
0T
0a
0n
0{
0+"
08"
0E"
0R"
0_"
0l"
#7100000000
1!
1&
0,
0.
0<
0>
1B
1C
0J
0L
1M
b00001000001 Q
b00000100000 R
b00001111111 S
1T
1V
b0000000001101010 Y
1a
1n
1{
1+"
03"
18"
0:"
1@"
1A"
b1101100100001011 D"
1E"
1G"
1H"
b1101100100001011 K"
1R"
1_"
1l"
#7200000000
0!
0C
0M
0T
0a
0n
0{
0+"
08"
0E"
0R"
0_"
0l"
