sim/out.vcd
$date
  Wed Dec 11 08:30:30 2019
$end
$version
  GHDL v0
$end
$timescale
  1 fs
$end
$var reg 1 ! spi_mosi_tb $end
$var reg 1 " spi_miso_tb $end
$var reg 1 # cs_tb $end
$var reg 8 $ outdata_tb[7:0] $end
$var reg 8 % indata_tb[7:0] $end
$var reg 4 & ledsdata_tb[3:0] $end
$var reg 1 ' clk_tb $end
$var reg 1 ( rst_tb $end
$var reg 8 ) mosidata_tb[7:0] $end
$scope module spi_inst $end
$var reg 1 * spi_mosi $end
$var reg 1 + spi_miso $end
$var reg 1 , cs $end
$var reg 8 - outdata[7:0] $end
$var reg 8 . indata[7:0] $end
$var reg 4 / ledsdata[3:0] $end
$var reg 1 0 clk $end
$var reg 8 1 mosisignal[7:0] $end
$var reg 8 2 misosignal[7:0] $end
$upscope $end
$enddefinitions $end
#0
U!
U"
1#
bUUUUUUUU $
b00000000 %
bUUUU &
1'
0(
b00000000 )
U*
U+
1,
bUUUUUUUU -
b00000000 .
bUUUU /
10
b00000000 1
b00000000 2
#1000000
0#
0,
#20000000
0!
0'
0*
00
#40000000
0"
1'
0+
10
#60000000
0'
00
#80000000
1'
10
#100000000
0'
00
#120000000
1'
10
#140000000
0'
00
#160000000
1'
10
#180000000
0'
00
#200000000
1'
10
#220000000
0'
00
#240000000
1'
10
#260000000
0'
00
#280000000
1'
10
#300000000
b00000001 %
0'
b01100101 )
b00000001 .
00
#320000000
b00000000 $
b0000 &
1'
b00000000 -
b0000 /
10
b00000001 2
#340000000
0'
b11001010 )
00
#360000000
1'
10
b00000010 2
#380000000
1!
0'
b10010100 )
1*
00
#400000000
1'
10
b00000001 1
b00000100 2
#420000000
0'
b00101000 )
00
#440000000
1'
10
b00000011 1
b00001000 2
#460000000
0!
0'
b01010000 )
0*
00
#480000000
1'
10
b00000110 1
b00010000 2
#500000000
0'
b10100000 )
00
#520000000
1'
10
b00001100 1
b00100000 2
#540000000
1!
0'
b01000000 )
1*
00
#560000000
1'
10
b00011001 1
b01000000 2
#580000000
0!
0'
b10000000 )
0*
00
#600000000
1'
10
b00110010 1
b10000000 2
#620000000
1!
b00000010 %
0'
b01100110 )
1*
b00000010 .
00
#640000000
1"
b01100101 $
b0101 &
1'
1+
b01100101 -
b0101 /
10
b01100101 1
b00000010 2
#660000000
0!
0'
b11001100 )
0*
00
#680000000
0"
1'
0+
10
b11001010 1
b00000100 2
#700000000
1!
0'
b10011000 )
1*
00
#720000000
1'
10
b10010101 1
b00001000 2
#740000000
0'
b00110000 )
00
#760000000
1'
10
b00101011 1
b00010000 2
#780000000
0!
0'
b01100000 )
0*
00
#800000000
1'
10
b01010110 1
b00100000 2
#820000000
0'
b11000000 )
00
#840000000
1'
10
b10101100 1
b01000000 2
#860000000
1!
0'
b10000000 )
1*
00
#880000000
1'
10
b01011001 1
b10000000 2
#900000000
0'
b00000000 )
00
#920000000
1"
1'
1+
10
b10110011 1
b00000000 2
#940000000
0!
b00000011 %
0'
b01100111 )
0*
b00000011 .
00
#960000000
0"
b01100110 $
b0110 &
1'
0+
b01100110 -
b0110 /
10
b01100110 1
b00000011 2
#980000000
0'
b11001110 )
00
#1000000000
1'
10
b11001100 1
b00000110 2
#1020000000
1!
0'
b10011100 )
1*
00
#1040000000
1'
10
b10011001 1
b00001100 2
#1060000000
0'
b00111000 )
00
#1080000000
1'
10
b00110011 1
b00011000 2
#1100000000
0!
0'
b01110000 )
0*
00
#1120000000
1'
10
b01100110 1
b00110000 2
#1140000000
0'
b11100000 )
00
#1160000000
1'
10
b11001100 1
b01100000 2
#1180000000
1!
0'
b11000000 )
1*
00
#1200000000
1'
10
b10011001 1
b11000000 2
#1220000000
0'
b10000000 )
00
#1240000000
1"
1'
1+
10
b00110011 1
b10000000 2
#1260000000
b00000100 %
0'
b01101000 )
b00000100 .
00
#1280000000
b01100111 $
b0111 &
1'
b01100111 -
b0111 /
10
b01100111 1
b00000100 2
#1300000000
0!
0'
b11010000 )
0*
00
#1320000000
0"
1'
0+
10
b11001110 1
b00001000 2
#1340000000
1!
0'
b10100000 )
1*
00
#1360000000
1'
10
b10011101 1
b00010000 2
#1380000000
0'
b01000000 )
00
#1400000000
1'
10
b00111011 1
b00100000 2
#1420000000
0!
0'
b10000000 )
0*
00
#1440000000
1'
10
b01110110 1
b01000000 2
#1460000000
1!
0'
b00000000 )
1*
00
#1480000000
1'
10
b11101101 1
b10000000 2
#1500000000
0!
0'
0*
00
#1520000000
1"
1'
1+
10
b11011010 1
b00000000 2
#1540000000
0'
00
#1560000000
0"
1'
0+
10
b10110100 1
#1580000000
b00000101 %
0'
b01101001 )
b00000101 .
00
#1600000000
b01101000 $
b1000 &
1'
b01101000 -
b1000 /
10
b01101000 1
b00000101 2
#1620000000
0'
b11010010 )
00
#1640000000
1'
10
b11010000 1
b00001010 2
#1660000000
1!
0'
b10100100 )
1*
00
#1680000000
1'
10
b10100001 1
b00010100 2
#1700000000
0'
b01001000 )
00
#1720000000
1'
10
b01000011 1
b00101000 2
#1740000000
0!
0'
b10010000 )
0*
00
#1760000000
1'
10
b10000110 1
b01010000 2
#1780000000
1!
0'
b00100000 )
1*
00
#1800000000
1'
10
b00001101 1
b10100000 2
#1820000000
0!
0'
b01000000 )
0*
00
#1840000000
1"
1'
1+
10
b00011010 1
b01000000 2
#1860000000
0'
b10000000 )
00
#1880000000
0"
1'
0+
10
b00110100 1
b10000000 2
#1900000000
1!
b00000110 %
0'
b01101010 )
1*
b00000110 .
00
#1920000000
1"
b01101001 $
b1001 &
1'
1+
b01101001 -
b1001 /
10
b01101001 1
b00000110 2
#1940000000
0!
0'
b11010100 )
0*
00
#1960000000
0"
1'
0+
10
b11010010 1
b00001100 2
#1980000000
1!
0'
b10101000 )
1*
00
#2000000000
1'
10
b10100101 1
b00011000 2
#2020000000
0'
b01010000 )
00
#2040000000
1'
10
b01001011 1
b00110000 2
#2060000000
0!
0'
b10100000 )
0*
00
#2080000000
1'
10
b10010110 1
b01100000 2
#2100000000
1!
0'
b01000000 )
1*
00
#2120000000
1'
10
b00101101 1
b11000000 2
#2140000000
0!
0'
b10000000 )
0*
00
#2160000000
1"
1'
1+
10
b01011010 1
b10000000 2
#2180000000
1!
0'
b00000000 )
1*
00
#2200000000
1'
10
b10110101 1
b00000000 2
#2220000000
0!
b00000111 %
0'
b01101011 )
0*
b00000111 .
00
#2240000000
0"
b01101010 $
b1010 &
1'
0+
b01101010 -
b1010 /
10
b01101010 1
b00000111 2
#2260000000
0'
b11010110 )
00
#2280000000
1'
10
b11010100 1
b00001110 2
#2300000000
1!
0'
b10101100 )
1*
00
#2320000000
1'
10
b10101001 1
b00011100 2
#2340000000
0'
b01011000 )
00
#2360000000
1'
10
b01010011 1
b00111000 2
#2380000000
0!
0'
b10110000 )
0*
00
#2400000000
1'
10
b10100110 1
b01110000 2
#2420000000
1!
0'
b01100000 )
1*
00
#2440000000
1'
10
b01001101 1
b11100000 2
#2460000000
0!
0'
b11000000 )
0*
00
#2480000000
1"
1'
1+
10
b10011010 1
b11000000 2
#2500000000
1!
0'
b10000000 )
1*
00
#2520000000
1'
10
b00110101 1
b10000000 2
#2540000000
b00001000 %
0'
b01101100 )
b00001000 .
00
#2560000000
b01101011 $
b1011 &
1'
b01101011 -
b1011 /
10
b01101011 1
b00001000 2
#2580000000
0!
0'
b11011000 )
0*
00
#2600000000
0"
1'
0+
10
b11010110 1
b00010000 2
#2620000000
1!
0'
b10110000 )
1*
00
#2640000000
1'
10
b10101101 1
b00100000 2
#2660000000
0'
b01100000 )
00
#2680000000
1'
10
b01011011 1
b01000000 2
#2700000000
0!
0'
b11000000 )
0*
00
#2720000000
1'
10
b10110110 1
b10000000 2
#2740000000
1!
0'
b10000000 )
1*
00
#2760000000
1"
1'
1+
10
b01101101 1
b00000000 2
#2780000000
0'
b00000000 )
00
#2800000000
0"
1'
0+
10
b11011011 1
#2820000000
0!
0'
0*
00
#2840000000
1'
10
b10110110 1
#2860000000
b00001001 %
0'
b01101101 )
b00001001 .
00
#2880000000
b01101100 $
b1100 &
1'
b01101100 -
b1100 /
10
b01101100 1
b00001001 2
#2900000000
0'
b11011010 )
00
#2920000000
1'
10
b11011000 1
b00010010 2
#2940000000
1!
0'
b10110100 )
1*
00
#2960000000
1'
10
b10110001 1
b00100100 2
#2980000000
0'
b01101000 )
00
#3000000000
1'
10
b01100011 1
b01001000 2
#3020000000
0!
0'
b11010000 )
0*
00
#3040000000
1'
10
b11000110 1
b10010000 2
#3060000000
1!
0'
b10100000 )
1*
00
#3080000000
1"
1'
1+
10
b10001101 1
b00100000 2
#3100000000
0'
b01000000 )
00
#3120000000
0"
1'
0+
10
b00011011 1
b01000000 2
#3140000000
0!
0'
b10000000 )
0*
00
#3160000000
1'
10
b00110110 1
b10000000 2
#3180000000
1!
b00001010 %
0'
b01101110 )
1*
b00001010 .
00
#3200000000
1"
b01101101 $
b1101 &
1'
1+
b01101101 -
b1101 /
10
b01101101 1
b00001010 2
#3220000000
0!
0'
b11011100 )
0*
00
#3240000000
0"
1'
0+
10
b11011010 1
b00010100 2
#3260000000
1!
0'
b10111000 )
1*
00
#3280000000
1'
10
b10110101 1
b00101000 2
#3300000000
0'
b01110000 )
00
#3320000000
1'
10
b01101011 1
b01010000 2
#3340000000
0!
0'
b11100000 )
0*
00
#3360000000
1'
10
b11010110 1
b10100000 2
#3380000000
1!
0'
b11000000 )
1*
00
#3400000000
1"
1'
1+
10
b10101101 1
b01000000 2
#3420000000
0'
b10000000 )
00
#3440000000
0"
1'
0+
10
b01011011 1
b10000000 2
#3460000000
0'
b00000000 )
00
#3480000000
1"
1'
1+
10
b10110111 1
b00000000 2
#3500000000
0!
b00001011 %
0'
b01101111 )
0*
b00001011 .
00
#3520000000
0"
b01101110 $
b1110 &
1'
0+
b01101110 -
b1110 /
10
b01101110 1
b00001011 2
#3540000000
0'
b11011110 )
00
#3560000000
1'
10
b11011100 1
b00010110 2
#3580000000
1!
0'
b10111100 )
1*
00
#3600000000
1'
10
b10111001 1
b00101100 2
#3620000000
0'
b01111000 )
00
#3640000000
1'
10
b01110011 1
b01011000 2
#3660000000
0!
0'
b11110000 )
0*
00
#3680000000
1'
10
b11100110 1
b10110000 2
#3700000000
1!
0'
b11100000 )
1*
00
#3720000000
1"
1'
1+
10
b11001101 1
b01100000 2
#3740000000
0'
b11000000 )
00
#3760000000
0"
1'
0+
10
b10011011 1
b11000000 2
#3780000000
0'
b10000000 )
00
#3800000000
1"
1'
1+
10
b00110111 1
b10000000 2
#3820000000
b00001100 %
0'
b01110000 )
b00001100 .
00
#3840000000
b01101111 $
b1111 &
1'
b01101111 -
b1111 /
10
b01101111 1
b00001100 2
#3860000000
0!
0'
b11100000 )
0*
00
#3880000000
0"
1'
0+
10
b11011110 1
b00011000 2
#3900000000
1!
0'
b11000000 )
1*
00
#3920000000
1'
10
b10111101 1
b00110000 2
#3940000000
0'
b10000000 )
00
#3960000000
1'
10
b01111011 1
b01100000 2
#3980000000
0'
b00000000 )
00
#4000000000
1'
10
b11110111 1
b11000000 2
#4020000000
0!
0'
0*
00
#4040000000
1"
1'
1+
10
b11101110 1
b10000000 2
#4060000000
0'
00
#4080000000
1'
10
b11011100 1
b00000000 2
#4100000000
0'
00
#4120000000
0"
1'
0+
10
b10111000 1
#4140000000
b00001101 %
0'
b01110001 )
b00001101 .
00
#4160000000
b01110000 $
b0000 &
1'
b01110000 -
b0000 /
10
b01110000 1
b00001101 2
#4180000000
0'
b11100010 )
00
#4200000000
1'
10
b11100000 1
b00011010 2
#4220000000
1!
0'
b11000100 )
1*
00
#4240000000
1'
10
b11000001 1
b00110100 2
#4260000000
0'
b10001000 )
00
#4280000000
1'
10
b10000011 1
b01101000 2
#4300000000
0'
b00010000 )
00
#4320000000
1'
10
b00000111 1
b11010000 2
#4340000000
0!
0'
b00100000 )
0*
00
#4360000000
1"
1'
1+
10
b00001110 1
b10100000 2
#4380000000
0'
b01000000 )
00
#4400000000
1'
10
b00011100 1
b01000000 2
#4420000000
0'
b10000000 )
00
#4440000000
0"
1'
0+
10
b00111000 1
b10000000 2
#4460000000
1!
b00001110 %
0'
b01110010 )
1*
b00001110 .
00
#4480000000
1"
b01110001 $
b0001 &
1'
1+
b01110001 -
b0001 /
10
b01110001 1
b00001110 2
#4500000000
0!
0'
b11100100 )
0*
00
#4520000000
0"
1'
0+
10
b11100010 1
b00011100 2
#4540000000
1!
0'
b11001000 )
1*
00
#4560000000
1'
10
b11000101 1
b00111000 2
#4580000000
0'
b10010000 )
00
#4600000000
1'
10
b10001011 1
b01110000 2
#4620000000
0'
b00100000 )
00
#4640000000
1'
10
b00010111 1
b11100000 2
#4660000000
0!
0'
b01000000 )
0*
00
#4680000000
1"
1'
1+
10
b00101110 1
b11000000 2
#4700000000
0'
b10000000 )
00
#4720000000
1'
10
b01011100 1
b10000000 2
#4740000000
1!
0'
b00000000 )
1*
00
#4760000000
1'
10
b10111001 1
b00000000 2
#4780000000
0!
b00001111 %
0'
b01110011 )
0*
b00001111 .
00
#4800000000
0"
b01110010 $
b0010 &
1'
0+
b01110010 -
b0010 /
10
b01110010 1
b00001111 2
#4820000000
0'
b11100110 )
00
#4840000000
1'
10
b11100100 1
b00011110 2
#4860000000
1!
0'
b11001100 )
1*
00
#4880000000
1'
10
b11001001 1
b00111100 2
#4900000000
0'
b10011000 )
00
#4920000000
1'
10
b10010011 1
b01111000 2
#4940000000
0'
b00110000 )
00
#4960000000
1'
10
b00100111 1
b11110000 2
#4980000000
0!
0'
b01100000 )
0*
00
#5000000000
1"
1'
1+
10
b01001110 1
b11100000 2
#5020000000
0'
b11000000 )
00
#5040000000
1'
10
b10011100 1
b11000000 2
#5060000000
1!
0'
b10000000 )
1*
00
#5080000000
1'
10
b00111001 1
b10000000 2
#5100000000
b00010000 %
0'
b01110100 )
b00010000 .
00
#5120000000
b01110011 $
b0011 &
1'
b01110011 -
b0011 /
10
b01110011 1
b00010000 2
#5140000000
0!
0'
b11101000 )
0*
00
#5160000000
0"
1'
0+
10
b11100110 1
b00100000 2
#5180000000
1!
0'
b11010000 )
1*
00
#5200000000
1'
10
b11001101 1
b01000000 2
#5220000000
0'
b10100000 )
00
#5240000000
1'
10
b10011011 1
b10000000 2
#5260000000
0'
b01000000 )
00
#5280000000
1"
1'
1+
10
b00110111 1
b00000000 2
#5300000000
0!
0'
b10000000 )
0*
00
#5320000000
0"
1'
0+
10
b01101110 1
#5340000000
1!
0'
b00000000 )
1*
00
#5360000000
1'
10
b11011101 1
#5380000000
0!
0'
0*
00
#5400000000
1'
10
b10111010 1
#5420000000
b00010001 %
0'
b01110101 )
b00010001 .
00
#5440000000
b01110100 $
b0100 &
1'
b01110100 -
b0100 /
10
b01110100 1
b00010001 2
#5460000000
0'
b11101010 )
00
#5480000000
1'
10
b11101000 1
b00100010 2
#5500000000
1!
0'
b11010100 )
1*
00
#5520000000
1'
10
b11010001 1
b01000100 2
#5540000000
0'
b10101000 )
00
#5560000000
1'
10
b10100011 1
b10001000 2
#5580000000
0'
b01010000 )
00
#5600000000
1"
1'
1+
10
b01000111 1
b00010000 2
#5620000000
0!
0'
b10100000 )
0*
00
#5640000000
0"
1'
0+
10
b10001110 1
b00100000 2
#5660000000
1!
0'
b01000000 )
1*
00
#5680000000
1'
10
b00011101 1
b01000000 2
#5700000000
0!
0'
b10000000 )
0*
00
#5720000000
1'
10
b00111010 1
b10000000 2
#5740000000
1!
b00010010 %
0'
b01110110 )
1*
b00010010 .
00
#5760000000
1"
b01110101 $
b0101 &
1'
1+
b01110101 -
b0101 /
10
b01110101 1
b00010010 2
#5780000000
0!
0'
b11101100 )
0*
00
#5800000000
0"
1'
0+
10
b11101010 1
b00100100 2
#5820000000
1!
0'
b11011000 )
1*
00
#5840000000
1'
10
b11010101 1
b01001000 2
#5860000000
0'
b10110000 )
00
#5880000000
1'
10
b10101011 1
b10010000 2
#5900000000
0'
b01100000 )
00
#5920000000
1"
1'
1+
10
b01010111 1
b00100000 2
#5940000000
0!
0'
b11000000 )
0*
00
#5960000000
0"
1'
0+
10
b10101110 1
b01000000 2
#5980000000
1!
0'
b10000000 )
1*
00
#6000000000
1'
10
b01011101 1
b10000000 2
#6020000000
0'
b00000000 )
00
#6040000000
1"
1'
1+
10
b10111011 1
b00000000 2
#6060000000
0!
b00010011 %
0'
b01110111 )
0*
b00010011 .
00
#6080000000
0"
b01110110 $
b0110 &
1'
0+
b01110110 -
b0110 /
10
b01110110 1
b00010011 2
#6100000000
0'
b11101110 )
00
#6120000000
1'
10
b11101100 1
b00100110 2
#6140000000
1!
0'
b11011100 )
1*
00
#6160000000
1'
10
b11011001 1
b01001100 2
#6180000000
0'
b10111000 )
00
#6200000000
1'
10
b10110011 1
b10011000 2
#6220000000
0'
b01110000 )
00
#6240000000
1"
1'
1+
10
b01100111 1
b00110000 2
#6260000000
0!
0'
b11100000 )
0*
00
#6280000000
0"
1'
0+
10
b11001110 1
b01100000 2
#6300000000
1!
0'
b11000000 )
1*
00
#6320000000
1'
10
b10011101 1
b11000000 2
#6340000000
0'
b10000000 )
00
#6360000000
1"
1'
1+
10
b00111011 1
b10000000 2
#6380000000
b00010100 %
0'
b01111000 )
b00010100 .
00
#6400000000
b01110111 $
b0111 &
1'
b01110111 -
b0111 /
10
b01110111 1
b00010100 2
#6420000000
0!
0'
b11110000 )
0*
00
#6440000000
0"
1'
0+
10
b11101110 1
b00101000 2
#6460000000
1!
0'
b11100000 )
1*
00
#6480000000
1'
10
b11011101 1
b01010000 2
#6500000000
0'
b11000000 )
00
#6520000000
1'
10
b10111011 1
b10100000 2
#6540000000
0'
b10000000 )
00
#6560000000
1"
1'
1+
10
b01110111 1
b01000000 2
#6580000000
0'
b00000000 )
00
#6600000000
0"
1'
0+
10
b11101111 1
b10000000 2
#6620000000
0!
0'
0*
00
#6640000000
1"
1'
1+
10
b11011110 1
b00000000 2
#6660000000
0'
00
#6680000000
0"
1'
0+
10
b10111100 1
#6700000000
b00010101 %
0'
b01111001 )
b00010101 .
00
#6720000000
b01111000 $
b1000 &
1'
b01111000 -
b1000 /
10
b01111000 1
b00010101 2
#6740000000
0'
b11110010 )
00
#6760000000
1'
10
b11110000 1
b00101010 2
#6780000000
1!
0'
b11100100 )
1*
00
#6800000000
1'
10
b11100001 1
b01010100 2
#6820000000
0'
b11001000 )
00
#6840000000
1'
10
b11000011 1
b10101000 2
#6860000000
0'
b10010000 )
00
#6880000000
1"
1'
1+
10
b10000111 1
b01010000 2
#6900000000
0'
b00100000 )
00
#6920000000
0"
1'
0+
10
b00001111 1
b10100000 2
#6940000000
0!
0'
b01000000 )
0*
00
#6960000000
1"
1'
1+
10
b00011110 1
b01000000 2
#6980000000
0'
b10000000 )
00
#7000000000
0"
1'
0+
10
b00111100 1
b10000000 2
#7020000000
1!
b00010110 %
0'
b01111010 )
1*
b00010110 .
00
#7040000000
1"
b01111001 $
b1001 &
1'
1+
b01111001 -
b1001 /
10
b01111001 1
b00010110 2
#7060000000
0!
0'
b11110100 )
0*
00
#7080000000
0"
1'
0+
10
b11110010 1
b00101100 2
#7100000000
1!
0'
b11101000 )
1*
00
#7120000000
1'
10
b11100101 1
b01011000 2
#7140000000
0'
b11010000 )
00
#7160000000
1'
10
b11001011 1
b10110000 2
#7180000000
0'
b10100000 )
00
#7200000000
1"
1'
1+
10
b10010111 1
b01100000 2
#7220000000
0'
b01000000 )
00
#7240000000
0"
1'
0+
10
b00101111 1
b11000000 2
#7260000000
0!
0'
b10000000 )
0*
00
#7280000000
1"
1'
1+
10
b01011110 1
b10000000 2
#7300000000
1!
0'
b00000000 )
1*
00
#7320000000
1'
10
b10111101 1
b00000000 2
#7340000000
0!
b00010111 %
0'
b01111011 )
0*
b00010111 .
00
#7360000000
0"
b01111010 $
b1010 &
1'
0+
b01111010 -
b1010 /
10
b01111010 1
b00010111 2
#7380000000
0'
b11110110 )
00
#7400000000
1'
10
b11110100 1
b00101110 2
#7420000000
1!
0'
b11101100 )
1*
00
#7440000000
1'
10
b11101001 1
b01011100 2
#7460000000
0'
b11011000 )
00
#7480000000
1'
10
b11010011 1
b10111000 2
#7500000000
0'
b10110000 )
00
#7520000000
1"
1'
1+
10
b10100111 1
b01110000 2
#7540000000
0'
b01100000 )
00
#7560000000
0"
1'
0+
10
b01001111 1
b11100000 2
#7580000000
0!
0'
b11000000 )
0*
00
#7600000000
1"
1'
1+
10
b10011110 1
b11000000 2
#7620000000
1!
0'
b10000000 )
1*
00
#7640000000
1'
10
b00111101 1
b10000000 2
#7660000000
b00011000 %
0'
b01111100 )
b00011000 .
00
#7680000000
b01111011 $
b1011 &
1'
b01111011 -
b1011 /
10
b01111011 1
b00011000 2
#7700000000
0!
0'
b11111000 )
0*
00
#7720000000
0"
1'
0+
10
b11110110 1
b00110000 2
#7740000000
1!
0'
b11110000 )
1*
00
#7760000000
1'
10
b11101101 1
b01100000 2
#7780000000
0'
b11100000 )
00
#7800000000
1'
10
b11011011 1
b11000000 2
#7820000000
0'
b11000000 )
00
#7840000000
1"
1'
1+
10
b10110111 1
b10000000 2
#7860000000
0'
b10000000 )
00
#7880000000
1'
10
b01101111 1
b00000000 2
#7900000000
0'
b00000000 )
00
#7920000000
0"
1'
0+
10
b11011111 1
#7940000000
0!
0'
0*
00
#7960000000
1'
10
b10111110 1
#7980000000
b00011001 %
0'
b01111101 )
b00011001 .
00
#8000000000
b01111100 $
b1100 &
1'
b01111100 -
b1100 /
10
b01111100 1
b00011001 2
#8020000000
0'
b11111010 )
00
#8040000000
1'
10
b11111000 1
b00110010 2
#8060000000
1!
0'
b11110100 )
1*
00
#8080000000
1'
10
b11110001 1
b01100100 2
#8100000000
0'
b11101000 )
00
#8120000000
1'
10
b11100011 1
b11001000 2
#8140000000
0'
b11010000 )
00
#8160000000
1"
1'
1+
10
b11000111 1
b10010000 2
#8180000000
0'
b10100000 )
00
#8200000000
1'
10
b10001111 1
b00100000 2
#8220000000
0'
b01000000 )
00
#8240000000
0"
1'
0+
10
b00011111 1
b01000000 2
#8260000000
0!
0'
b10000000 )
0*
00
#8280000000
1'
10
b00111110 1
b10000000 2
#8300000000
1!
b00011010 %
0'
b01111110 )
1*
b00011010 .
00
#8320000000
1"
b01111101 $
b1101 &
1'
1+
b01111101 -
b1101 /
10
b01111101 1
b00011010 2
#8340000000
0!
0'
b11111100 )
0*
00
#8360000000
0"
1'
0+
10
b11111010 1
b00110100 2
#8380000000
1!
0'
b11111000 )
1*
00
#8400000000
1'
10
b11110101 1
b01101000 2
