sim/out.vcd
$date
  Mon Dec 30 09:28:28 2019
$end
$version
  GHDL v0
$end
$timescale
  1 fs
$end
$var reg 1 ! spi_mosi_tb $end
$var reg 1 " spi_miso_tb $end
$var reg 1 # cs_tb $end
$var reg 8 $ outdata_tb[7:0] $end
$var reg 8 % indata_tb[7:0] $end
$var reg 4 & ledsdata_tb[3:0] $end
$var reg 1 ' clk_tb $end
$var reg 1 ( rst_tb $end
$var integer 32 ) ii $end
$var reg 8 * mosidata_tb[7:0] $end
$scope module spi_inst $end
$var reg 1 + spi_mosi $end
$var reg 1 , spi_miso $end
$var reg 1 - cs $end
$var reg 8 . outdata[7:0] $end
$var reg 8 / indata[7:0] $end
$var reg 4 0 ledsdata[3:0] $end
$var reg 1 1 clk $end
$var reg 8 2 mosisignal[7:0] $end
$var reg 8 3 misosignal[7:0] $end
$upscope $end
$enddefinitions $end
#0
U!
U"
1#
bUUUUUUUU $
b00000000 %
b1UUU &
1'
0(
b0 )
b00000000 *
U+
U,
1-
bUUUUUUUU .
bUUUUUUUU /
b1UUU 0
11
b00000000 2
b00000000 3
#100000000
0#
b0UUU &
0-
b0UUU 0
bUUUUUUUU 3
#200000000
#300000000
0!
0'
b1 )
0+
01
#400000000
1'
11
#500000000
0'
b10 )
01
#600000000
1'
11
#700000000
0'
b11 )
01
#800000000
1'
11
#900000000
0'
b100 )
01
#1000000000
1'
11
#1100000000
0'
b101 )
01
#1200000000
1'
11
#1300000000
0'
b110 )
01
#1400000000
1'
11
#1500000000
0'
b111 )
01
#1600000000
1'
11
#1700000000
b00000001 %
0'
b0 )
b01100101 *
01
#1800000000
b00000000 $
b0000 &
1'
b00000000 .
b00000000 /
b0000 0
11
#1900000000
1#
b1000 &
1-
b1000 0
#2900000000
#3000000000
0#
b0000 &
0-
b0000 0
b00000000 3
#3100000000
#3200000000
0'
b1 )
b11001010 *
01
#3300000000
0"
1'
0,
11
#3400000000
1!
0'
b10 )
b10010100 *
1+
01
#3500000000
1'
11
b00000001 2
#3600000000
0'
b11 )
b00101000 *
01
#3700000000
1'
11
b00000011 2
#3800000000
0!
0'
b100 )
b01010000 *
0+
01
#3900000000
1'
11
b00000110 2
#4000000000
0'
b101 )
b10100000 *
01
#4100000000
1'
11
b00001100 2
#4200000000
1!
0'
b110 )
b01000000 *
1+
01
#4300000000
1'
11
b00011001 2
#4400000000
0!
0'
b111 )
b10000000 *
0+
01
#4500000000
1'
11
b00110010 2
#4600000000
1!
b00000010 %
0'
b0 )
b01100110 *
1+
01
#4700000000
b01100101 $
b0101 &
1'
b01100101 .
b01100101 /
b0101 0
11
b01100101 2
#4800000000
1#
b1101 &
1-
b1101 0
#5800000000
#5900000000
0#
b0101 &
0-
b0101 0
b01100101 3
#6000000000
#6100000000
0!
0'
b1 )
b11001100 *
0+
01
#6200000000
1'
11
b11001010 2
#6300000000
1!
0'
b10 )
b10011000 *
1+
01
#6400000000
1"
1'
1,
11
b10010101 2
#6500000000
0'
b11 )
b00110000 *
01
#6600000000
1'
11
b00101011 2
#6700000000
0!
0'
b100 )
b01100000 *
0+
01
#6800000000
0"
1'
0,
11
b01010110 2
#6900000000
0'
b101 )
b11000000 *
01
#7000000000
1'
11
b10101100 2
#7100000000
1!
0'
b110 )
b10000000 *
1+
01
#7200000000
1"
1'
1,
11
b01011001 2
#7300000000
0'
b111 )
b00000000 *
01
#7400000000
0"
1'
0,
11
b10110011 2
#7500000000
0!
b00000011 %
0'
b0 )
b01100111 *
0+
01
#7600000000
1"
b01100110 $
b0110 &
1'
1,
b01100110 .
b01100110 /
b0110 0
11
b01100110 2
#7700000000
1#
b1110 &
1-
b1110 0
#8700000000
#8800000000
0#
b0110 &
0-
b0110 0
b01100110 3
#8900000000
#9000000000
0'
b1 )
b11001110 *
01
#9100000000
0"
1'
0,
11
b11001100 2
#9200000000
1!
0'
b10 )
b10011100 *
1+
01
#9300000000
1"
1'
1,
11
b10011001 2
#9400000000
0'
b11 )
b00111000 *
01
#9500000000
1'
11
b00110011 2
#9600000000
0!
0'
b100 )
b01110000 *
0+
01
#9700000000
0"
1'
0,
11
b01100110 2
#9800000000
0'
b101 )
b11100000 *
01
#9900000000
1'
11
b11001100 2
#10000000000
1!
0'
b110 )
b11000000 *
1+
01
#10100000000
1"
1'
1,
11
b10011001 2
#10200000000
0'
b111 )
b10000000 *
01
#10300000000
1'
11
b00110011 2
#10400000000
b00000100 %
0'
b0 )
b01101000 *
01
#10500000000
0"
b01100111 $
b0111 &
1'
0,
b01100111 .
b01100111 /
b0111 0
11
b01100111 2
#10600000000
1#
b1111 &
1-
b1111 0
#11600000000
#11700000000
0#
b0111 &
0-
b0111 0
b01100111 3
#11800000000
#11900000000
0!
0'
b1 )
b11010000 *
0+
01
#12000000000
1'
11
b11001110 2
#12100000000
1!
0'
b10 )
b10100000 *
1+
01
#12200000000
1"
1'
1,
11
b10011101 2
#12300000000
0'
b11 )
b01000000 *
01
#12400000000
1'
11
b00111011 2
#12500000000
0!
0'
b100 )
b10000000 *
0+
01
#12600000000
0"
1'
0,
11
b01110110 2
#12700000000
1!
0'
b101 )
b00000000 *
1+
01
#12800000000
1'
11
b11101101 2
#12900000000
0!
0'
b110 )
0+
01
#13000000000
1"
1'
1,
11
b11011010 2
#13100000000
0'
b111 )
01
#13200000000
1'
11
b10110100 2
#13300000000
b00000101 %
0'
b0 )
b01101001 *
01
#13400000000
b01101000 $
b0000 &
1'
b01101000 .
b01101000 /
b0000 0
11
b01101000 2
#13500000000
1#
b1000 &
1-
b1000 0
#14500000000
#14600000000
0#
b0000 &
0-
b0000 0
b01101000 3
#14700000000
#14800000000
0'
b1 )
b11010010 *
01
#14900000000
0"
1'
0,
11
b11010000 2
#15000000000
1!
0'
b10 )
b10100100 *
1+
01
