sim/out.vcd
$date
  Thu Jan  2 17:05:48 2020
$end
$version
  GHDL v0
$end
$timescale
  1 fs
$end
$var reg 8 ! m_axis_tdata_tb[7:0] $end
$var reg 1 " m_axis_tvalid_tb $end
$var reg 1 # m_axis_tlast_tb $end
$var reg 1 $ m_axis_tready_tb $end
$var reg 8 % s_axis_tdata_tb[7:0] $end
$var reg 1 & s_axis_tvalid_tb $end
$var reg 1 ' s_axis_tlast_tb $end
$var reg 1 ( s_axis_tready_tb $end
$var reg 1 ) clk_tb $end
$var reg 1 * rst_tb $end
$scope module stretcher_inst $end
$var reg 8 + m_axis_tdata[7:0] $end
$var reg 1 , m_axis_tvalid $end
$var reg 1 - m_axis_tlast $end
$var reg 1 . m_axis_tready $end
$var reg 8 / s_axis_tdata[7:0] $end
$var reg 1 0 s_axis_tvalid $end
$var reg 1 1 s_axis_tlast $end
$var reg 1 2 s_axis_tready $end
$var reg 1 3 clk $end
$var reg 1 4 rst $end
$comment state is not handled $end
$upscope $end
$enddefinitions $end
#0
bUUUUUUUU !
U"
U#
1$
b01110111 %
1&
0'
U(
0)
0*
bUUUUUUUU +
U,
U-
1.
b01110111 /
10
01
U2
03
04
#100000000
b00000000 !
0"
0(
1)
b00000000 +
0,
02
13
#180000000
1*
14
#200000000
0)
03
#300000000
b10010101 %
1(
1)
b10010101 /
12
13
#400000000
0)
03
#500000000
b00000001 !
1"
0(
1)
b00000001 +
1,
02
13
#600000000
0)
03
#700000000
b00000000 !
1)
b00000000 +
13
#800000000
0)
03
#900000000
b00000001 !
1)
b00000001 +
13
#1000000000
0)
03
#1100000000
b00000000 !
1)
b00000000 +
13
#1200000000
0)
03
#1300000000
b00000001 !
1)
b00000001 +
13
#1400000000
0)
03
#1500000000
b00000000 !
1)
b00000000 +
13
#1600000000
0)
03
#1700000000
1)
13
#1800000000
0)
03
#1900000000
b00000001 !
1)
b00000001 +
13
#2000000000
0)
03
#2100000000
0"
1)
0,
13
#2200000000
0)
03
#2300000000
1(
1)
12
13
#2400000000
0)
03
#2500000000
1"
0(
1)
1,
02
13
#2600000000
0)
03
#2700000000
b00000000 !
1)
b00000000 +
13
#2800000000
0)
03
#2900000000
b00000001 !
1)
b00000001 +
13
#3000000000
0)
03
#3100000000
b00000000 !
1)
b00000000 +
13
#3200000000
0)
03
#3300000000
b00000001 !
1)
b00000001 +
13
#3400000000
0)
03
#3500000000
b00000000 !
1)
b00000000 +
13
#3600000000
0)
03
#3700000000
1)
13
#3800000000
0)
03
#3900000000
b00000001 !
1)
b00000001 +
13
#4000000000
0)
03
#4100000000
0"
1)
0,
13
#4200000000
0)
03
#4300000000
1(
1)
12
13
#4400000000
0)
03
#4500000000
1"
0(
1)
1,
02
13
#4600000000
0)
03
#4700000000
b00000000 !
1)
b00000000 +
13
#4800000000
0)
03
#4900000000
b00000001 !
1)
b00000001 +
13
#5000000000
0)
03
#5100000000
b00000000 !
1)
b00000000 +
13
#5200000000
0)
03
#5300000000
b00000001 !
1)
b00000001 +
13
#5400000000
0)
03
#5500000000
b00000000 !
1)
b00000000 +
13
#5600000000
0)
03
#5700000000
1)
13
#5800000000
0)
03
#5900000000
b00000001 !
1)
b00000001 +
13
#6000000000
0)
03
#6100000000
0"
1)
0,
13
#6200000000
0)
03
#6300000000
1(
1)
12
13
#6400000000
0)
03
#6500000000
1"
0(
1)
1,
02
13
#6600000000
0)
03
#6700000000
b00000000 !
1)
b00000000 +
13
#6800000000
0)
03
#6900000000
b00000001 !
1)
b00000001 +
13
#7000000000
0)
03
#7100000000
b00000000 !
1)
b00000000 +
13
#7200000000
0)
03
#7300000000
b00000001 !
1)
b00000001 +
13
#7400000000
0)
03
#7500000000
b00000000 !
1)
b00000000 +
13
#7600000000
0)
03
#7700000000
1)
13
#7800000000
0)
03
#7900000000
b00000001 !
1)
b00000001 +
13
#8000000000
0)
03
#8100000000
0"
1)
0,
13
#8200000000
0)
03
#8300000000
1(
1)
12
13
#8400000000
0)
03
#8500000000
1"
0(
1)
1,
02
13
#8600000000
0)
03
#8700000000
b00000000 !
1)
b00000000 +
13
#8800000000
0)
03
#8900000000
b00000001 !
1)
b00000001 +
13
#9000000000
0)
03
#9100000000
b00000000 !
1)
b00000000 +
13
#9200000000
0)
03
#9300000000
b00000001 !
1)
b00000001 +
13
#9400000000
0)
03
#9500000000
b00000000 !
1)
b00000000 +
13
#9600000000
0)
03
#9700000000
1)
13
#9800000000
0)
03
#9900000000
b00000001 !
1)
b00000001 +
13
#10000000000
0)
03
#10100000000
0"
1)
0,
13
#10200000000
0)
03
#10300000000
1(
1)
12
13
#10400000000
0)
03
#10500000000
1"
0(
1)
1,
02
13
#10600000000
0)
03
#10700000000
b00000000 !
1)
b00000000 +
13
#10800000000
0)
03
#10900000000
b00000001 !
1)
b00000001 +
13
#11000000000
0)
03
#11100000000
b00000000 !
1)
b00000000 +
13
#11200000000
0)
03
#11300000000
b00000001 !
1)
b00000001 +
13
#11400000000
0)
03
#11500000000
b00000000 !
1)
b00000000 +
13
#11600000000
0)
03
#11700000000
1)
13
#11800000000
0)
03
#11900000000
b00000001 !
1)
b00000001 +
13
#12000000000
0)
03
#12100000000
0"
1)
0,
13
#12200000000
0)
03
#12300000000
1(
1)
12
13
#12400000000
0)
03
#12500000000
1"
0(
1)
1,
02
13
#12600000000
0)
03
#12700000000
b00000000 !
1)
b00000000 +
13
#12800000000
0)
03
#12900000000
b00000001 !
1)
b00000001 +
13
#13000000000
0)
03
#13100000000
b00000000 !
1)
b00000000 +
13
#13200000000
0)
03
#13300000000
b00000001 !
1)
b00000001 +
13
#13400000000
0)
03
#13500000000
b00000000 !
1)
b00000000 +
13
#13600000000
0)
03
#13700000000
1)
13
#13800000000
0)
03
#13900000000
b00000001 !
1)
b00000001 +
13
#14000000000
0)
03
#14100000000
0"
1)
0,
13
#14200000000
0)
03
#14300000000
1(
1)
12
13
#14400000000
0)
03
#14500000000
1"
0(
1)
1,
02
13
#14600000000
0)
03
#14700000000
b00000000 !
1)
b00000000 +
13
#14800000000
0)
03
#14900000000
b00000001 !
1)
b00000001 +
13
#15000000000
0)
03
#15100000000
b00000000 !
1)
b00000000 +
13
#15200000000
0)
03
#15300000000
b00000001 !
1)
b00000001 +
13
#15400000000
0)
03
#15500000000
b00000000 !
1)
b00000000 +
13
#15600000000
0)
03
#15700000000
1)
13
#15800000000
0)
03
#15900000000
b00000001 !
1)
b00000001 +
13
#16000000000
0)
03
#16100000000
0"
1)
0,
13
#16200000000
0)
03
#16300000000
1(
1)
12
13
#16400000000
0)
03
#16500000000
1"
0(
1)
1,
02
13
#16600000000
0)
03
#16700000000
b00000000 !
1)
b00000000 +
13
#16800000000
0)
03
#16900000000
b00000001 !
1)
b00000001 +
13
#17000000000
0)
03
#17100000000
b00000000 !
1)
b00000000 +
13
#17200000000
0)
03
#17300000000
b00000001 !
1)
b00000001 +
13
#17400000000
0)
03
#17500000000
b00000000 !
1)
b00000000 +
13
#17600000000
0)
03
#17700000000
1)
13
#17800000000
0)
03
#17900000000
b00000001 !
1)
b00000001 +
13
#18000000000
0)
03
#18100000000
0"
1)
0,
13
#18200000000
0)
03
#18300000000
1(
1)
12
13
#18400000000
0)
03
#18500000000
1"
0(
1)
1,
02
13
#18600000000
0)
03
#18700000000
b00000000 !
1)
b00000000 +
13
#18800000000
0)
03
#18900000000
b00000001 !
1)
b00000001 +
13
#19000000000
0)
03
#19100000000
b00000000 !
1)
b00000000 +
13
#19200000000
0)
03
#19300000000
b00000001 !
1)
b00000001 +
13
#19400000000
0)
03
#19500000000
b00000000 !
1)
b00000000 +
13
#19600000000
0)
03
#19700000000
1)
13
#19800000000
0)
03
#19900000000
b00000001 !
1)
b00000001 +
13
#20000000000
0)
03
#20100000000
0"
1)
0,
13
#20200000000
0)
03
#20300000000
1(
1)
12
13
#20400000000
0)
03
#20500000000
1"
0(
1)
1,
02
13
#20600000000
0)
03
#20700000000
b00000000 !
1)
b00000000 +
13
#20800000000
0)
03
#20900000000
b00000001 !
1)
b00000001 +
13
#21000000000
0)
03
#21100000000
b00000000 !
1)
b00000000 +
13
#21200000000
0)
03
#21300000000
b00000001 !
1)
b00000001 +
13
#21400000000
0)
03
#21500000000
b00000000 !
1)
b00000000 +
13
#21600000000
0)
03
#21700000000
1)
13
#21800000000
0)
03
#21900000000
b00000001 !
1)
b00000001 +
13
#22000000000
0)
03
#22100000000
0"
1)
0,
13
#22200000000
0)
03
#22300000000
1(
1)
12
13
#22400000000
0)
03
#22500000000
1"
0(
1)
1,
02
13
#22600000000
0)
03
#22700000000
b00000000 !
1)
b00000000 +
13
#22800000000
0)
03
#22900000000
b00000001 !
1)
b00000001 +
13
#23000000000
0)
03
#23100000000
b00000000 !
1)
b00000000 +
13
#23200000000
0)
03
#23300000000
b00000001 !
1)
b00000001 +
13
#23400000000
0)
03
#23500000000
b00000000 !
1)
b00000000 +
13
#23600000000
0)
03
#23700000000
1)
13
#23800000000
0)
03
#23900000000
b00000001 !
1)
b00000001 +
13
#24000000000
0)
03
#24100000000
0"
1)
0,
13
#24200000000
0)
03
#24300000000
1(
1)
12
13
#24400000000
0)
03
#24500000000
1"
0(
1)
1,
02
13
#24600000000
0)
03
#24700000000
b00000000 !
1)
b00000000 +
13
#24800000000
0)
03
#24900000000
b00000001 !
1)
b00000001 +
13
#25000000000
0)
03
#25100000000
b00000000 !
1)
b00000000 +
13
#25200000000
0)
03
#25300000000
b00000001 !
1)
b00000001 +
13
#25400000000
0)
03
#25500000000
b00000000 !
1)
b00000000 +
13
#25600000000
0)
03
#25700000000
1)
13
#25800000000
0)
03
#25900000000
b00000001 !
1)
b00000001 +
13
#26000000000
0)
03
#26100000000
0"
1)
0,
13
#26200000000
0)
03
#26300000000
1(
1)
12
13
#26400000000
0)
03
#26500000000
1"
0(
1)
1,
02
13
#26600000000
0)
03
#26700000000
b00000000 !
1)
b00000000 +
13
#26800000000
0)
03
#26900000000
b00000001 !
1)
b00000001 +
13
#27000000000
0)
03
#27100000000
b00000000 !
1)
b00000000 +
13
#27200000000
0)
03
#27300000000
b00000001 !
1)
b00000001 +
13
#27400000000
0)
03
#27500000000
b00000000 !
1)
b00000000 +
13
#27600000000
0)
03
#27700000000
1)
13
#27800000000
0)
03
#27900000000
b00000001 !
1)
b00000001 +
13
#28000000000
0)
03
#28100000000
0"
1)
0,
13
#28200000000
0)
03
#28300000000
1(
1)
12
13
#28400000000
0)
03
#28500000000
1"
0(
1)
1,
02
13
#28600000000
0)
03
#28700000000
b00000000 !
1)
b00000000 +
13
#28800000000
0)
03
#28900000000
b00000001 !
1)
b00000001 +
13
#29000000000
0)
03
#29100000000
b00000000 !
1)
b00000000 +
13
#29200000000
0)
03
#29300000000
b00000001 !
1)
b00000001 +
13
#29400000000
0)
03
#29500000000
b00000000 !
1)
b00000000 +
13
#29600000000
0)
03
#29700000000
1)
13
#29800000000
0)
03
#29900000000
b00000001 !
1)
b00000001 +
13
#30000000000
0)
03
#30100000000
0"
1)
0,
13
#30200000000
0)
03
#30300000000
1(
1)
12
13
#30400000000
0)
03
#30500000000
1"
0(
1)
1,
02
13
#30600000000
0)
03
#30700000000
b00000000 !
1)
b00000000 +
13
#30800000000
0)
03
#30900000000
b00000001 !
1)
b00000001 +
13
#31000000000
0)
03
#31100000000
b00000000 !
1)
b00000000 +
13
#31200000000
0)
03
#31300000000
b00000001 !
1)
b00000001 +
13
#31400000000
0)
03
#31500000000
b00000000 !
1)
b00000000 +
13
#31600000000
0)
03
#31700000000
1)
13
#31800000000
0)
03
#31900000000
b00000001 !
1)
b00000001 +
13
#32000000000
0)
03
#32100000000
0"
1)
0,
13
#32200000000
0)
03
#32300000000
1(
1)
12
13
#32400000000
0)
03
#32500000000
1"
0(
1)
1,
02
13
#32600000000
0)
03
#32700000000
b00000000 !
1)
b00000000 +
13
#32800000000
0)
03
#32900000000
b00000001 !
1)
b00000001 +
13
#33000000000
0)
03
#33100000000
b00000000 !
1)
b00000000 +
13
#33200000000
0)
03
#33300000000
b00000001 !
1)
b00000001 +
13
#33400000000
0)
03
#33500000000
b00000000 !
1)
b00000000 +
13
#33600000000
0)
03
#33700000000
1)
13
#33800000000
0)
03
#33900000000
b00000001 !
1)
b00000001 +
13
#34000000000
0)
03
#34100000000
0"
1)
0,
13
#34200000000
0)
03
#34300000000
1(
1)
12
13
#34400000000
0)
03
#34500000000
1"
0(
1)
1,
02
13
#34600000000
0)
03
#34700000000
b00000000 !
1)
b00000000 +
13
#34800000000
0)
03
#34900000000
b00000001 !
1)
b00000001 +
13
#35000000000
0)
03
#35100000000
b00000000 !
1)
b00000000 +
13
#35200000000
0)
03
#35300000000
b00000001 !
1)
b00000001 +
13
#35400000000
0)
03
#35500000000
b00000000 !
1)
b00000000 +
13
#35600000000
0)
03
#35700000000
1)
13
#35800000000
0)
03
#35900000000
b00000001 !
1)
b00000001 +
13
#36000000000
0)
03
#36100000000
0"
1)
0,
13
#36200000000
0)
03
#36300000000
1(
1)
12
13
#36400000000
0)
03
#36500000000
1"
0(
1)
1,
02
13
#36600000000
0)
03
#36700000000
b00000000 !
1)
b00000000 +
13
#36800000000
0)
03
#36900000000
b00000001 !
1)
b00000001 +
13
#37000000000
0)
03
#37100000000
b00000000 !
1)
b00000000 +
13
#37200000000
0)
03
#37300000000
b00000001 !
1)
b00000001 +
13
#37400000000
0)
03
#37500000000
b00000000 !
1)
b00000000 +
13
#37600000000
0)
03
#37700000000
1)
13
#37800000000
0)
03
#37900000000
b00000001 !
1)
b00000001 +
13
#38000000000
0)
03
#38100000000
0"
1)
0,
13
#38200000000
0)
03
#38300000000
1(
1)
12
13
#38400000000
0)
03
#38500000000
1"
0(
1)
1,
02
13
#38600000000
0)
03
#38700000000
b00000000 !
1)
b00000000 +
13
#38800000000
0)
03
#38900000000
b00000001 !
1)
b00000001 +
13
#39000000000
0)
03
#39100000000
b00000000 !
1)
b00000000 +
13
#39200000000
0)
03
#39300000000
b00000001 !
1)
b00000001 +
13
#39400000000
0)
03
#39500000000
b00000000 !
1)
b00000000 +
13
#39600000000
0)
03
#39700000000
1)
13
#39800000000
0)
03
#39900000000
b00000001 !
1)
b00000001 +
13
#40000000000
0)
03
#40100000000
0"
1)
0,
13
#40200000000
0)
03
#40300000000
1(
1)
12
13
#40400000000
0)
03
#40500000000
1"
0(
1)
1,
02
13
#40600000000
0)
03
#40700000000
b00000000 !
1)
b00000000 +
13
#40800000000
0)
03
#40900000000
b00000001 !
1)
b00000001 +
13
#41000000000
0)
03
#41100000000
b00000000 !
1)
b00000000 +
13
#41200000000
0)
03
#41300000000
b00000001 !
1)
b00000001 +
13
#41400000000
0)
03
#41500000000
b00000000 !
1)
b00000000 +
13
#41600000000
0)
03
#41700000000
1)
13
#41800000000
0)
03
#41900000000
b00000001 !
1)
b00000001 +
13
#42000000000
0)
03
#42100000000
0"
1)
0,
13
#42200000000
0)
03
#42300000000
1(
1)
12
13
#42400000000
0)
03
#42500000000
1"
0(
1)
1,
02
13
#42600000000
0)
03
#42700000000
b00000000 !
1)
b00000000 +
13
#42800000000
0)
03
#42900000000
b00000001 !
1)
b00000001 +
13
#43000000000
0)
03
#43100000000
b00000000 !
1)
b00000000 +
13
#43200000000
0)
03
#43300000000
b00000001 !
1)
b00000001 +
13
#43400000000
0)
03
#43500000000
b00000000 !
1)
b00000000 +
13
#43600000000
0)
03
#43700000000
1)
13
#43800000000
0)
03
#43900000000
b00000001 !
1)
b00000001 +
13
#44000000000
0)
03
#44100000000
0"
1)
0,
13
#44200000000
0)
03
#44300000000
1(
1)
12
13
#44400000000
0)
03
#44500000000
1"
0(
1)
1,
02
13
#44600000000
0)
03
#44700000000
b00000000 !
1)
b00000000 +
13
#44800000000
0)
03
#44900000000
b00000001 !
1)
b00000001 +
13
#45000000000
0)
03
#45100000000
b00000000 !
1)
b00000000 +
13
#45200000000
0)
03
#45300000000
b00000001 !
1)
b00000001 +
13
#45400000000
0)
03
#45500000000
b00000000 !
1)
b00000000 +
13
#45600000000
0)
03
#45700000000
1)
13
#45800000000
0)
03
#45900000000
b00000001 !
1)
b00000001 +
13
#46000000000
0)
03
#46100000000
0"
1)
0,
13
#46200000000
0)
03
#46300000000
1(
1)
12
13
#46400000000
0)
03
#46500000000
1"
0(
1)
1,
02
13
#46600000000
0)
03
#46700000000
b00000000 !
1)
b00000000 +
13
#46800000000
0)
03
#46900000000
b00000001 !
1)
b00000001 +
13
#47000000000
0)
03
#47100000000
b00000000 !
1)
b00000000 +
13
#47200000000
0)
03
#47300000000
b00000001 !
1)
b00000001 +
13
#47400000000
0)
03
#47500000000
b00000000 !
1)
b00000000 +
13
#47600000000
0)
03
#47700000000
1)
13
#47800000000
0)
03
#47900000000
b00000001 !
1)
b00000001 +
13
#48000000000
0)
03
#48100000000
0"
1)
0,
13
#48200000000
0)
03
#48300000000
1(
1)
12
13
#48400000000
0)
03
#48500000000
1"
0(
1)
1,
02
13
#48600000000
0)
03
#48700000000
b00000000 !
1)
b00000000 +
13
#48800000000
0)
03
#48900000000
b00000001 !
1)
b00000001 +
13
#49000000000
0)
03
#49100000000
b00000000 !
1)
b00000000 +
13
#49200000000
0)
03
#49300000000
b00000001 !
1)
b00000001 +
13
#49400000000
0)
03
#49500000000
b00000000 !
1)
b00000000 +
13
#49600000000
0)
03
#49700000000
1)
13
#49800000000
0)
03
#49900000000
b00000001 !
1)
b00000001 +
13
#50000000000
0)
03
#50100000000
0"
1)
0,
13
#50200000000
0)
03
#50300000000
1(
1)
12
13
#50400000000
0)
03
#50500000000
1"
0(
1)
1,
02
13
#50600000000
0)
03
#50700000000
b00000000 !
1)
b00000000 +
13
#50800000000
0)
03
#50900000000
b00000001 !
1)
b00000001 +
13
#51000000000
0)
03
#51100000000
b00000000 !
1)
b00000000 +
13
#51200000000
0)
03
#51300000000
b00000001 !
1)
b00000001 +
13
#51400000000
0)
03
#51500000000
b00000000 !
1)
b00000000 +
13
#51600000000
0)
03
#51700000000
1)
13
#51800000000
0)
03
#51900000000
b00000001 !
1)
b00000001 +
13
#52000000000
0)
03
#52100000000
0"
1)
0,
13
#52200000000
0)
03
#52300000000
1(
1)
12
13
#52400000000
0)
03
#52500000000
1"
0(
1)
1,
02
13
#52600000000
0)
03
#52700000000
b00000000 !
1)
b00000000 +
13
#52800000000
0)
03
#52900000000
b00000001 !
1)
b00000001 +
13
#53000000000
0)
03
#53100000000
b00000000 !
1)
b00000000 +
13
#53200000000
0)
03
#53300000000
b00000001 !
1)
b00000001 +
13
#53400000000
0)
03
#53500000000
b00000000 !
1)
b00000000 +
13
#53600000000
0)
03
#53700000000
1)
13
#53800000000
0)
03
#53900000000
b00000001 !
1)
b00000001 +
13
#54000000000
0)
03
#54100000000
0"
1)
0,
13
#54200000000
0)
03
#54300000000
1(
1)
12
13
#54400000000
0)
03
#54500000000
1"
0(
1)
1,
02
13
#54600000000
0)
03
#54700000000
b00000000 !
1)
b00000000 +
13
#54800000000
0)
03
#54900000000
b00000001 !
1)
b00000001 +
13
#55000000000
0)
03
#55100000000
b00000000 !
1)
b00000000 +
13
#55200000000
0)
03
#55300000000
b00000001 !
1)
b00000001 +
13
#55400000000
0)
03
#55500000000
b00000000 !
1)
b00000000 +
13
#55600000000
0)
03
#55700000000
1)
13
#55800000000
0)
03
#55900000000
b00000001 !
1)
b00000001 +
13
#56000000000
0)
03
#56100000000
0"
1)
0,
13
#56200000000
0)
03
#56300000000
1(
1)
12
13
#56400000000
0)
03
#56500000000
1"
0(
1)
1,
02
13
#56600000000
0)
03
#56700000000
b00000000 !
1)
b00000000 +
13
#56800000000
0)
03
#56900000000
b00000001 !
1)
b00000001 +
13
#57000000000
0)
03
#57100000000
b00000000 !
1)
b00000000 +
13
#57200000000
0)
03
#57300000000
b00000001 !
1)
b00000001 +
13
#57400000000
0)
03
#57500000000
b00000000 !
1)
b00000000 +
13
#57600000000
0)
03
#57700000000
1)
13
#57800000000
0)
03
#57900000000
b00000001 !
1)
b00000001 +
13
#58000000000
0)
03
#58100000000
0"
1)
0,
13
#58200000000
0)
03
#58300000000
1(
1)
12
13
#58400000000
0)
03
#58500000000
1"
0(
1)
1,
02
13
#58600000000
0)
03
#58700000000
b00000000 !
1)
b00000000 +
13
#58800000000
0)
03
#58900000000
b00000001 !
1)
b00000001 +
13
#59000000000
0)
03
#59100000000
b00000000 !
1)
b00000000 +
13
#59200000000
0)
03
#59300000000
b00000001 !
1)
b00000001 +
13
#59400000000
0)
03
#59500000000
b00000000 !
1)
b00000000 +
13
#59600000000
0)
03
#59700000000
1)
13
#59800000000
0)
03
#59900000000
b00000001 !
1)
b00000001 +
13
#60000000000
0)
03
#60100000000
0"
1)
0,
13
#60200000000
0)
03
#60300000000
1(
1)
12
13
#60400000000
0)
03
#60500000000
1"
0(
1)
1,
02
13
#60600000000
0)
03
#60700000000
b00000000 !
1)
b00000000 +
13
#60800000000
0)
03
#60900000000
b00000001 !
1)
b00000001 +
13
#61000000000
0)
03
#61100000000
b00000000 !
1)
b00000000 +
13
#61200000000
0)
03
#61300000000
b00000001 !
1)
b00000001 +
13
#61400000000
0)
03
#61500000000
b00000000 !
1)
b00000000 +
13
#61600000000
0)
03
#61700000000
1)
13
#61800000000
0)
03
#61900000000
b00000001 !
1)
b00000001 +
13
#62000000000
0)
03
#62100000000
0"
1)
0,
13
#62200000000
0)
03
#62300000000
1(
1)
12
13
#62400000000
0)
03
#62500000000
1"
0(
1)
1,
02
13
#62600000000
0)
03
#62700000000
b00000000 !
1)
b00000000 +
13
#62800000000
0)
03
#62900000000
b00000001 !
1)
b00000001 +
13
#63000000000
0)
03
#63100000000
b00000000 !
1)
b00000000 +
13
#63200000000
0)
03
#63300000000
b00000001 !
1)
b00000001 +
13
#63400000000
0)
03
#63500000000
b00000000 !
1)
b00000000 +
13
#63600000000
0)
03
#63700000000
1)
13
#63800000000
0)
03
#63900000000
b00000001 !
1)
b00000001 +
13
#64000000000
0)
03
#64100000000
0"
1)
0,
13
#64200000000
0)
03
#64300000000
1(
1)
12
13
#64400000000
0)
03
#64500000000
1"
0(
1)
1,
02
13
#64600000000
0)
03
#64700000000
b00000000 !
1)
b00000000 +
13
#64800000000
0)
03
#64900000000
b00000001 !
1)
b00000001 +
13
#65000000000
0)
03
#65100000000
b00000000 !
1)
b00000000 +
13
#65200000000
0)
03
#65300000000
b00000001 !
1)
b00000001 +
13
#65400000000
0)
03
#65500000000
b00000000 !
1)
b00000000 +
13
#65600000000
0)
03
#65700000000
1)
13
#65800000000
0)
03
#65900000000
b00000001 !
1)
b00000001 +
13
#66000000000
0)
03
#66100000000
0"
1)
0,
13
#66200000000
0)
03
#66300000000
1(
1)
12
13
#66400000000
0)
03
#66500000000
1"
0(
1)
1,
02
13
#66600000000
0)
03
#66700000000
b00000000 !
1)
b00000000 +
13
#66800000000
0)
03
#66900000000
b00000001 !
1)
b00000001 +
13
#67000000000
0)
03
#67100000000
b00000000 !
1)
b00000000 +
13
#67200000000
0)
03
#67300000000
b00000001 !
1)
b00000001 +
13
#67400000000
0)
03
#67500000000
b00000000 !
1)
b00000000 +
13
#67600000000
0)
03
#67700000000
1)
13
#67800000000
0)
03
#67900000000
b00000001 !
1)
b00000001 +
13
#68000000000
0)
03
#68100000000
0"
1)
0,
13
#68200000000
0)
03
#68300000000
1(
1)
12
13
#68400000000
0)
03
#68500000000
1"
0(
1)
1,
02
13
#68600000000
0)
03
#68700000000
b00000000 !
1)
b00000000 +
13
#68800000000
0)
03
#68900000000
b00000001 !
1)
b00000001 +
13
#69000000000
0)
03
#69100000000
b00000000 !
1)
b00000000 +
13
#69200000000
0)
03
#69300000000
b00000001 !
1)
b00000001 +
13
#69400000000
0)
03
#69500000000
b00000000 !
1)
b00000000 +
13
#69600000000
0)
03
#69700000000
1)
13
#69800000000
0)
03
#69900000000
b00000001 !
1)
b00000001 +
13
#70000000000
0)
03
#70100000000
0"
1)
0,
13
#70200000000
0)
03
#70300000000
1(
1)
12
13
#70400000000
0)
03
#70500000000
1"
0(
1)
1,
02
13
#70600000000
0)
03
#70700000000
b00000000 !
1)
b00000000 +
13
#70800000000
0)
03
#70900000000
b00000001 !
1)
b00000001 +
13
#71000000000
0)
03
#71100000000
b00000000 !
1)
b00000000 +
13
#71200000000
0)
03
#71300000000
b00000001 !
1)
b00000001 +
13
#71400000000
0)
03
#71500000000
b00000000 !
1)
b00000000 +
13
#71600000000
0)
03
#71700000000
1)
13
#71800000000
0)
03
#71900000000
b00000001 !
1)
b00000001 +
13
#72000000000
0)
03
#72100000000
0"
1)
0,
13
#72200000000
0)
03
#72300000000
1(
1)
12
13
#72400000000
0)
03
#72500000000
1"
0(
1)
1,
02
13
#72600000000
0)
03
#72700000000
b00000000 !
1)
b00000000 +
13
#72800000000
0)
03
#72900000000
b00000001 !
1)
b00000001 +
13
#73000000000
0)
03
#73100000000
b00000000 !
1)
b00000000 +
13
#73200000000
0)
03
#73300000000
b00000001 !
1)
b00000001 +
13
#73400000000
0)
03
#73500000000
b00000000 !
1)
b00000000 +
13
#73600000000
0)
03
#73700000000
1)
13
#73800000000
0)
03
#73900000000
b00000001 !
1)
b00000001 +
13
#74000000000
0)
03
#74100000000
0"
1)
0,
13
#74200000000
0)
03
#74300000000
1(
1)
12
13
#74400000000
0)
03
#74500000000
1"
0(
1)
1,
02
13
#74600000000
0)
03
#74700000000
b00000000 !
1)
b00000000 +
13
#74800000000
0)
03
#74900000000
b00000001 !
1)
b00000001 +
13
#75000000000
0)
03
#75100000000
b00000000 !
1)
b00000000 +
13
#75200000000
0)
03
#75300000000
b00000001 !
1)
b00000001 +
13
#75400000000
0)
03
#75500000000
b00000000 !
1)
b00000000 +
13
#75600000000
0)
03
#75700000000
1)
13
#75800000000
0)
03
#75900000000
b00000001 !
1)
b00000001 +
13
#76000000000
0)
03
#76100000000
0"
1)
0,
13
#76200000000
0)
03
#76300000000
1(
1)
12
13
#76400000000
0)
03
#76500000000
1"
0(
1)
1,
02
13
#76600000000
0)
03
#76700000000
b00000000 !
1)
b00000000 +
13
#76800000000
0)
03
#76900000000
b00000001 !
1)
b00000001 +
13
#77000000000
0)
03
#77100000000
b00000000 !
1)
b00000000 +
13
#77200000000
0)
03
#77300000000
b00000001 !
1)
b00000001 +
13
#77400000000
0)
03
#77500000000
b00000000 !
1)
b00000000 +
13
#77600000000
0)
03
#77700000000
1)
13
#77800000000
0)
03
#77900000000
b00000001 !
1)
b00000001 +
13
#78000000000
0)
03
#78100000000
0"
1)
0,
13
#78200000000
0)
03
#78300000000
1(
1)
12
13
#78400000000
0)
03
#78500000000
1"
0(
1)
1,
02
13
#78600000000
0)
03
#78700000000
b00000000 !
1)
b00000000 +
13
#78800000000
0)
03
#78900000000
b00000001 !
1)
b00000001 +
13
#79000000000
0)
03
#79100000000
b00000000 !
1)
b00000000 +
13
#79200000000
0)
03
#79300000000
b00000001 !
1)
b00000001 +
13
#79400000000
0)
03
#79500000000
b00000000 !
1)
b00000000 +
13
#79600000000
0)
03
#79700000000
1)
13
#79800000000
0)
03
#79900000000
b00000001 !
1)
b00000001 +
13
#80000000000
0)
03
#80100000000
0"
1)
0,
13
#80200000000
0)
03
#80300000000
1(
1)
12
13
#80400000000
0)
03
#80500000000
1"
0(
1)
1,
02
13
#80600000000
0)
03
#80700000000
b00000000 !
1)
b00000000 +
13
#80800000000
0)
03
#80900000000
b00000001 !
1)
b00000001 +
13
#81000000000
0)
03
#81100000000
b00000000 !
1)
b00000000 +
13
#81200000000
0)
03
#81300000000
b00000001 !
1)
b00000001 +
13
#81400000000
0)
03
#81500000000
b00000000 !
1)
b00000000 +
13
#81600000000
0)
03
#81700000000
1)
13
#81800000000
0)
03
#81900000000
b00000001 !
1)
b00000001 +
13
#82000000000
0)
03
#82100000000
0"
1)
0,
13
#82200000000
0)
03
#82300000000
1(
1)
12
13
#82400000000
0)
03
#82500000000
1"
0(
1)
1,
02
13
#82600000000
0)
03
#82700000000
b00000000 !
1)
b00000000 +
13
#82800000000
0)
03
#82900000000
b00000001 !
1)
b00000001 +
13
#83000000000
0)
03
#83100000000
b00000000 !
1)
b00000000 +
13
#83200000000
0)
03
#83300000000
b00000001 !
1)
b00000001 +
13
#83400000000
0)
03
#83500000000
b00000000 !
1)
b00000000 +
13
#83600000000
0)
03
#83700000000
1)
13
#83800000000
0)
03
#83900000000
b00000001 !
1)
b00000001 +
13
#84000000000
0)
03
#84100000000
0"
1)
0,
13
#84200000000
0)
03
#84300000000
1(
1)
12
13
#84400000000
0)
03
#84500000000
1"
0(
1)
1,
02
13
#84600000000
0)
03
#84700000000
b00000000 !
1)
b00000000 +
13
#84800000000
0)
03
#84900000000
b00000001 !
1)
b00000001 +
13
#85000000000
0)
03
#85100000000
b00000000 !
1)
b00000000 +
13
#85200000000
0)
03
#85300000000
b00000001 !
1)
b00000001 +
13
#85400000000
0)
03
#85500000000
b00000000 !
1)
b00000000 +
13
#85600000000
0)
03
#85700000000
1)
13
#85800000000
0)
03
#85900000000
b00000001 !
1)
b00000001 +
13
#86000000000
0)
03
#86100000000
0"
1)
0,
13
#86200000000
0)
03
#86300000000
1(
1)
12
13
#86400000000
0)
03
#86500000000
1"
0(
1)
1,
02
13
#86600000000
0)
03
#86700000000
b00000000 !
1)
b00000000 +
13
#86800000000
0)
03
#86900000000
b00000001 !
1)
b00000001 +
13
#87000000000
0)
03
#87100000000
b00000000 !
1)
b00000000 +
13
#87200000000
0)
03
#87300000000
b00000001 !
1)
b00000001 +
13
#87400000000
0)
03
#87500000000
b00000000 !
1)
b00000000 +
13
#87600000000
0)
03
#87700000000
1)
13
#87800000000
0)
03
#87900000000
b00000001 !
1)
b00000001 +
13
#88000000000
0)
03
