sim/out.vcd
$date
  Thu Jan  9 19:25:27 2020
$end
$version
  GHDL v0
$end
$timescale
  1 fs
$end
$comment state is not handled $end
$var reg 1 ! clk_tb $end
$var reg 1 " rst_tb $end
$var reg 8 # m1_axis_tdata[7:0] $end
$var reg 1 $ m1_axis_tvalid $end
$var reg 1 % m1_axis_tlast $end
$var reg 1 & m1_axis_tready $end
$var reg 8 ' s1_axis_tdata[7:0] $end
$var reg 1 ( s1_axis_tvalid $end
$var reg 1 ) s1_axis_tlast $end
$var reg 1 * s1_axis_tready $end
$var reg 8 + axis2_tdata[7:0] $end
$var reg 1 , axis2_tvalid $end
$var reg 1 - axis2_tlast $end
$var reg 1 . axis2_tready $end
$var reg 8 / axis3_tdata[7:0] $end
$var reg 1 0 axis3_tvalid $end
$var reg 1 1 axis3_tlast $end
$var reg 1 2 axis3_tready $end
$var reg 8 3 axis4_tdata[7:0] $end
$var reg 1 4 axis4_tvalid $end
$var reg 1 5 axis4_tlast $end
$var reg 1 6 axis4_tready $end
$var reg 8 7 axiso_tdata[7:0] $end
$var reg 1 8 axiso_tvalid $end
$var reg 1 9 axiso_tlast $end
$var reg 1 : axiso_tready $end
$scope module mapper_inst $end
$var reg 8 ; m_axis_tdata[7:0] $end
$var reg 1 < m_axis_tvalid $end
$var reg 1 = m_axis_tlast $end
$var reg 1 > m_axis_tready $end
$var reg 8 ? s_axis_tdata[7:0] $end
$var reg 1 @ s_axis_tvalid $end
$var reg 1 A s_axis_tlast $end
$var reg 1 B s_axis_tready $end
$var reg 1 C clk $end
$var reg 1 D rst $end
$comment state is not handled $end
$upscope $end
$scope module cordic_inst $end
$var reg 8 E m_axis_tdata[7:0] $end
$var reg 1 F m_axis_tvalid $end
$var reg 1 G m_axis_tlast $end
$var reg 1 H m_axis_tready $end
$var reg 8 I s_axis_tdata[7:0] $end
$var reg 1 J s_axis_tvalid $end
$var reg 1 K s_axis_tlast $end
$var reg 1 L s_axis_tready $end
$var reg 1 M clk $end
$var reg 1 N rst $end
$comment state is not handled $end
$comment xydata is not handled $end
$var reg 1 O clockwise $end
$var reg 16 P angle[15:0] $end
$var reg 11 Q validw[10:0] $end
$var reg 11 R readyw[10:0] $end
$var reg 11 S inv[10:0] $end
$comment wirex is not handled $end
$comment wirey is not handled $end
$comment wirez is not handled $end
$comment wirelut is not handled $end
$comment atanlut is not handled $end
$scope module connection_instance(0) $end
$scope module iteration $end
$var reg 16 T m_datax[15:0] $end
$var reg 16 U m_datay[15:0] $end
$var reg 16 V m_dataz[15:0] $end
$var reg 1 W m_valid $end
$var reg 1 X m_inv $end
$var reg 1 Y m_ready $end
$var reg 16 Z s_datax[15:0] $end
$var reg 16 [ s_datay[15:0] $end
$var reg 16 \ s_dataz[15:0] $end
$var reg 16 ] s_datat[15:0] $end
$var reg 1 ^ s_valid $end
$var reg 1 _ s_ready $end
$var reg 1 ` s_inv $end
$var reg 1 a clk $end
$var reg 1 b rst $end
$comment state is not handled $end
$upscope $end
$upscope $end
$scope module connection_instance(1) $end
$scope module iteration $end
$var reg 16 c m_datax[15:0] $end
$var reg 16 d m_datay[15:0] $end
$var reg 16 e m_dataz[15:0] $end
$var reg 1 f m_valid $end
$var reg 1 g m_inv $end
$var reg 1 h m_ready $end
$var reg 16 i s_datax[15:0] $end
$var reg 16 j s_datay[15:0] $end
$var reg 16 k s_dataz[15:0] $end
$var reg 16 l s_datat[15:0] $end
$var reg 1 m s_valid $end
$var reg 1 n s_ready $end
$var reg 1 o s_inv $end
$var reg 1 p clk $end
$var reg 1 q rst $end
$comment state is not handled $end
$upscope $end
$upscope $end
$scope module connection_instance(2) $end
$scope module iteration $end
$var reg 16 r m_datax[15:0] $end
$var reg 16 s m_datay[15:0] $end
$var reg 16 t m_dataz[15:0] $end
$var reg 1 u m_valid $end
$var reg 1 v m_inv $end
$var reg 1 w m_ready $end
$var reg 16 x s_datax[15:0] $end
$var reg 16 y s_datay[15:0] $end
$var reg 16 z s_dataz[15:0] $end
$var reg 16 { s_datat[15:0] $end
$var reg 1 | s_valid $end
$var reg 1 } s_ready $end
$var reg 1 !" s_inv $end
$var reg 1 "" clk $end
$var reg 1 #" rst $end
$comment state is not handled $end
$upscope $end
$upscope $end
$scope module connection_instance(3) $end
$scope module iteration $end
$var reg 16 $" m_datax[15:0] $end
$var reg 16 %" m_datay[15:0] $end
$var reg 16 &" m_dataz[15:0] $end
$var reg 1 '" m_valid $end
$var reg 1 (" m_inv $end
$var reg 1 )" m_ready $end
$var reg 16 *" s_datax[15:0] $end
$var reg 16 +" s_datay[15:0] $end
$var reg 16 ," s_dataz[15:0] $end
$var reg 16 -" s_datat[15:0] $end
$var reg 1 ." s_valid $end
$var reg 1 /" s_ready $end
$var reg 1 0" s_inv $end
$var reg 1 1" clk $end
$var reg 1 2" rst $end
$comment state is not handled $end
$upscope $end
$upscope $end
$scope module connection_instance(4) $end
$scope module iteration $end
$var reg 16 3" m_datax[15:0] $end
$var reg 16 4" m_datay[15:0] $end
$var reg 16 5" m_dataz[15:0] $end
$var reg 1 6" m_valid $end
$var reg 1 7" m_inv $end
$var reg 1 8" m_ready $end
$var reg 16 9" s_datax[15:0] $end
$var reg 16 :" s_datay[15:0] $end
$var reg 16 ;" s_dataz[15:0] $end
$var reg 16 <" s_datat[15:0] $end
$var reg 1 =" s_valid $end
$var reg 1 >" s_ready $end
$var reg 1 ?" s_inv $end
$var reg 1 @" clk $end
$var reg 1 A" rst $end
$comment state is not handled $end
$upscope $end
$upscope $end
$scope module connection_instance(5) $end
$scope module iteration $end
$var reg 16 B" m_datax[15:0] $end
$var reg 16 C" m_datay[15:0] $end
$var reg 16 D" m_dataz[15:0] $end
$var reg 1 E" m_valid $end
$var reg 1 F" m_inv $end
$var reg 1 G" m_ready $end
$var reg 16 H" s_datax[15:0] $end
$var reg 16 I" s_datay[15:0] $end
$var reg 16 J" s_dataz[15:0] $end
$var reg 16 K" s_datat[15:0] $end
$var reg 1 L" s_valid $end
$var reg 1 M" s_ready $end
$var reg 1 N" s_inv $end
$var reg 1 O" clk $end
$var reg 1 P" rst $end
$comment state is not handled $end
$upscope $end
$upscope $end
$scope module connection_instance(6) $end
$scope module iteration $end
$var reg 16 Q" m_datax[15:0] $end
$var reg 16 R" m_datay[15:0] $end
$var reg 16 S" m_dataz[15:0] $end
$var reg 1 T" m_valid $end
$var reg 1 U" m_inv $end
$var reg 1 V" m_ready $end
$var reg 16 W" s_datax[15:0] $end
$var reg 16 X" s_datay[15:0] $end
$var reg 16 Y" s_dataz[15:0] $end
$var reg 16 Z" s_datat[15:0] $end
$var reg 1 [" s_valid $end
$var reg 1 \" s_ready $end
$var reg 1 ]" s_inv $end
$var reg 1 ^" clk $end
$var reg 1 _" rst $end
$comment state is not handled $end
$upscope $end
$upscope $end
$scope module connection_instance(7) $end
$scope module iteration $end
$var reg 16 `" m_datax[15:0] $end
$var reg 16 a" m_datay[15:0] $end
$var reg 16 b" m_dataz[15:0] $end
$var reg 1 c" m_valid $end
$var reg 1 d" m_inv $end
$var reg 1 e" m_ready $end
$var reg 16 f" s_datax[15:0] $end
$var reg 16 g" s_datay[15:0] $end
$var reg 16 h" s_dataz[15:0] $end
$var reg 16 i" s_datat[15:0] $end
$var reg 1 j" s_valid $end
$var reg 1 k" s_ready $end
$var reg 1 l" s_inv $end
$var reg 1 m" clk $end
$var reg 1 n" rst $end
$comment state is not handled $end
$upscope $end
$upscope $end
$scope module connection_instance(8) $end
$scope module iteration $end
$var reg 16 o" m_datax[15:0] $end
$var reg 16 p" m_datay[15:0] $end
$var reg 16 q" m_dataz[15:0] $end
$var reg 1 r" m_valid $end
$var reg 1 s" m_inv $end
$var reg 1 t" m_ready $end
$var reg 16 u" s_datax[15:0] $end
$var reg 16 v" s_datay[15:0] $end
$var reg 16 w" s_dataz[15:0] $end
$var reg 16 x" s_datat[15:0] $end
$var reg 1 y" s_valid $end
$var reg 1 z" s_ready $end
$var reg 1 {" s_inv $end
$var reg 1 |" clk $end
$var reg 1 }" rst $end
$comment state is not handled $end
$upscope $end
$upscope $end
$scope module connection_instance(9) $end
$scope module iteration $end
$var reg 16 !# m_datax[15:0] $end
$var reg 16 "# m_datay[15:0] $end
$var reg 16 ## m_dataz[15:0] $end
$var reg 1 $# m_valid $end
$var reg 1 %# m_inv $end
$var reg 1 &# m_ready $end
$var reg 16 '# s_datax[15:0] $end
$var reg 16 (# s_datay[15:0] $end
$var reg 16 )# s_dataz[15:0] $end
$var reg 16 *# s_datat[15:0] $end
$var reg 1 +# s_valid $end
$var reg 1 ,# s_ready $end
$var reg 1 -# s_inv $end
$var reg 1 .# clk $end
$var reg 1 /# rst $end
$comment state is not handled $end
$upscope $end
$upscope $end
$upscope $end
$enddefinitions $end
#0
0!
0"
b00000000 #
0$
0%
U&
b00000000 '
1(
0)
0*
bUUUUUUUU +
U,
U-
U.
b00000000 /
00
01
02
b00000000 3
04
05
06
bUUUUUUUU 7
U8
U9
1:
bUUUUUUUU ;
U<
U=
U>
b00000000 ?
0@
0A
UB
0C
0D
bUUUUUUUU E
UF
UG
1H
bUUUUUUUU I
UJ
UK
UL
0M
0N
0O
b0000000000000000 P
bUUUUUUUUUU0 Q
b0UUUUUUUUUU R
bUUUUUUUUUU0 S
bUUUUUUUUUUUUUUUU T
bUUUUUUUUUUUUUUUU U
bUUUUUUUUUUUUUUUU V
UW
UX
UY
bUUUUUUUUUUUUUUUU Z
bUUUUUUUUUUUUUUUU [
bUUUUUUUUUUUUUUUU \
b0001000110010100 ]
0^
U_
0`
0a
0b
bUUUUUUUUUUUUUUUU c
bUUUUUUUUUUUUUUUU d
bUUUUUUUUUUUUUUUU e
Uf
Ug
Uh
bUUUUUUUUUUUUUUUU i
bUUUUUUUUUUUUUUUU j
bUUUUUUUUUUUUUUUU k
b0000101001100001 l
Um
Un
Uo
0p
0q
bUUUUUUUUUUUUUUUU r
bUUUUUUUUUUUUUUUU s
bUUUUUUUUUUUUUUUU t
Uu
Uv
Uw
bUUUUUUUUUUUUUUUU x
bUUUUUUUUUUUUUUUU y
bUUUUUUUUUUUUUUUU z
b0000010101111100 {
U|
U}
U!"
0""
0#"
bUUUUUUUUUUUUUUUU $"
bUUUUUUUUUUUUUUUU %"
bUUUUUUUUUUUUUUUU &"
U'"
U("
U)"
bUUUUUUUUUUUUUUUU *"
bUUUUUUUUUUUUUUUU +"
bUUUUUUUUUUUUUUUU ,"
b0000001011001001 -"
U."
U/"
U0"
01"
02"
bUUUUUUUUUUUUUUUU 3"
bUUUUUUUUUUUUUUUU 4"
bUUUUUUUUUUUUUUUU 5"
U6"
U7"
U8"
bUUUUUUUUUUUUUUUU 9"
bUUUUUUUUUUUUUUUU :"
bUUUUUUUUUUUUUUUU ;"
b0000000101100110 <"
U="
U>"
U?"
0@"
0A"
bUUUUUUUUUUUUUUUU B"
bUUUUUUUUUUUUUUUU C"
bUUUUUUUUUUUUUUUU D"
UE"
UF"
UG"
bUUUUUUUUUUUUUUUU H"
bUUUUUUUUUUUUUUUU I"
bUUUUUUUUUUUUUUUU J"
b0000000010110011 K"
UL"
UM"
UN"
0O"
0P"
bUUUUUUUUUUUUUUUU Q"
bUUUUUUUUUUUUUUUU R"
bUUUUUUUUUUUUUUUU S"
UT"
UU"
UV"
bUUUUUUUUUUUUUUUU W"
bUUUUUUUUUUUUUUUU X"
bUUUUUUUUUUUUUUUU Y"
b0000000001011010 Z"
U["
U\"
U]"
0^"
0_"
bUUUUUUUUUUUUUUUU `"
bUUUUUUUUUUUUUUUU a"
bUUUUUUUUUUUUUUUU b"
Uc"
Ud"
Ue"
bUUUUUUUUUUUUUUUU f"
bUUUUUUUUUUUUUUUU g"
bUUUUUUUUUUUUUUUU h"
b0000000000101101 i"
Uj"
Uk"
Ul"
0m"
0n"
bUUUUUUUUUUUUUUUU o"
bUUUUUUUUUUUUUUUU p"
bUUUUUUUUUUUUUUUU q"
Ur"
Us"
Ut"
bUUUUUUUUUUUUUUUU u"
bUUUUUUUUUUUUUUUU v"
bUUUUUUUUUUUUUUUU w"
b0000000000010110 x"
Uy"
Uz"
U{"
0|"
0}"
bUUUUUUUUUUUUUUUU !#
bUUUUUUUUUUUUUUUU "#
bUUUUUUUUUUUUUUUU ##
U$#
U%#
0&#
bUUUUUUUUUUUUUUUU '#
bUUUUUUUUUUUUUUUU (#
bUUUUUUUUUUUUUUUU )#
b0000000000001011 *#
U+#
U,#
U-#
0.#
0/#
#100000000
1!
1&
1*
b00000000 +
0,
1.
b00000000 7
08
b00000000 ;
0<
1>
1B
1C
b00000000 E
0F
b00000000 I
0J
1L
1M
b00000000000 Q
b01111111111 R
b00000000000 S
b0000000000000000 T
b0000000000000000 U
b0000000000000000 V
0W
0X
1Y
1_
1a
b0000000000000000 c
b0000000000000000 d
b0000000000000000 e
0f
0g
1h
b0000000000000000 i
b0000000000000000 j
b0000000000000000 k
0m
1n
0o
1p
b0000000000000000 r
b0000000000000000 s
b0000000000000000 t
0u
0v
1w
b0000000000000000 x
b0000000000000000 y
b0000000000000000 z
0|
1}
0!"
1""
b0000000000000000 $"
b0000000000000000 %"
b0000000000000000 &"
0'"
0("
1)"
b0000000000000000 *"
b0000000000000000 +"
b0000000000000000 ,"
0."
1/"
00"
11"
b0000000000000000 3"
b0000000000000000 4"
b0000000000000000 5"
06"
07"
18"
b0000000000000000 9"
b0000000000000000 :"
b0000000000000000 ;"
0="
1>"
0?"
1@"
b0000000000000000 B"
b0000000000000000 C"
b0000000000000000 D"
0E"
0F"
1G"
b0000000000000000 H"
b0000000000000000 I"
b0000000000000000 J"
0L"
1M"
0N"
1O"
b0000000000000000 Q"
b0000000000000000 R"
b0000000000000000 S"
0T"
0U"
1V"
b0000000000000000 W"
b0000000000000000 X"
b0000000000000000 Y"
0["
1\"
0]"
1^"
b0000000000000000 `"
b0000000000000000 a"
b0000000000000000 b"
0c"
0d"
1e"
b0000000000000000 f"
b0000000000000000 g"
b0000000000000000 h"
0j"
1k"
0l"
1m"
b0000000000000000 o"
b0000000000000000 p"
b0000000000000000 q"
0r"
0s"
1t"
b0000000000000000 u"
b0000000000000000 v"
b0000000000000000 w"
0y"
1z"
0{"
1|"
b0000000000000000 !#
b0000000000000000 "#
b0000000000000000 ##
0$#
0%#
b0000000000000000 '#
b0000000000000000 (#
b0000000000000000 )#
0+#
1,#
0-#
1.#
#180000000
1"
1D
1N
1b
1q
1#"
12"
1A"
1P"
1_"
1n"
1}"
1/#
#200000000
0!
0C
0M
0a
0p
0""
01"
0@"
0O"
0^"
0m"
0|"
0.#
#300000000
1!
1$
0*
1@
1C
1M
1a
1p
1""
11"
1@"
1O"
1^"
1m"
1|"
1.#
#400000000
0!
0C
0M
0a
0p
0""
01"
0@"
0O"
0^"
0m"
0|"
0.#
#500000000
1!
1C
1M
1a
1p
1""
11"
1@"
1O"
1^"
1m"
1|"
1.#
#600000000
0!
0C
0M
0a
0p
0""
01"
0@"
0O"
0^"
0m"
0|"
0.#
#700000000
1!
0$
0&
1*
b01111101 +
1,
b01111101 ;
1<
0@
0B
1C
b01111101 I
1J
1M
1a
1p
1""
11"
1@"
1O"
1^"
1m"
1|"
1.#
#800000000
0!
0C
0M
0a
0p
0""
01"
0@"
0O"
0^"
0m"
0|"
0.#
#900000000
1!
b00000001 #
1$
0*
b00011001 +
b00011001 ;
b00000001 ?
1@
1C
b00011001 I
1M
b0000000001111101 Z
1a
1p
1""
11"
1@"
1O"
1^"
1m"
1|"
1.#
#1000000000
0!
0C
0M
0a
0p
0""
01"
0@"
0O"
0^"
0m"
0|"
0.#
#1100000000
1!
1&
0,
0.
0<
0>
1B
1C
0J
0L
1M
b00000000001 Q
b0000000000011001 [
b0000000000000000 \
1^
1a
1p
1""
11"
1@"
1O"
1^"
1m"
1|"
1.#
#1200000000
0!
0C
0M
0a
0p
0""
01"
0@"
0O"
0^"
0m"
0|"
0.#
#1300000000
1!
b00000000 #
b00000000 ?
1C
1M
b00000000010 Q
b11111111111 R
b0000000010010110 T
b1111111110011100 U
b0001000110010100 V
1W
0^
1a
b0000000010010110 i
b1111111110011100 j
b0001000110010100 k
1m
1p
1""
11"
1@"
1O"
1^"
1m"
1|"
1&#
1.#
#1400000000
0!
0C
0M
0a
0p
0""
01"
0@"
0O"
0^"
0m"
0|"
0.#
#1500000000
1!
0$
0&
1*
b01101010 +
1,
b01101010 ;
1<
0@
0B
1C
b01101010 I
1J
1M
b00000000100 Q
0W
1a
b0000000011001000 c
b1111111111100111 d
b0000011100110011 e
1f
0m
1p
b0000000011001000 x
b1111111111100111 y
b0000011100110011 z
1|
1""
11"
1@"
1O"
1^"
1m"
1|"
1.#
#1600000000
0!
0C
0M
0a
0p
0""
01"
0@"
0O"
0^"
0m"
0|"
0.#
#1700000000
1!
b00000010 #
1$
0*
b00000010 ?
1@
1C
1M
b00000001000 Q
1a
0f
1p
b0000000011001111 r
b0000000000011001 s
b0000000110110111 t
1u
0|
1""
b0000000011001111 *"
b0000000000011001 +"
b0000000110110111 ,"
1."
11"
1@"
1O"
1^"
1m"
1|"
1.#
#1800000000
0!
0C
0M
0a
0p
0""
01"
0@"
0O"
0^"
0m"
0|"
0.#
#1900000000
1!
1C
1M
b00000010000 Q
1a
1p
0u
1""
b0000000011010010 $"
b0000010010000000 &"
1'"
0."
11"
b0000000011010010 9"
b0000010010000000 ;"
1="
1@"
1O"
1^"
1m"
1|"
1.#
#2000000000
0!
0C
0M
0a
0p
0""
01"
0@"
0O"
0^"
0m"
0|"
0.#
#2100000000
1!
1C
1M
b00000100000 Q
1a
1p
1""
0'"
11"
b0000000011010010 3"
b1111111111110011 4"
b0000010111100110 5"
16"
0="
1@"
b0000000011010010 H"
b1111111111110011 I"
b0000010111100110 J"
1L"
1O"
1^"
1m"
1|"
1.#
#2200000000
0!
0C
0M
0a
0p
0""
01"
0@"
0O"
0^"
0m"
0|"
0.#
#2300000000
1!
1C
1M
b00001000000 Q
1a
1p
1""
11"
06"
1@"
b0000000011010011 B"
b1111111111111001 C"
b0000010100110011 D"
1E"
0L"
1O"
b0000000011010011 W"
b1111111111111001 X"
b0000010100110011 Y"
1["
1^"
1m"
1|"
1.#
#2400000000
0!
0C
0M
0a
0p
0""
01"
0@"
0O"
0^"
0m"
0|"
0.#
#2500000000
1!
1C
1M
b00010000000 Q
1a
1p
1""
11"
1@"
0E"
1O"
b0000000011010100 Q"
b1111111111111100 R"
b0000010011011001 S"
1T"
0["
1^"
b0000000011010100 f"
b1111111111111100 g"
b0000010011011001 h"
1j"
1m"
1|"
1.#
#2600000000
0!
0C
0M
0a
0p
0""
01"
0@"
0O"
0^"
0m"
0|"
0.#
#2700000000
1!
1C
1M
b00100000000 Q
1a
1p
1""
11"
1@"
1O"
0T"
1^"
b0000000011010101 `"
b1111111111111101 a"
b0000010010101100 b"
1c"
0j"
1m"
b0000000011010101 u"
b1111111111111101 v"
b0000010010101100 w"
1y"
1|"
1.#
#2800000000
0!
0C
0M
0a
0p
0""
01"
0@"
0O"
0^"
0m"
0|"
0.#
#2900000000
1!
1C
1M
b01000000000 Q
1a
1p
1""
11"
1@"
1O"
1^"
0c"
1m"
b0000000011010110 o"
b1111111111111101 p"
b0000010010010110 q"
1r"
0y"
1|"
b0000000011010110 '#
b1111111111111101 (#
b0000010010010110 )#
1+#
1.#
#3000000000
0!
0C
0M
0a
0p
0""
01"
0@"
0O"
0^"
0m"
0|"
0.#
#3100000000
1!
1C
1M
b10000000000 Q
1a
1p
1""
11"
1@"
1O"
1^"
1m"
0r"
1|"
b0000000011010111 !#
b1111111111111101 "#
b0000010010001011 ##
1$#
0+#
1.#
#3200000000
0!
0C
0M
0a
0p
0""
01"
0@"
0O"
0^"
0m"
0|"
0.#
#3300000000
1!
b11010110 7
18
1C
b11010110 E
1F
1M
b00000000000 Q
b01111111111 R
1a
1p
1""
11"
1@"
1O"
1^"
1m"
1|"
0$#
0&#
1.#
#3400000000
0!
0C
0M
0a
0p
0""
01"
0@"
0O"
0^"
0m"
0|"
0.#
#3500000000
1!
b11111101 7
1C
b11111101 E
1M
1a
1p
1""
11"
1@"
1O"
1^"
1m"
1|"
1.#
#3600000000
0!
0C
0M
0a
0p
0""
01"
0@"
0O"
0^"
0m"
0|"
0.#
#3700000000
1!
1.
b00001001 7
08
1>
1C
b00001001 E
0F
1L
1M
b0000010010010110 P
1a
1p
1""
11"
1@"
1O"
1^"
1m"
1|"
1.#
#3800000000
0!
0C
0M
0a
0p
0""
01"
0@"
0O"
0^"
0m"
0|"
0.#
#3900000000
1!
b01000111 +
b01000111 ;
1C
b01000111 I
1M
b0000000001101010 Z
1a
1p
1""
11"
1@"
1O"
1^"
1m"
1|"
1.#
#4000000000
0!
0C
0M
0a
0p
0""
01"
0@"
0O"
0^"
0m"
0|"
0.#
#4100000000
1!
1&
0,
0.
0<
0>
1B
1C
0J
0L
1M
b00000000001 Q
b0000000001000111 [
1^
1a
1p
1""
11"
1@"
1O"
1^"
1m"
1|"
1.#
#4200000000
0!
0C
0M
0a
0p
0""
01"
0@"
0O"
0^"
0m"
0|"
0.#
#4300000000
1!
b00000000 #
b00000000 ?
1C
1M
b00000000010 Q
b11111111111 R
b0000000010110001 T
b1111111111011101 U
1W
0^
1a
b0000000010110001 i
b1111111111011101 j
1m
1p
1""
11"
1@"
1O"
1^"
1m"
1|"
1&#
1.#
#4400000000
0!
0C
0M
0a
0p
0""
01"
0@"
0O"
0^"
0m"
0|"
0.#
#4500000000
1!
0$
0&
1*
1,
1<
0@
0B
1C
1J
1M
b00000000100 Q
0W
1a
b0000000011000011 c
b0000000000110101 d
1f
0m
1p
b0000000011000011 x
b0000000000110101 y
1|
1""
11"
1@"
1O"
1^"
1m"
1|"
1.#
#4600000000
0!
0C
0M
0a
0p
0""
01"
0@"
0O"
0^"
0m"
0|"
0.#
#4700000000
1!
b00000011 #
1$
0*
b00000011 ?
1@
1C
1M
b00000001000 Q
1a
0f
1p
b0000000011010000 r
b0000000000000101 s
b0000110010101111 t
1u
0|
1""
b0000000011010000 *"
b0000000000000101 +"
b0000110010101111 ,"
1."
11"
1@"
1O"
1^"
1m"
1|"
1.#
#4800000000
0!
0C
0M
0a
0p
0""
01"
0@"
0O"
0^"
0m"
0|"
0.#
#4900000000
1!
1C
1M
b00000010000 Q
1a
1p
0u
1""
b0000000011010000 $"
b1111111111101011 %"
b0000111101111000 &"
1'"
0."
11"
b0000000011010000 9"
b1111111111101011 :"
b0000111101111000 ;"
1="
1@"
1O"
1^"
1m"
1|"
1.#
#5000000000
0!
0C
0M
0a
0p
0""
01"
0@"
0O"
0^"
0m"
0|"
0.#
#5100000000
1!
1C
1M
b00000100000 Q
1a
1p
1""
0'"
11"
b1111111111111000 4"
b0000111000010010 5"
16"
0="
1@"
b1111111111111000 I"
b0000111000010010 J"
1L"
1O"
1^"
1m"
1|"
1.#
#5200000000
0!
0C
0M
0a
0p
0""
01"
0@"
0O"
0^"
0m"
0|"
0.#
#5300000000
1!
1C
1M
b00001000000 Q
1a
1p
1""
11"
06"
1@"
b1111111111111110 C"
b0000110101011111 D"
1E"
0L"
1O"
b1111111111111110 X"
b0000110101011111 Y"
1["
1^"
1m"
1|"
1.#
#5400000000
0!
0C
0M
0a
0p
0""
01"
0@"
0O"
0^"
0m"
0|"
0.#
#5500000000
1!
1C
1M
b00010000000 Q
1a
1p
1""
11"
1@"
0E"
1O"
b0000000000000001 R"
b0000110100000101 S"
1T"
0["
1^"
b0000000000000001 g"
b0000110100000101 h"
1j"
1m"
1|"
1.#
#5600000000
0!
0C
0M
0a
0p
0""
01"
0@"
0O"
0^"
0m"
0|"
0.#
#5700000000
1!
1C
1M
b00100000000 Q
1a
1p
1""
11"
1@"
1O"
0T"
1^"
b0000000011010100 `"
b0000000000000000 a"
b0000110100110010 b"
1c"
0j"
1m"
b0000000011010100 u"
b0000000000000000 v"
b0000110100110010 w"
1y"
1|"
1.#
#5800000000
0!
0C
0M
0a
0p
0""
01"
0@"
0O"
0^"
0m"
0|"
0.#
#5900000000
1!
1C
1M
b01000000000 Q
1a
1p
1""
11"
1@"
1O"
1^"
0c"
1m"
b0000000011010100 o"
b0000000000000000 p"
b0000110101001000 q"
1r"
0y"
1|"
b0000000011010100 '#
b0000000000000000 (#
b0000110101001000 )#
1+#
1.#
#6000000000
0!
0C
0M
0a
0p
0""
01"
0@"
0O"
0^"
0m"
0|"
0.#
#6100000000
1!
1C
1M
b10000000000 Q
1a
1p
1""
11"
1@"
1O"
1^"
1m"
0r"
1|"
b0000000011010100 !#
b0000000000000000 "#
b0000110101010011 ##
1$#
0+#
1.#
#6200000000
0!
0C
0M
0a
0p
0""
01"
0@"
0O"
0^"
0m"
0|"
0.#
#6300000000
1!
b11010100 7
18
1C
b11010100 E
1F
1M
b00000000000 Q
b01111111111 R
1a
1p
1""
11"
1@"
1O"
1^"
1m"
1|"
0$#
0&#
1.#
#6400000000
0!
0C
0M
0a
0p
0""
01"
0@"
0O"
0^"
0m"
0|"
0.#
#6500000000
1!
b00000000 7
1C
b00000000 E
1M
1a
1p
1""
11"
1@"
1O"
1^"
1m"
1|"
1.#
#6600000000
0!
0C
0M
0a
0p
0""
01"
0@"
0O"
0^"
0m"
0|"
0.#
#6700000000
1!
1.
b00011010 7
08
1>
1C
b00011010 E
0F
1L
1M
b0000110101001000 P
1a
1p
1""
11"
1@"
1O"
1^"
1m"
1|"
1.#
#6800000000
0!
0C
0M
0a
0p
0""
01"
0@"
0O"
0^"
0m"
0|"
0.#
#6900000000
1!
b01101010 +
b01101010 ;
1C
b01101010 I
1M
b0000000001000111 Z
1a
1p
1""
11"
1@"
1O"
1^"
1m"
1|"
1.#
#7000000000
0!
0C
0M
0a
0p
0""
01"
0@"
0O"
0^"
0m"
0|"
0.#
#7100000000
1!
1&
0,
0.
0<
0>
1B
1C
0J
0L
1M
b00000000001 Q
b0000000001101010 [
1^
1a
1p
1""
11"
1@"
1O"
1^"
1m"
1|"
1.#
#7200000000
0!
0C
0M
0a
0p
0""
01"
0@"
0O"
0^"
0m"
0|"
0.#
#7300000000
1!
b00000000 #
b00000000 ?
1C
1M
b00000000010 Q
b11111111111 R
b0000000000100011 U
1W
0^
1a
b0000000000100011 j
1m
1p
1""
11"
1@"
1O"
1^"
1m"
1|"
1&#
1.#
#7400000000
0!
0C
0M
0a
0p
0""
01"
0@"
0O"
0^"
0m"
0|"
0.#
#7500000000
1!
0$
0&
1*
b00011001 +
1,
b00011001 ;
1<
0@
0B
1C
b00011001 I
1J
1M
b00000000100 Q
0W
1a
b0000000011000010 c
b1111111111001011 d
b0001101111110101 e
1f
0m
1p
b0000000011000010 x
b1111111111001011 y
b0001101111110101 z
1|
1""
11"
1@"
1O"
1^"
1m"
1|"
1.#
#7600000000
0!
0C
0M
0a
0p
0""
01"
0@"
0O"
0^"
0m"
0|"
0.#
#7700000000
1!
1$
0*
1@
1C
1M
b00000001000 Q
1a
0f
1p
b1111111111111011 s
b0001011001111001 t
1u
0|
1""
b1111111111111011 +"
b0001011001111001 ,"
1."
11"
1@"
1O"
1^"
1m"
1|"
1.#
#7800000000
0!
0C
0M
0a
0p
0""
01"
0@"
0O"
0^"
0m"
0|"
0.#
#7900000000
1!
1C
1M
b00000010000 Q
1a
1p
0u
1""
b0000000011010001 $"
b0000000000010101 %"
b0001001110110000 &"
1'"
0."
11"
b0000000011010001 9"
b0000000000010101 :"
b0001001110110000 ;"
1="
1@"
1O"
1^"
1m"
1|"
1.#
#8000000000
0!
0C
0M
0a
0p
0""
01"
0@"
0O"
0^"
0m"
0|"
0.#
#8100000000
1!
1C
1M
b00000100000 Q
1a
1p
1""
0'"
11"
b0000000000001000 4"
b0001010100010110 5"
16"
0="
1@"
b0000000000001000 I"
b0001010100010110 J"
1L"
1O"
1^"
1m"
1|"
1.#
#8200000000
0!
0C
0M
0a
0p
0""
01"
0@"
0O"
0^"
0m"
0|"
0.#
#8300000000
1!
1C
1M
b00001000000 Q
1a
1p
1""
11"
06"
1@"
b0000000011010010 B"
b0000000000000010 C"
b0001010111001001 D"
1E"
0L"
1O"
b0000000011010010 W"
b0000000000000010 X"
b0001010111001001 Y"
1["
1^"
1m"
1|"
1.#
#8400000000
0!
0C
0M
0a
0p
0""
01"
0@"
0O"
0^"
0m"
0|"
0.#
#8500000000
1!
1C
1M
b00010000000 Q
1a
1p
1""
11"
1@"
0E"
1O"
b0000000011010010 Q"
b1111111111111111 R"
b0001011000100011 S"
1T"
0["
1^"
b0000000011010010 f"
b1111111111111111 g"
b0001011000100011 h"
1j"
1m"
1|"
1.#
#8600000000
0!
0C
0M
0a
0p
0""
01"
0@"
0O"
0^"
0m"
0|"
0.#
#8700000000
1!
1C
1M
b00100000000 Q
1a
1p
1""
11"
1@"
1O"
0T"
1^"
b0000000011010011 `"
b0001010111110110 b"
1c"
0j"
1m"
b0000000011010011 u"
b0001010111110110 w"
1y"
1|"
1.#
#8800000000
0!
0C
0M
0a
0p
0""
01"
0@"
0O"
0^"
0m"
0|"
0.#
#8900000000
1!
1C
1M
b01000000000 Q
1a
1p
1""
11"
1@"
1O"
1^"
0c"
1m"
b0000000011010011 o"
b0001011000001100 q"
1r"
0y"
1|"
b0000000011010011 '#
b0001011000001100 )#
1+#
1.#
#9000000000
0!
0C
0M
0a
0p
0""
01"
0@"
0O"
0^"
0m"
0|"
0.#
#9100000000
1!
1C
1M
b10000000000 Q
1a
1p
1""
11"
1@"
1O"
1^"
1m"
0r"
1|"
b0000000011010011 !#
b0001011000010111 ##
1$#
0+#
1.#
#9200000000
0!
0C
0M
0a
0p
0""
01"
0@"
0O"
0^"
0m"
0|"
0.#
